%!PS-Adobe-3.0 EPSF-3.0
%%Title: ../../TPDS - Exascale issue/graphics/speedup-rlen=smart-gpu-identity-mgs.eps
%%Creator: matplotlib version 3.2.1, http://matplotlib.org/
%%CreationDate: Sat Apr 24 21:57:04 2021
%%Orientation: portrait
%%BoundingBox: 54.063125 311.6428125 557.936875 480.3571875
%%EndComments
%%BeginProlog
/mpldict 8 dict def
mpldict begin
/m { moveto } bind def
/l { lineto } bind def
/r { rlineto } bind def
/c { curveto } bind def
/cl { closepath } bind def
/box {
m
1 index 0 r
0 exch r
neg 0 r
cl
} bind def
/clipbox {
box
clip
newpath
} bind def
%!PS-Adobe-3.0 Resource-Font
%%Title: DejaVu Sans
%%Copyright: Copyright (c) 2003 by Bitstream, Inc. All Rights Reserved. Copyright (c) 2006 by Tavmjong Bah. All Rights Reserved. DejaVu changes are in public domain 
%%Creator: Converted from TrueType to type 3 by PPR
25 dict begin
/_d{bind def}bind def
/_m{moveto}_d
/_l{lineto}_d
/_cl{closepath eofill}_d
/_c{curveto}_d
/_sc{7 -1 roll{setcachedevice}{pop pop pop pop pop pop}ifelse}_d
/_e{exec}_d
/FontName /DejaVuSans def
/PaintType 0 def
/FontMatrix[.001 0 0 .001 0 0]def
/FontBBox[-1021 -463 1793 1232]def
/FontType 3 def
/Encoding [ /space /period /zero /one /two /three /four /five /seven /C /D /E /F /G /M /S /underscore /a /b /c /d /e /f /g /h /i /j /k /l /m /n /o /p /r /s /t /u /v /y ] def
/FontInfo 10 dict dup begin
/FamilyName (DejaVu Sans) def
/FullName (DejaVu Sans) def
/Notice (Copyright (c) 2003 by Bitstream, Inc. All Rights Reserved. Copyright (c) 2006 by Tavmjong Bah. All Rights Reserved. DejaVu changes are in public domain ) def
/Weight (Book) def
/Version (Version 2.35) def
/ItalicAngle 0.0 def
/isFixedPitch false def
/UnderlinePosition -130 def
/UnderlineThickness 90 def
end readonly def
/CharStrings 40 dict dup begin
/.notdef 0 def
/space{318 0 0 0 0 0 _sc
}_d
/period{318 0 107 0 210 124 _sc
107 124 _m
210 124 _l
210 0 _l
107 0 _l
107 124 _l
_cl}_d
/zero{636 0 66 -13 570 742 _sc
318 664 _m
267 664 229 639 203 589 _c
177 539 165 464 165 364 _c
165 264 177 189 203 139 _c
229 89 267 64 318 64 _c
369 64 407 89 433 139 _c
458 189 471 264 471 364 _c
471 464 458 539 433 589 _c
407 639 369 664 318 664 _c
318 742 _m
399 742 461 709 505 645 _c
548 580 570 486 570 364 _c
570 241 548 147 505 83 _c
461 19 399 -13 318 -13 _c
236 -13 173 19 130 83 _c
87 147 66 241 66 364 _c
66 486 87 580 130 645 _c
173 709 236 742 318 742 _c
_cl}_d
/one{636 0 110 0 544 729 _sc
124 83 _m
285 83 _l
285 639 _l
110 604 _l
110 694 _l
284 729 _l
383 729 _l
383 83 _l
544 83 _l
544 0 _l
124 0 _l
124 83 _l
_cl}_d
/two{{636 0 73 0 536 742 _sc
192 83 _m
536 83 _l
536 0 _l
73 0 _l
73 83 _l
110 121 161 173 226 239 _c
290 304 331 346 348 365 _c
380 400 402 430 414 455 _c
426 479 433 504 433 528 _c
433 566 419 598 392 622 _c
365 646 330 659 286 659 _c
255 659 222 653 188 643 _c
154 632 117 616 78 594 _c
78 694 _l
118 710 155 722 189 730 _c
223 738 255 742 284 742 _c
}_e{359 742 419 723 464 685 _c
509 647 532 597 532 534 _c
532 504 526 475 515 449 _c
504 422 484 390 454 354 _c
446 344 420 317 376 272 _c
332 227 271 164 192 83 _c
_cl}_e}_d
/three{{636 0 76 -13 556 742 _sc
406 393 _m
453 383 490 362 516 330 _c
542 298 556 258 556 212 _c
556 140 531 84 482 45 _c
432 6 362 -13 271 -13 _c
240 -13 208 -10 176 -4 _c
144 1 110 10 76 22 _c
76 117 _l
103 101 133 89 166 81 _c
198 73 232 69 268 69 _c
330 69 377 81 409 105 _c
441 129 458 165 458 212 _c
458 254 443 288 413 312 _c
383 336 341 349 287 349 _c
}_e{202 349 _l
202 430 _l
291 430 _l
339 430 376 439 402 459 _c
428 478 441 506 441 543 _c
441 580 427 609 401 629 _c
374 649 336 659 287 659 _c
260 659 231 656 200 650 _c
169 644 135 635 98 623 _c
98 711 _l
135 721 170 729 203 734 _c
235 739 266 742 296 742 _c
370 742 429 725 473 691 _c
517 657 539 611 539 553 _c
539 513 527 479 504 451 _c
481 423 448 403 406 393 _c
_cl}_e}_d
/four{636 0 49 0 580 729 _sc
378 643 _m
129 254 _l
378 254 _l
378 643 _l
352 729 _m
476 729 _l
476 254 _l
580 254 _l
580 172 _l
476 172 _l
476 0 _l
378 0 _l
378 172 _l
49 172 _l
49 267 _l
352 729 _l
_cl}_d
/five{{636 0 77 -13 549 729 _sc
108 729 _m
495 729 _l
495 646 _l
198 646 _l
198 467 _l
212 472 227 476 241 478 _c
255 480 270 482 284 482 _c
365 482 429 459 477 415 _c
525 370 549 310 549 234 _c
549 155 524 94 475 51 _c
426 8 357 -13 269 -13 _c
238 -13 207 -10 175 -6 _c
143 -1 111 6 77 17 _c
77 116 _l
106 100 136 88 168 80 _c
199 72 232 69 267 69 _c
}_e{323 69 368 83 401 113 _c
433 143 450 183 450 234 _c
450 284 433 324 401 354 _c
368 384 323 399 267 399 _c
241 399 214 396 188 390 _c
162 384 135 375 108 363 _c
108 729 _l
_cl}_e}_d
/seven{636 0 82 0 551 729 _sc
82 729 _m
551 729 _l
551 687 _l
286 0 _l
183 0 _l
432 646 _l
82 646 _l
82 729 _l
_cl}_d
/C{{698 0 56 -13 644 742 _sc
644 673 _m
644 569 _l
610 599 575 622 537 638 _c
499 653 460 661 418 661 _c
334 661 270 635 226 584 _c
182 533 160 460 160 364 _c
160 268 182 194 226 143 _c
270 92 334 67 418 67 _c
460 67 499 74 537 90 _c
575 105 610 128 644 159 _c
644 56 _l
609 32 572 15 534 4 _c
496 -7 455 -13 412 -13 _c
302 -13 215 20 151 87 _c
}_e{87 154 56 246 56 364 _c
56 481 87 573 151 641 _c
215 708 302 742 412 742 _c
456 742 497 736 535 725 _c
573 713 610 696 644 673 _c
_cl}_e}_d
/D{770 0 98 0 711 729 _sc
197 648 _m
197 81 _l
316 81 _l
416 81 490 103 537 149 _c
583 195 607 267 607 365 _c
607 463 583 534 537 580 _c
490 625 416 648 316 648 _c
197 648 _l
98 729 _m
301 729 _l
442 729 546 699 612 641 _c
678 582 711 490 711 365 _c
711 239 677 147 611 88 _c
545 29 441 0 301 0 _c
98 0 _l
98 729 _l
_cl}_d
/E{632 0 98 0 568 729 _sc
98 729 _m
559 729 _l
559 646 _l
197 646 _l
197 430 _l
544 430 _l
544 347 _l
197 347 _l
197 83 _l
568 83 _l
568 0 _l
98 0 _l
98 729 _l
_cl}_d
/F{575 0 98 0 517 729 _sc
98 729 _m
517 729 _l
517 646 _l
197 646 _l
197 431 _l
486 431 _l
486 348 _l
197 348 _l
197 0 _l
98 0 _l
98 729 _l
_cl}_d
/G{{775 0 56 -13 693 742 _sc
595 104 _m
595 300 _l
434 300 _l
434 381 _l
693 381 _l
693 68 _l
655 40 613 20 567 7 _c
521 -6 472 -13 420 -13 _c
306 -13 216 20 152 86 _c
88 152 56 245 56 364 _c
56 482 88 575 152 642 _c
216 708 306 742 420 742 _c
467 742 512 736 555 724 _c
598 712 638 695 674 673 _c
674 568 _l
637 598 598 621 557 637 _c
516 653 473 661 428 661 _c
}_e{338 661 271 636 227 586 _c
182 536 160 462 160 364 _c
160 265 182 191 227 141 _c
271 91 338 67 428 67 _c
462 67 493 70 521 76 _c
549 82 573 91 595 104 _c
_cl}_e}_d
/M{863 0 98 0 765 729 _sc
98 729 _m
245 729 _l
431 233 _l
618 729 _l
765 729 _l
765 0 _l
669 0 _l
669 640 _l
481 140 _l
382 140 _l
194 640 _l
194 0 _l
98 0 _l
98 729 _l
_cl}_d
/S{{635 0 66 -13 579 742 _sc
535 705 _m
535 609 _l
497 627 462 640 429 649 _c
395 657 363 662 333 662 _c
279 662 237 651 208 631 _c
179 610 165 580 165 542 _c
165 510 174 485 194 469 _c
213 452 250 439 304 429 _c
364 417 _l
437 403 491 378 526 343 _c
561 307 579 260 579 201 _c
579 130 555 77 508 41 _c
460 5 391 -13 300 -13 _c
265 -13 228 -9 189 -2 _c
}_e{150 5 110 16 69 32 _c
69 134 _l
109 111 148 94 186 83 _c
224 71 262 66 300 66 _c
356 66 399 77 430 99 _c
460 121 476 152 476 194 _c
476 230 465 258 443 278 _c
421 298 385 313 335 323 _c
275 335 _l
201 349 148 372 115 404 _c
82 435 66 478 66 534 _c
66 598 88 649 134 686 _c
179 723 242 742 322 742 _c
356 742 390 739 426 733 _c
461 727 497 717 535 705 _c
}_e{_cl}_e}_d
/underscore{500 0 -9 -235 510 -165 _sc
510 -165 _m
510 -235 _l
-9 -235 _l
-9 -165 _l
510 -165 _l
_cl}_d
/a{{613 0 60 -13 522 560 _sc
343 275 _m
270 275 220 266 192 250 _c
164 233 150 205 150 165 _c
150 133 160 107 181 89 _c
202 70 231 61 267 61 _c
317 61 357 78 387 114 _c
417 149 432 196 432 255 _c
432 275 _l
343 275 _l
522 312 _m
522 0 _l
432 0 _l
432 83 _l
411 49 385 25 355 10 _c
325 -5 287 -13 243 -13 _c
187 -13 142 2 109 33 _c
76 64 60 106 60 159 _c
}_e{60 220 80 266 122 298 _c
163 329 224 345 306 345 _c
432 345 _l
432 354 _l
432 395 418 427 391 450 _c
364 472 326 484 277 484 _c
245 484 215 480 185 472 _c
155 464 127 453 100 439 _c
100 522 _l
132 534 164 544 195 550 _c
226 556 256 560 286 560 _c
365 560 424 539 463 498 _c
502 457 522 395 522 312 _c
_cl}_e}_d
/b{{635 0 91 -13 580 760 _sc
487 273 _m
487 339 473 390 446 428 _c
418 466 381 485 334 485 _c
286 485 249 466 222 428 _c
194 390 181 339 181 273 _c
181 207 194 155 222 117 _c
249 79 286 61 334 61 _c
381 61 418 79 446 117 _c
473 155 487 207 487 273 _c
181 464 _m
199 496 223 520 252 536 _c
281 552 316 560 356 560 _c
422 560 476 533 518 481 _c
559 428 580 359 580 273 _c
}_e{580 187 559 117 518 65 _c
476 13 422 -13 356 -13 _c
316 -13 281 -5 252 10 _c
223 25 199 49 181 82 _c
181 0 _l
91 0 _l
91 760 _l
181 760 _l
181 464 _l
_cl}_e}_d
/c{{550 0 55 -13 488 560 _sc
488 526 _m
488 442 _l
462 456 437 466 411 473 _c
385 480 360 484 334 484 _c
276 484 230 465 198 428 _c
166 391 150 339 150 273 _c
150 206 166 154 198 117 _c
230 80 276 62 334 62 _c
360 62 385 65 411 72 _c
437 79 462 90 488 104 _c
488 21 _l
462 9 436 0 410 -5 _c
383 -10 354 -13 324 -13 _c
242 -13 176 12 128 64 _c
}_e{79 115 55 185 55 273 _c
55 362 79 432 128 483 _c
177 534 244 560 330 560 _c
358 560 385 557 411 551 _c
437 545 463 537 488 526 _c
_cl}_e}_d
/d{{635 0 55 -13 544 760 _sc
454 464 _m
454 760 _l
544 760 _l
544 0 _l
454 0 _l
454 82 _l
435 49 411 25 382 10 _c
353 -5 319 -13 279 -13 _c
213 -13 159 13 117 65 _c
75 117 55 187 55 273 _c
55 359 75 428 117 481 _c
159 533 213 560 279 560 _c
319 560 353 552 382 536 _c
411 520 435 496 454 464 _c
148 273 _m
148 207 161 155 188 117 _c
215 79 253 61 301 61 _c
}_e{348 61 385 79 413 117 _c
440 155 454 207 454 273 _c
454 339 440 390 413 428 _c
385 466 348 485 301 485 _c
253 485 215 466 188 428 _c
161 390 148 339 148 273 _c
_cl}_e}_d
/e{{615 0 55 -13 562 560 _sc
562 296 _m
562 252 _l
149 252 _l
153 190 171 142 205 110 _c
238 78 284 62 344 62 _c
378 62 412 66 444 74 _c
476 82 509 95 541 113 _c
541 28 _l
509 14 476 3 442 -3 _c
408 -9 373 -13 339 -13 _c
251 -13 182 12 131 62 _c
80 112 55 181 55 268 _c
55 357 79 428 127 481 _c
175 533 241 560 323 560 _c
397 560 455 536 498 489 _c
}_e{540 441 562 377 562 296 _c
472 322 _m
471 371 457 410 431 440 _c
404 469 368 484 324 484 _c
274 484 234 469 204 441 _c
174 413 156 373 152 322 _c
472 322 _l
_cl}_e}_d
/f{352 0 23 0 371 760 _sc
371 760 _m
371 685 _l
285 685 _l
253 685 230 678 218 665 _c
205 652 199 629 199 595 _c
199 547 _l
347 547 _l
347 477 _l
199 477 _l
199 0 _l
109 0 _l
109 477 _l
23 477 _l
23 547 _l
109 547 _l
109 585 _l
109 645 123 690 151 718 _c
179 746 224 760 286 760 _c
371 760 _l
_cl}_d
/g{{635 0 55 -207 544 560 _sc
454 280 _m
454 344 440 395 414 431 _c
387 467 349 485 301 485 _c
253 485 215 467 188 431 _c
161 395 148 344 148 280 _c
148 215 161 165 188 129 _c
215 93 253 75 301 75 _c
349 75 387 93 414 129 _c
440 165 454 215 454 280 _c
544 68 _m
544 -24 523 -93 482 -139 _c
440 -184 377 -207 292 -207 _c
260 -207 231 -204 203 -200 _c
175 -195 147 -188 121 -178 _c
}_e{121 -91 _l
147 -105 173 -115 199 -122 _c
225 -129 251 -133 278 -133 _c
336 -133 380 -117 410 -87 _c
439 -56 454 -10 454 52 _c
454 96 _l
435 64 411 40 382 24 _c
353 8 319 0 279 0 _c
211 0 157 25 116 76 _c
75 127 55 195 55 280 _c
55 364 75 432 116 483 _c
157 534 211 560 279 560 _c
319 560 353 552 382 536 _c
411 520 435 496 454 464 _c
454 547 _l
544 547 _l
}_e{544 68 _l
_cl}_e}_d
/h{634 0 91 0 549 760 _sc
549 330 _m
549 0 _l
459 0 _l
459 327 _l
459 379 448 417 428 443 _c
408 469 378 482 338 482 _c
289 482 251 466 223 435 _c
195 404 181 362 181 309 _c
181 0 _l
91 0 _l
91 760 _l
181 760 _l
181 462 _l
202 494 227 519 257 535 _c
286 551 320 560 358 560 _c
420 560 468 540 500 501 _c
532 462 549 405 549 330 _c
_cl}_d
/i{278 0 94 0 184 760 _sc
94 547 _m
184 547 _l
184 0 _l
94 0 _l
94 547 _l
94 760 _m
184 760 _l
184 646 _l
94 646 _l
94 760 _l
_cl}_d
/j{278 0 -17 -207 184 760 _sc
94 547 _m
184 547 _l
184 -9 _l
184 -78 170 -128 144 -160 _c
117 -191 74 -207 16 -207 _c
-17 -207 _l
-17 -131 _l
6 -131 _l
40 -131 63 -123 75 -107 _c
87 -91 94 -58 94 -9 _c
94 547 _l
94 760 _m
184 760 _l
184 646 _l
94 646 _l
94 760 _l
_cl}_d
/k{579 0 91 0 576 760 _sc
91 760 _m
181 760 _l
181 311 _l
449 547 _l
564 547 _l
274 291 _l
576 0 _l
459 0 _l
181 267 _l
181 0 _l
91 0 _l
91 760 _l
_cl}_d
/l{278 0 94 0 184 760 _sc
94 760 _m
184 760 _l
184 0 _l
94 0 _l
94 760 _l
_cl}_d
/m{{974 0 91 0 889 560 _sc
520 442 _m
542 482 569 511 600 531 _c
631 550 668 560 711 560 _c
767 560 811 540 842 500 _c
873 460 889 403 889 330 _c
889 0 _l
799 0 _l
799 327 _l
799 379 789 418 771 444 _c
752 469 724 482 686 482 _c
639 482 602 466 575 435 _c
548 404 535 362 535 309 _c
535 0 _l
445 0 _l
445 327 _l
445 379 435 418 417 444 _c
398 469 369 482 331 482 _c
}_e{285 482 248 466 221 435 _c
194 404 181 362 181 309 _c
181 0 _l
91 0 _l
91 547 _l
181 547 _l
181 462 _l
201 495 226 520 255 536 _c
283 552 317 560 357 560 _c
397 560 430 550 458 530 _c
486 510 506 480 520 442 _c
_cl}_e}_d
/n{634 0 91 0 549 560 _sc
549 330 _m
549 0 _l
459 0 _l
459 327 _l
459 379 448 417 428 443 _c
408 469 378 482 338 482 _c
289 482 251 466 223 435 _c
195 404 181 362 181 309 _c
181 0 _l
91 0 _l
91 547 _l
181 547 _l
181 462 _l
202 494 227 519 257 535 _c
286 551 320 560 358 560 _c
420 560 468 540 500 501 _c
532 462 549 405 549 330 _c
_cl}_d
/o{612 0 55 -13 557 560 _sc
306 484 _m
258 484 220 465 192 427 _c
164 389 150 338 150 273 _c
150 207 163 156 191 118 _c
219 80 257 62 306 62 _c
354 62 392 80 420 118 _c
448 156 462 207 462 273 _c
462 337 448 389 420 427 _c
392 465 354 484 306 484 _c
306 560 _m
384 560 445 534 490 484 _c
534 433 557 363 557 273 _c
557 183 534 113 490 63 _c
445 12 384 -13 306 -13 _c
227 -13 165 12 121 63 _c
77 113 55 183 55 273 _c
55 363 77 433 121 484 _c
165 534 227 560 306 560 _c
_cl}_d
/p{{635 0 91 -207 580 560 _sc
181 82 _m
181 -207 _l
91 -207 _l
91 547 _l
181 547 _l
181 464 _l
199 496 223 520 252 536 _c
281 552 316 560 356 560 _c
422 560 476 533 518 481 _c
559 428 580 359 580 273 _c
580 187 559 117 518 65 _c
476 13 422 -13 356 -13 _c
316 -13 281 -5 252 10 _c
223 25 199 49 181 82 _c
487 273 _m
487 339 473 390 446 428 _c
418 466 381 485 334 485 _c
}_e{286 485 249 466 222 428 _c
194 390 181 339 181 273 _c
181 207 194 155 222 117 _c
249 79 286 61 334 61 _c
381 61 418 79 446 117 _c
473 155 487 207 487 273 _c
_cl}_e}_d
/r{411 0 91 0 411 560 _sc
411 463 _m
401 469 390 473 378 476 _c
366 478 353 480 339 480 _c
288 480 249 463 222 430 _c
194 397 181 350 181 288 _c
181 0 _l
91 0 _l
91 547 _l
181 547 _l
181 462 _l
199 495 224 520 254 536 _c
284 552 321 560 365 560 _c
371 560 378 559 386 559 _c
393 558 401 557 411 555 _c
411 463 _l
_cl}_d
/s{{521 0 54 -13 472 560 _sc
443 531 _m
443 446 _l
417 458 391 468 364 475 _c
336 481 308 485 279 485 _c
234 485 200 478 178 464 _c
156 450 145 430 145 403 _c
145 382 153 366 169 354 _c
185 342 217 330 265 320 _c
296 313 _l
360 299 405 279 432 255 _c
458 230 472 195 472 151 _c
472 100 452 60 412 31 _c
372 1 316 -13 246 -13 _c
216 -13 186 -10 154 -5 _c
}_e{122 0 89 8 54 20 _c
54 113 _l
87 95 120 82 152 74 _c
184 65 216 61 248 61 _c
290 61 323 68 346 82 _c
368 96 380 117 380 144 _c
380 168 371 187 355 200 _c
339 213 303 226 247 238 _c
216 245 _l
160 257 119 275 95 299 _c
70 323 58 356 58 399 _c
58 450 76 490 112 518 _c
148 546 200 560 268 560 _c
301 560 332 557 362 552 _c
391 547 418 540 443 531 _c
}_e{_cl}_e}_d
/t{392 0 27 0 368 702 _sc
183 702 _m
183 547 _l
368 547 _l
368 477 _l
183 477 _l
183 180 _l
183 135 189 106 201 94 _c
213 81 238 75 276 75 _c
368 75 _l
368 0 _l
276 0 _l
206 0 158 13 132 39 _c
106 65 93 112 93 180 _c
93 477 _l
27 477 _l
27 547 _l
93 547 _l
93 702 _l
183 702 _l
_cl}_d
/u{634 0 85 -13 543 560 _sc
85 216 _m
85 547 _l
175 547 _l
175 219 _l
175 167 185 129 205 103 _c
225 77 255 64 296 64 _c
344 64 383 79 411 110 _c
439 141 453 183 453 237 _c
453 547 _l
543 547 _l
543 0 _l
453 0 _l
453 84 _l
431 50 405 26 377 10 _c
348 -5 315 -13 277 -13 _c
214 -13 166 6 134 45 _c
101 83 85 140 85 216 _c
311 560 _m
311 560 _l
_cl}_d
/v{592 0 30 0 562 547 _sc
30 547 _m
125 547 _l
296 88 _l
467 547 _l
562 547 _l
357 0 _l
235 0 _l
30 547 _l
_cl}_d
/y{592 0 30 -207 562 547 _sc
322 -50 _m
296 -114 271 -157 247 -177 _c
223 -197 191 -207 151 -207 _c
79 -207 _l
79 -132 _l
132 -132 _l
156 -132 175 -126 189 -114 _c
203 -102 218 -75 235 -31 _c
251 9 _l
30 547 _l
125 547 _l
296 119 _l
467 547 _l
562 547 _l
322 -50 _l
_cl}_d
end readonly def

/BuildGlyph
 {exch begin
 CharStrings exch
 2 copy known not{pop /.notdef}if
 true 3 1 roll get exec
 end}_d

/BuildChar {
 1 index /Encoding get exch get
 1 index /BuildGlyph get exec
}_d

FontName currentdict end definefont pop
end
%%EndProlog
mpldict begin
54.063 311.643 translate
503.874 168.714 0 0 clipbox
gsave
0 0 m
503.87375 0 l
503.87375 168.714375 l
0 168.714375 l
cl
1.000 setgray
fill
grestore
gsave
40.54375 77.309375 m
496.67375 77.309375 l
496.67375 161.514375 l
40.54375 161.514375 l
cl
1.000 setgray
fill
grestore
gsave
456.1 84.2 40.54 77.31 clipbox
45.015613 121.947087 m
52.386815 121.947087 l
52.386815 133.357724 l
45.015613 133.357724 l
cl
0.667 setgray
fill
grestore
gsave
456.1 84.2 40.54 77.31 clipbox
64.672152 121.947087 m
72.043355 121.947087 l
72.043355 117.540098 l
64.672152 117.540098 l
cl
0.667 setgray
fill
grestore
gsave
456.1 84.2 40.54 77.31 clipbox
84.328692 121.947087 m
91.699894 121.947087 l
91.699894 128.523329 l
84.328692 128.523329 l
cl
0.667 setgray
fill
grestore
gsave
456.1 84.2 40.54 77.31 clipbox
103.985231 121.947087 m
111.356434 121.947087 l
111.356434 128.181005 l
103.985231 128.181005 l
cl
0.667 setgray
fill
grestore
gsave
456.1 84.2 40.54 77.31 clipbox
123.641771 121.947087 m
131.012973 121.947087 l
131.012973 124.126382 l
123.641771 124.126382 l
cl
0.667 setgray
fill
grestore
gsave
456.1 84.2 40.54 77.31 clipbox
143.29831 121.947087 m
150.669513 121.947087 l
150.669513 132.253644 l
143.29831 132.253644 l
cl
0.667 setgray
fill
grestore
gsave
456.1 84.2 40.54 77.31 clipbox
162.95485 121.947087 m
170.326052 121.947087 l
170.326052 130.768195 l
162.95485 130.768195 l
cl
0.667 setgray
fill
grestore
gsave
456.1 84.2 40.54 77.31 clipbox
182.61139 121.947087 m
189.982592 121.947087 l
189.982592 130.619663 l
182.61139 130.619663 l
cl
0.667 setgray
fill
grestore
gsave
456.1 84.2 40.54 77.31 clipbox
202.267929 121.947087 m
209.639131 121.947087 l
209.639131 127.067282 l
202.267929 127.067282 l
cl
0.667 setgray
fill
grestore
gsave
456.1 84.2 40.54 77.31 clipbox
221.924469 121.947087 m
229.295671 121.947087 l
229.295671 123.848895 l
221.924469 123.848895 l
cl
0.667 setgray
fill
grestore
gsave
456.1 84.2 40.54 77.31 clipbox
241.581008 121.947087 m
248.95221 121.947087 l
248.95221 130.861101 l
241.581008 130.861101 l
cl
0.667 setgray
fill
grestore
gsave
456.1 84.2 40.54 77.31 clipbox
261.237548 121.947087 m
268.60875 121.947087 l
268.60875 106.965859 l
261.237548 106.965859 l
cl
0.667 setgray
fill
grestore
gsave
456.1 84.2 40.54 77.31 clipbox
280.894087 121.947087 m
288.26529 121.947087 l
288.26529 127.342385 l
280.894087 127.342385 l
cl
0.667 setgray
fill
grestore
gsave
456.1 84.2 40.54 77.31 clipbox
300.550627 121.947087 m
307.921829 121.947087 l
307.921829 122.960676 l
300.550627 122.960676 l
cl
0.667 setgray
fill
grestore
gsave
456.1 84.2 40.54 77.31 clipbox
320.207166 121.947087 m
327.578369 121.947087 l
327.578369 132.024147 l
320.207166 132.024147 l
cl
0.667 setgray
fill
grestore
gsave
456.1 84.2 40.54 77.31 clipbox
339.863706 121.947087 m
347.234908 121.947087 l
347.234908 123.985675 l
339.863706 123.985675 l
cl
0.667 setgray
fill
grestore
gsave
456.1 84.2 40.54 77.31 clipbox
359.520245 121.947087 m
366.891448 121.947087 l
366.891448 141.112458 l
359.520245 141.112458 l
cl
0.667 setgray
fill
grestore
gsave
456.1 84.2 40.54 77.31 clipbox
379.176785 121.947087 m
386.547987 121.947087 l
386.547987 124.177604 l
379.176785 124.177604 l
cl
0.667 setgray
fill
grestore
gsave
456.1 84.2 40.54 77.31 clipbox
398.833324 121.947087 m
406.204527 121.947087 l
406.204527 131.436055 l
398.833324 131.436055 l
cl
0.667 setgray
fill
grestore
gsave
456.1 84.2 40.54 77.31 clipbox
418.489864 121.947087 m
425.861066 121.947087 l
425.861066 123.996042 l
418.489864 123.996042 l
cl
0.667 setgray
fill
grestore
gsave
456.1 84.2 40.54 77.31 clipbox
438.146404 121.947087 m
445.517606 121.947087 l
445.517606 130.987363 l
438.146404 130.987363 l
cl
0.667 setgray
fill
grestore
gsave
456.1 84.2 40.54 77.31 clipbox
457.802943 121.947087 m
465.174145 121.947087 l
465.174145 123.543981 l
457.802943 123.543981 l
cl
0.667 setgray
fill
grestore
gsave
456.1 84.2 40.54 77.31 clipbox
477.459483 121.947087 m
484.830685 121.947087 l
484.830685 124.018293 l
477.459483 124.018293 l
cl
0.667 setgray
fill
grestore
gsave
456.1 84.2 40.54 77.31 clipbox
52.386815 121.947087 m
59.758017 121.947087 l
59.758017 123.941114 l
52.386815 123.941114 l
cl
0.800 setgray
fill
grestore
gsave
456.1 84.2 40.54 77.31 clipbox
72.043355 121.947087 m
79.414557 121.947087 l
79.414557 117.592324 l
72.043355 117.592324 l
cl
0.800 setgray
fill
grestore
gsave
456.1 84.2 40.54 77.31 clipbox
91.699894 121.947087 m
99.071096 121.947087 l
99.071096 120.106801 l
91.699894 120.106801 l
cl
0.800 setgray
fill
grestore
gsave
456.1 84.2 40.54 77.31 clipbox
111.356434 121.947087 m
118.727636 121.947087 l
118.727636 128.944273 l
111.356434 128.944273 l
cl
0.800 setgray
fill
grestore
gsave
456.1 84.2 40.54 77.31 clipbox
131.012973 121.947087 m
138.384176 121.947087 l
138.384176 119.696652 l
131.012973 119.696652 l
cl
0.800 setgray
fill
grestore
gsave
456.1 84.2 40.54 77.31 clipbox
150.669513 121.947087 m
158.040715 121.947087 l
158.040715 125.670055 l
150.669513 125.670055 l
cl
0.800 setgray
fill
grestore
gsave
456.1 84.2 40.54 77.31 clipbox
170.326052 121.947087 m
177.697255 121.947087 l
177.697255 123.937861 l
170.326052 123.937861 l
cl
0.800 setgray
fill
grestore
gsave
456.1 84.2 40.54 77.31 clipbox
189.982592 121.947087 m
197.353794 121.947087 l
197.353794 109.514658 l
189.982592 109.514658 l
cl
0.800 setgray
fill
grestore
gsave
456.1 84.2 40.54 77.31 clipbox
209.639131 121.947087 m
217.010334 121.947087 l
217.010334 -21281.747833 l
209.639131 -21281.747833 l
cl
0.800 setgray
fill
grestore
gsave
456.1 84.2 40.54 77.31 clipbox
229.295671 121.947087 m
236.666873 121.947087 l
236.666873 -21281.747833 l
229.295671 -21281.747833 l
cl
0.800 setgray
fill
grestore
gsave
456.1 84.2 40.54 77.31 clipbox
248.95221 121.947087 m
256.323413 121.947087 l
256.323413 129.09832 l
248.95221 129.09832 l
cl
0.800 setgray
fill
grestore
gsave
456.1 84.2 40.54 77.31 clipbox
268.60875 121.947087 m
275.979952 121.947087 l
275.979952 80.588757 l
268.60875 80.588757 l
cl
0.800 setgray
fill
grestore
gsave
456.1 84.2 40.54 77.31 clipbox
288.26529 121.947087 m
295.636492 121.947087 l
295.636492 112.940367 l
288.26529 112.940367 l
cl
0.800 setgray
fill
grestore
gsave
456.1 84.2 40.54 77.31 clipbox
307.921829 121.947087 m
315.293031 121.947087 l
315.293031 -21281.747833 l
307.921829 -21281.747833 l
cl
0.800 setgray
fill
grestore
gsave
456.1 84.2 40.54 77.31 clipbox
327.578369 121.947087 m
334.949571 121.947087 l
334.949571 127.229954 l
327.578369 127.229954 l
cl
0.800 setgray
fill
grestore
gsave
456.1 84.2 40.54 77.31 clipbox
347.234908 121.947087 m
354.60611 121.947087 l
354.60611 -21281.747833 l
347.234908 -21281.747833 l
cl
0.800 setgray
fill
grestore
gsave
456.1 84.2 40.54 77.31 clipbox
366.891448 121.947087 m
374.26265 121.947087 l
374.26265 157.654952 l
366.891448 157.654952 l
cl
0.800 setgray
fill
grestore
gsave
456.1 84.2 40.54 77.31 clipbox
386.547987 121.947087 m
393.91919 121.947087 l
393.91919 124.492033 l
386.547987 124.492033 l
cl
0.800 setgray
fill
grestore
gsave
456.1 84.2 40.54 77.31 clipbox
406.204527 121.947087 m
413.575729 121.947087 l
413.575729 129.684126 l
406.204527 129.684126 l
cl
0.800 setgray
fill
grestore
gsave
456.1 84.2 40.54 77.31 clipbox
425.861066 121.947087 m
433.232269 121.947087 l
433.232269 -21281.747833 l
425.861066 -21281.747833 l
cl
0.800 setgray
fill
grestore
gsave
456.1 84.2 40.54 77.31 clipbox
445.517606 121.947087 m
452.888808 121.947087 l
452.888808 131.075346 l
445.517606 131.075346 l
cl
0.800 setgray
fill
grestore
gsave
456.1 84.2 40.54 77.31 clipbox
465.174145 121.947087 m
472.545348 121.947087 l
472.545348 -21281.747833 l
465.174145 -21281.747833 l
cl
0.800 setgray
fill
grestore
gsave
456.1 84.2 40.54 77.31 clipbox
484.830685 121.947087 m
492.201887 121.947087 l
492.201887 112.712846 l
484.830685 112.712846 l
cl
0.800 setgray
fill
grestore
0.800 setlinewidth
1 setlinejoin
0 setlinecap
[] 0 setdash
0.000 setgray
gsave
/o {
gsave
newpath
translate
0.8 setlinewidth
1 setlinejoin
0 setlinecap
0 0 m
0 -3.5 l

gsave
0.000 setgray
fill
grestore
stroke
grestore
} bind def
52.3868 77.3094 o
grestore
/DejaVuSans findfont
7.000 scalefont
setfont
gsave
54.316503 40.231250 translate
90.000000 rotate
0.000000 0 m /a glyphshow
4.289551 0 m /p glyphshow
8.732910 0 m /a glyphshow
13.022461 0 m /c glyphshow
16.871094 0 m /h glyphshow
21.307617 0 m /e glyphshow
25.614258 0 m /two glyphshow
grestore
gsave
/o {
gsave
newpath
translate
0.8 setlinewidth
1 setlinejoin
0 setlinecap
0 0 m
0 -3.5 l

gsave
0.000 setgray
fill
grestore
stroke
grestore
} bind def
72.0434 77.3094 o
grestore
gsave
73.973042 31.043750 translate
90.000000 rotate
0.000000 0 m /a glyphshow
4.289551 0 m /t glyphshow
7.034180 0 m /m glyphshow
13.853027 0 m /o glyphshow
18.135742 0 m /s glyphshow
21.782715 0 m /m glyphshow
28.601562 0 m /o glyphshow
32.884277 0 m /d glyphshow
37.327637 0 m /j glyphshow
grestore
gsave
/o {
gsave
newpath
translate
0.8 setlinewidth
1 setlinejoin
0 setlinecap
0 0 m
0 -3.5 l

gsave
0.000 setgray
fill
grestore
stroke
grestore
} bind def
91.6999 77.3094 o
grestore
gsave
93.629582 44.512500 translate
90.000000 rotate
0.000000 0 m /c glyphshow
3.848633 0 m /a glyphshow
8.138184 0 m /g glyphshow
12.581543 0 m /e glyphshow
16.888184 0 m /one glyphshow
21.341797 0 m /three glyphshow
grestore
gsave
/o {
gsave
newpath
translate
0.8 setlinewidth
1 setlinejoin
0 setlinecap
0 0 m
0 -3.5 l

gsave
0.000 setgray
fill
grestore
stroke
grestore
} bind def
111.356 77.3094 o
grestore
gsave
113.286121 44.512500 translate
90.000000 rotate
0.000000 0 m /c glyphshow
3.848633 0 m /a glyphshow
8.138184 0 m /g glyphshow
12.581543 0 m /e glyphshow
16.888184 0 m /one glyphshow
21.341797 0 m /four glyphshow
grestore
gsave
/o {
gsave
newpath
translate
0.8 setlinewidth
1 setlinejoin
0 setlinecap
0 0 m
0 -3.5 l

gsave
0.000 setgray
fill
grestore
stroke
grestore
} bind def
131.013 77.3094 o
grestore
gsave
132.841098 30.450000 translate
90.000000 rotate
0.000000 0 m /c glyphshow
3.848633 0 m /r glyphshow
6.726562 0 m /a glyphshow
11.016113 0 m /n glyphshow
15.452637 0 m /k glyphshow
19.506348 0 m /s glyphshow
23.153320 0 m /e glyphshow
27.459961 0 m /g glyphshow
31.903320 0 m /underscore glyphshow
35.403320 0 m /one glyphshow
grestore
gsave
/o {
gsave
newpath
translate
0.8 setlinewidth
1 setlinejoin
0 setlinecap
0 0 m
0 -3.5 l

gsave
0.000 setgray
fill
grestore
stroke
grestore
} bind def
150.67 77.3094 o
grestore
gsave
152.497638 34.043750 translate
90.000000 rotate
0.000000 0 m /C glyphshow
4.887695 0 m /u glyphshow
9.324219 0 m /r glyphshow
12.202148 0 m /l glyphshow
14.146973 0 m /C glyphshow
19.034668 0 m /u glyphshow
23.471191 0 m /r glyphshow
26.349121 0 m /l glyphshow
28.293945 0 m /underscore glyphshow
31.793945 0 m /two glyphshow
grestore
gsave
/o {
gsave
newpath
translate
0.8 setlinewidth
1 setlinejoin
0 setlinecap
0 0 m
0 -3.5 l

gsave
0.000 setgray
fill
grestore
stroke
grestore
} bind def
170.326 77.3094 o
grestore
gsave
172.154177 34.043750 translate
90.000000 rotate
0.000000 0 m /C glyphshow
4.887695 0 m /u glyphshow
9.324219 0 m /r glyphshow
12.202148 0 m /l glyphshow
14.146973 0 m /C glyphshow
19.034668 0 m /u glyphshow
23.471191 0 m /r glyphshow
26.349121 0 m /l glyphshow
28.293945 0 m /underscore glyphshow
31.793945 0 m /four glyphshow
grestore
gsave
/o {
gsave
newpath
translate
0.8 setlinewidth
1 setlinejoin
0 setlinecap
0 0 m
0 -3.5 l

gsave
0.000 setgray
fill
grestore
stroke
grestore
} bind def
189.983 77.3094 o
grestore
gsave
191.912279 38.606250 translate
90.000000 rotate
0.000000 0 m /e glyphshow
4.306641 0 m /c glyphshow
8.155273 0 m /o glyphshow
12.437988 0 m /l glyphshow
14.382812 0 m /o glyphshow
18.665527 0 m /g glyphshow
23.108887 0 m /y glyphshow
27.251465 0 m /two glyphshow
grestore
gsave
/o {
gsave
newpath
translate
0.8 setlinewidth
1 setlinejoin
0 setlinecap
0 0 m
0 -3.5 l

gsave
0.000 setgray
fill
grestore
stroke
grestore
} bind def
209.639 77.3094 o
grestore
gsave
211.568819 61.825000 translate
90.000000 rotate
0.000000 0 m /F glyphshow
4.026367 0 m /one glyphshow
grestore
gsave
/o {
gsave
newpath
translate
0.8 setlinewidth
1 setlinejoin
0 setlinecap
0 0 m
0 -3.5 l

gsave
0.000 setgray
fill
grestore
stroke
grestore
} bind def
229.296 77.3094 o
grestore
gsave
231.123796 7.200000 translate
90.000000 rotate
0.000000 0 m /F glyphshow
4.026367 0 m /E glyphshow
8.449219 0 m /M glyphshow
14.488770 0 m /underscore glyphshow
17.988770 0 m /three glyphshow
22.442383 0 m /D glyphshow
27.832520 0 m /underscore glyphshow
31.332520 0 m /t glyphshow
34.077148 0 m /h glyphshow
38.513672 0 m /e glyphshow
42.820312 0 m /r glyphshow
45.573242 0 m /m glyphshow
52.392090 0 m /a glyphshow
56.681641 0 m /l glyphshow
58.626465 0 m /two glyphshow
grestore
gsave
/o {
gsave
newpath
translate
0.8 setlinewidth
1 setlinejoin
0 setlinecap
0 0 m
0 -3.5 l

gsave
0.000 setgray
fill
grestore
stroke
grestore
} bind def
248.952 77.3094 o
grestore
gsave
250.780335 35.403125 translate
90.000000 rotate
0.000000 0 m /G glyphshow
5.424316 0 m /three glyphshow
9.877930 0 m /underscore glyphshow
13.377930 0 m /c glyphshow
17.226562 0 m /i glyphshow
19.171387 0 m /r glyphshow
21.924316 0 m /c glyphshow
25.772949 0 m /u glyphshow
30.209473 0 m /i glyphshow
32.154297 0 m /t glyphshow
grestore
gsave
/o {
gsave
newpath
translate
0.8 setlinewidth
1 setlinejoin
0 setlinecap
0 0 m
0 -3.5 l

gsave
0.000 setgray
fill
grestore
stroke
grestore
} bind def
268.609 77.3094 o
grestore
gsave
270.538438 37.700000 translate
90.000000 rotate
0.000000 0 m /l glyphshow
1.944824 0 m /a glyphshow
6.234375 0 m /n glyphshow
10.670898 0 m /g glyphshow
15.114258 0 m /u glyphshow
19.550781 0 m /a glyphshow
23.840332 0 m /g glyphshow
28.283691 0 m /e glyphshow
grestore
gsave
/o {
gsave
newpath
translate
0.8 setlinewidth
1 setlinejoin
0 setlinecap
0 0 m
0 -3.5 l

gsave
0.000 setgray
fill
grestore
stroke
grestore
} bind def
288.265 77.3094 o
grestore
gsave
290.194977 40.059375 translate
90.000000 rotate
0.000000 0 m /m glyphshow
6.818848 0 m /c glyphshow
10.667480 0 m /two glyphshow
15.121094 0 m /d glyphshow
19.564453 0 m /e glyphshow
23.871094 0 m /p glyphshow
28.314453 0 m /i glyphshow
grestore
gsave
/o {
gsave
newpath
translate
0.8 setlinewidth
1 setlinejoin
0 setlinecap
0 0 m
0 -3.5 l

gsave
0.000 setgray
fill
grestore
stroke
grestore
} bind def
307.922 77.3094 o
grestore
gsave
309.851517 48.090625 translate
90.000000 rotate
0.000000 0 m /n glyphshow
4.436523 0 m /s glyphshow
8.083496 0 m /three glyphshow
12.537109 0 m /D glyphshow
17.927246 0 m /a glyphshow
grestore
gsave
/o {
gsave
newpath
translate
0.8 setlinewidth
1 setlinejoin
0 setlinecap
0 0 m
0 -3.5 l

gsave
0.000 setgray
fill
grestore
stroke
grestore
} bind def
327.578 77.3094 o
grestore
gsave
329.406494 20.840625 translate
90.000000 rotate
0.000000 0 m /p glyphshow
4.443359 0 m /a glyphshow
8.732910 0 m /r glyphshow
11.610840 0 m /a glyphshow
15.900391 0 m /b glyphshow
20.343750 0 m /o glyphshow
24.626465 0 m /l glyphshow
26.571289 0 m /i glyphshow
28.516113 0 m /c glyphshow
32.364746 0 m /underscore glyphshow
35.864746 0 m /f glyphshow
38.329102 0 m /e glyphshow
42.635742 0 m /m glyphshow
grestore
gsave
/o {
gsave
newpath
translate
0.8 setlinewidth
1 setlinejoin
0 setlinecap
0 0 m
0 -3.5 l

gsave
0.000 setgray
fill
grestore
stroke
grestore
} bind def
347.235 77.3094 o
grestore
gsave
349.164596 29.356250 translate
90.000000 rotate
0.000000 0 m /p glyphshow
4.443359 0 m /o glyphshow
8.726074 0 m /i glyphshow
10.670898 0 m /s glyphshow
14.317871 0 m /s glyphshow
17.964844 0 m /o glyphshow
22.247559 0 m /n glyphshow
26.684082 0 m /three glyphshow
31.137695 0 m /D glyphshow
36.527832 0 m /b glyphshow
grestore
gsave
/o {
gsave
newpath
translate
0.8 setlinewidth
1 setlinejoin
0 setlinecap
0 0 m
0 -3.5 l

gsave
0.000 setgray
fill
grestore
stroke
grestore
} bind def
366.891 77.3094 o
grestore
gsave
368.821135 45.231250 translate
90.000000 rotate
0.000000 0 m /r glyphshow
2.877930 0 m /a glyphshow
7.167480 0 m /j glyphshow
9.112305 0 m /a glyphshow
13.401855 0 m /t glyphshow
16.146484 0 m /three glyphshow
20.600098 0 m /one glyphshow
grestore
gsave
/o {
gsave
newpath
translate
0.8 setlinewidth
1 setlinejoin
0 setlinecap
0 0 m
0 -3.5 l

gsave
0.000 setgray
fill
grestore
stroke
grestore
} bind def
386.548 77.3094 o
grestore
gsave
388.477675 40.246875 translate
90.000000 rotate
0.000000 0 m /s glyphshow
3.646973 0 m /t glyphshow
6.391602 0 m /o glyphshow
10.674316 0 m /m glyphshow
17.493164 0 m /a glyphshow
21.782715 0 m /c glyphshow
25.631348 0 m /h glyphshow
grestore
gsave
/o {
gsave
newpath
translate
0.8 setlinewidth
1 setlinejoin
0 setlinecap
0 0 m
0 -3.5 l

gsave
0.000 setgray
fill
grestore
stroke
grestore
} bind def
406.205 77.3094 o
grestore
gsave
408.134214 51.981250 translate
90.000000 rotate
0.000000 0 m /t glyphshow
2.744629 0 m /two glyphshow
7.198242 0 m /e glyphshow
11.504883 0 m /m glyphshow
grestore
gsave
/o {
gsave
newpath
translate
0.8 setlinewidth
1 setlinejoin
0 setlinecap
0 0 m
0 -3.5 l

gsave
0.000 setgray
fill
grestore
stroke
grestore
} bind def
425.861 77.3094 o
grestore
gsave
427.790754 38.543750 translate
90.000000 rotate
0.000000 0 m /t glyphshow
2.744629 0 m /h glyphshow
7.181152 0 m /e glyphshow
11.487793 0 m /r glyphshow
14.240723 0 m /m glyphshow
21.059570 0 m /a glyphshow
25.349121 0 m /l glyphshow
27.293945 0 m /two glyphshow
grestore
gsave
/o {
gsave
newpath
translate
0.8 setlinewidth
1 setlinejoin
0 setlinecap
0 0 m
0 -3.5 l

gsave
0.000 setgray
fill
grestore
stroke
grestore
} bind def
445.518 77.3094 o
grestore
gsave
447.244168 31.028125 translate
90.000000 rotate
0.000000 0 m /t glyphshow
2.744629 0 m /m glyphshow
9.563477 0 m /t glyphshow
12.308105 0 m /underscore glyphshow
15.808105 0 m /u glyphshow
20.244629 0 m /n glyphshow
24.681152 0 m /s glyphshow
28.328125 0 m /y glyphshow
32.470703 0 m /m glyphshow
grestore
gsave
/o {
gsave
newpath
translate
0.8 setlinewidth
1 setlinejoin
0 setlinecap
0 0 m
0 -3.5 l

gsave
0.000 setgray
fill
grestore
stroke
grestore
} bind def
465.174 77.3094 o
grestore
gsave
467.103833 48.028125 translate
90.000000 rotate
0.000000 0 m /t glyphshow
2.744629 0 m /o glyphshow
7.027344 0 m /r glyphshow
9.905273 0 m /s glyphshow
13.552246 0 m /o glyphshow
17.834961 0 m /two glyphshow
grestore
gsave
/o {
gsave
newpath
translate
0.8 setlinewidth
1 setlinejoin
0 setlinecap
0 0 m
0 -3.5 l

gsave
0.000 setgray
fill
grestore
stroke
grestore
} bind def
484.831 77.3094 o
grestore
gsave
486.760372 48.028125 translate
90.000000 rotate
0.000000 0 m /t glyphshow
2.744629 0 m /o glyphshow
7.027344 0 m /r glyphshow
9.905273 0 m /s glyphshow
13.552246 0 m /o glyphshow
17.834961 0 m /three glyphshow
grestore
gsave
/o {
gsave
newpath
translate
0.8 setlinewidth
1 setlinejoin
0 setlinecap
0 0 m
-3.5 0 l

gsave
0.000 setgray
fill
grestore
stroke
grestore
} bind def
40.5438 79.1397 o
grestore
gsave
17.965625 76.483447 translate
0.000000 rotate
0.000000 0 m /zero glyphshow
4.453613 0 m /period glyphshow
6.678711 0 m /two glyphshow
11.132324 0 m /five glyphshow
grestore
gsave
/o {
gsave
newpath
translate
0.8 setlinewidth
1 setlinejoin
0 setlinecap
0 0 m
-3.5 0 l

gsave
0.000 setgray
fill
grestore
stroke
grestore
} bind def
40.5438 113.064 o
grestore
gsave
17.965625 110.407501 translate
0.000000 rotate
0.000000 0 m /zero glyphshow
4.453613 0 m /period glyphshow
6.678711 0 m /seven glyphshow
11.132324 0 m /five glyphshow
grestore
gsave
/o {
gsave
newpath
translate
0.8 setlinewidth
1 setlinejoin
0 setlinecap
0 0 m
-3.5 0 l

gsave
0.000 setgray
fill
grestore
stroke
grestore
} bind def
40.5438 100.543 o
grestore
gsave
17.965625 97.887142 translate
0.000000 rotate
0.000000 0 m /zero glyphshow
4.453613 0 m /period glyphshow
6.678711 0 m /five glyphshow
11.132324 0 m /zero glyphshow
grestore
gsave
/o {
gsave
newpath
translate
0.8 setlinewidth
1 setlinejoin
0 setlinecap
0 0 m
-3.5 0 l

gsave
0.000 setgray
fill
grestore
stroke
grestore
} bind def
40.5438 121.947 o
grestore
gsave
17.965625 119.290837 translate
0.000000 rotate
0.000000 0 m /one glyphshow
4.453613 0 m /period glyphshow
6.678711 0 m /zero glyphshow
11.132324 0 m /zero glyphshow
grestore
gsave
/o {
gsave
newpath
translate
0.8 setlinewidth
1 setlinejoin
0 setlinecap
0 0 m
-3.5 0 l

gsave
0.000 setgray
fill
grestore
stroke
grestore
} bind def
40.5438 134.467 o
grestore
gsave
17.965625 131.811196 translate
0.000000 rotate
0.000000 0 m /one glyphshow
4.453613 0 m /period glyphshow
6.678711 0 m /five glyphshow
11.132324 0 m /zero glyphshow
grestore
gsave
/o {
gsave
newpath
translate
0.8 setlinewidth
1 setlinejoin
0 setlinecap
0 0 m
-3.5 0 l

gsave
0.000 setgray
fill
grestore
stroke
grestore
} bind def
40.5438 143.351 o
grestore
gsave
17.965625 140.694532 translate
0.000000 rotate
0.000000 0 m /two glyphshow
4.453613 0 m /period glyphshow
6.678711 0 m /zero glyphshow
11.132324 0 m /zero glyphshow
grestore
gsave
/o {
gsave
newpath
translate
0.8 setlinewidth
1 setlinejoin
0 setlinecap
0 0 m
-3.5 0 l

gsave
0.000 setgray
fill
grestore
stroke
grestore
} bind def
40.5438 155.871 o
grestore
gsave
17.965625 153.214891 translate
0.000000 rotate
0.000000 0 m /three glyphshow
4.453613 0 m /period glyphshow
6.678711 0 m /zero glyphshow
11.132324 0 m /zero glyphshow
grestore
gsave
12.512500 79.310313 translate
90.000000 rotate
0.000000 0 m /S glyphshow
4.443359 0 m /p glyphshow
8.886719 0 m /e glyphshow
13.193359 0 m /e glyphshow
17.500000 0 m /d glyphshow
21.943359 0 m /u glyphshow
26.379883 0 m /p glyphshow
30.823242 0 m /space glyphshow
33.048340 0 m /o glyphshow
37.331055 0 m /v glyphshow
41.473633 0 m /e glyphshow
45.780273 0 m /r glyphshow
48.658203 0 m /space glyphshow
50.883301 0 m /b glyphshow
55.326660 0 m /a glyphshow
59.616211 0 m /s glyphshow
63.263184 0 m /e glyphshow
67.569824 0 m /l glyphshow
69.514648 0 m /i glyphshow
71.459473 0 m /n glyphshow
75.895996 0 m /e glyphshow
grestore
1.500 setlinewidth
gsave
456.1 84.2 40.54 77.31 clipbox
48.701214 133.202431 m
48.701214 133.472227 l
stroke
grestore
gsave
456.1 84.2 40.54 77.31 clipbox
68.357753 117.493434 m
68.357753 117.60377 l
stroke
grestore
gsave
456.1 84.2 40.54 77.31 clipbox
88.014293 128.392748 m
88.014293 128.913734 l
stroke
grestore
gsave
456.1 84.2 40.54 77.31 clipbox
107.670833 128.123689 m
107.670833 128.40196 l
stroke
grestore
gsave
456.1 84.2 40.54 77.31 clipbox
127.327372 123.791959 m
127.327372 124.401907 l
stroke
grestore
gsave
456.1 84.2 40.54 77.31 clipbox
146.983912 132.117087 m
146.983912 132.319175 l
stroke
grestore
gsave
456.1 84.2 40.54 77.31 clipbox
166.640451 130.739451 m
166.640451 130.791499 l
stroke
grestore
gsave
456.1 84.2 40.54 77.31 clipbox
186.296991 130.524624 m
186.296991 130.677666 l
stroke
grestore
gsave
456.1 84.2 40.54 77.31 clipbox
205.95353 126.808542 m
205.95353 127.220481 l
stroke
grestore
gsave
456.1 84.2 40.54 77.31 clipbox
225.61007 123.068332 m
225.61007 124.131556 l
stroke
grestore
gsave
456.1 84.2 40.54 77.31 clipbox
245.266609 130.807066 m
245.266609 130.903055 l
stroke
grestore
gsave
456.1 84.2 40.54 77.31 clipbox
264.923149 106.790574 m
264.923149 107.164758 l
stroke
grestore
gsave
456.1 84.2 40.54 77.31 clipbox
284.579688 127.262509 m
284.579688 127.367496 l
stroke
grestore
gsave
456.1 84.2 40.54 77.31 clipbox
304.236228 122.792295 m
304.236228 123.091414 l
stroke
grestore
gsave
456.1 84.2 40.54 77.31 clipbox
323.892767 131.903236 m
323.892767 132.110495 l
stroke
grestore
gsave
456.1 84.2 40.54 77.31 clipbox
343.549307 123.355532 m
343.549307 124.250491 l
stroke
grestore
gsave
456.1 84.2 40.54 77.31 clipbox
363.205847 141.096003 m
363.205847 141.139049 l
stroke
grestore
gsave
456.1 84.2 40.54 77.31 clipbox
382.862386 123.769701 m
382.862386 124.499914 l
stroke
grestore
gsave
456.1 84.2 40.54 77.31 clipbox
402.518926 131.402404 m
402.518926 131.488826 l
stroke
grestore
gsave
456.1 84.2 40.54 77.31 clipbox
422.175465 123.958737 m
422.175465 124.118625 l
stroke
grestore
gsave
456.1 84.2 40.54 77.31 clipbox
441.832005 130.926679 m
441.832005 131.054719 l
stroke
grestore
gsave
456.1 84.2 40.54 77.31 clipbox
461.488544 123.398656 m
461.488544 123.705282 l
stroke
grestore
gsave
456.1 84.2 40.54 77.31 clipbox
481.145084 123.866981 m
481.145084 124.068252 l
stroke
grestore
gsave
456.1 84.2 40.54 77.31 clipbox
56.072416 123.809825 m
56.072416 124.043771 l
stroke
grestore
gsave
456.1 84.2 40.54 77.31 clipbox
75.728956 117.504374 m
75.728956 117.651016 l
stroke
grestore
gsave
456.1 84.2 40.54 77.31 clipbox
95.385495 119.956216 m
95.385495 120.504607 l
stroke
grestore
gsave
456.1 84.2 40.54 77.31 clipbox
115.042035 128.829582 m
115.042035 129.292438 l
stroke
grestore
gsave
456.1 84.2 40.54 77.31 clipbox
134.698574 119.550789 m
134.698574 120.019497 l
stroke
grestore
gsave
456.1 84.2 40.54 77.31 clipbox
154.355114 125.528956 m
154.355114 125.742878 l
stroke
grestore
gsave
456.1 84.2 40.54 77.31 clipbox
174.011653 123.896959 m
174.011653 123.955842 l
stroke
grestore
gsave
456.1 84.2 40.54 77.31 clipbox
193.668193 109.39728 m
193.668193 109.572362 l
stroke
grestore
gsave
456.1 84.2 40.54 77.31 clipbox

stroke
grestore
gsave
456.1 84.2 40.54 77.31 clipbox

stroke
grestore
gsave
456.1 84.2 40.54 77.31 clipbox
252.637812 129.079189 m
252.637812 129.140036 l
stroke
grestore
gsave
456.1 84.2 40.54 77.31 clipbox
272.294351 80.562803 m
272.294351 81.071575 l
stroke
grestore
gsave
456.1 84.2 40.54 77.31 clipbox
291.950891 112.793619 m
291.950891 112.96965 l
stroke
grestore
gsave
456.1 84.2 40.54 77.31 clipbox

stroke
grestore
gsave
456.1 84.2 40.54 77.31 clipbox
331.26397 127.052298 m
331.26397 127.324647 l
stroke
grestore
gsave
456.1 84.2 40.54 77.31 clipbox

stroke
grestore
gsave
456.1 84.2 40.54 77.31 clipbox
370.577049 157.61913 m
370.577049 157.660774 l
stroke
grestore
gsave
456.1 84.2 40.54 77.31 clipbox
390.233588 124.357047 m
390.233588 124.810393 l
stroke
grestore
gsave
456.1 84.2 40.54 77.31 clipbox
409.890128 129.625779 m
409.890128 129.798583 l
stroke
grestore
gsave
456.1 84.2 40.54 77.31 clipbox

stroke
grestore
gsave
456.1 84.2 40.54 77.31 clipbox
449.203207 130.918194 m
449.203207 131.242289 l
stroke
grestore
gsave
456.1 84.2 40.54 77.31 clipbox

stroke
grestore
gsave
456.1 84.2 40.54 77.31 clipbox
488.516286 112.620994 m
488.516286 113.361866 l
stroke
grestore
0.800 setlinewidth
0 setlinejoin
2 setlinecap
[] 0 setdash
gsave
40.54375 77.309375 m
40.54375 161.514375 l
stroke
grestore
gsave
496.67375 77.309375 m
496.67375 161.514375 l
stroke
grestore
gsave
40.54375 77.309375 m
496.67375 77.309375 l
stroke
grestore
gsave
40.54375 161.514375 m
496.67375 161.514375 l
stroke
grestore

end
showpage
