%!PS-Adobe-3.0 EPSF-3.0
%%Title: ../../TPDS - Exascale issue/graphics/speedup-rlen=smart-gpu-ilujacobi3-mgs.eps
%%Creator: matplotlib version 3.2.1, http://matplotlib.org/
%%CreationDate: Sat Apr 24 22:17:28 2021
%%Orientation: portrait
%%BoundingBox: 180.063125 311.56468750000005 431.936875 480.4353125
%%EndComments
%%BeginProlog
/mpldict 8 dict def
mpldict begin
/m { moveto } bind def
/l { lineto } bind def
/r { rlineto } bind def
/c { curveto } bind def
/cl { closepath } bind def
/box {
m
1 index 0 r
0 exch r
neg 0 r
cl
} bind def
/clipbox {
box
clip
newpath
} bind def
%!PS-Adobe-3.0 Resource-Font
%%Title: DejaVu Sans
%%Copyright: Copyright (c) 2003 by Bitstream, Inc. All Rights Reserved. Copyright (c) 2006 by Tavmjong Bah. All Rights Reserved. DejaVu changes are in public domain 
%%Creator: Converted from TrueType to type 3 by PPR
25 dict begin
/_d{bind def}bind def
/_m{moveto}_d
/_l{lineto}_d
/_cl{closepath eofill}_d
/_c{curveto}_d
/_sc{7 -1 roll{setcachedevice}{pop pop pop pop pop pop}ifelse}_d
/_e{exec}_d
/FontName /DejaVuSans def
/PaintType 0 def
/FontMatrix[.001 0 0 .001 0 0]def
/FontBBox[-1021 -463 1793 1232]def
/FontType 3 def
/Encoding [ /space /period /zero /one /two /three /four /five /seven /D /E /F /M /P /S /underscore /a /b /c /d /e /f /g /h /i /k /l /m /n /o /p /r /s /t /u /v /x /y ] def
/FontInfo 10 dict dup begin
/FamilyName (DejaVu Sans) def
/FullName (DejaVu Sans) def
/Notice (Copyright (c) 2003 by Bitstream, Inc. All Rights Reserved. Copyright (c) 2006 by Tavmjong Bah. All Rights Reserved. DejaVu changes are in public domain ) def
/Weight (Book) def
/Version (Version 2.35) def
/ItalicAngle 0.0 def
/isFixedPitch false def
/UnderlinePosition -130 def
/UnderlineThickness 90 def
end readonly def
/CharStrings 39 dict dup begin
/.notdef 0 def
/space{318 0 0 0 0 0 _sc
}_d
/period{318 0 107 0 210 124 _sc
107 124 _m
210 124 _l
210 0 _l
107 0 _l
107 124 _l
_cl}_d
/zero{636 0 66 -13 570 742 _sc
318 664 _m
267 664 229 639 203 589 _c
177 539 165 464 165 364 _c
165 264 177 189 203 139 _c
229 89 267 64 318 64 _c
369 64 407 89 433 139 _c
458 189 471 264 471 364 _c
471 464 458 539 433 589 _c
407 639 369 664 318 664 _c
318 742 _m
399 742 461 709 505 645 _c
548 580 570 486 570 364 _c
570 241 548 147 505 83 _c
461 19 399 -13 318 -13 _c
236 -13 173 19 130 83 _c
87 147 66 241 66 364 _c
66 486 87 580 130 645 _c
173 709 236 742 318 742 _c
_cl}_d
/one{636 0 110 0 544 729 _sc
124 83 _m
285 83 _l
285 639 _l
110 604 _l
110 694 _l
284 729 _l
383 729 _l
383 83 _l
544 83 _l
544 0 _l
124 0 _l
124 83 _l
_cl}_d
/two{{636 0 73 0 536 742 _sc
192 83 _m
536 83 _l
536 0 _l
73 0 _l
73 83 _l
110 121 161 173 226 239 _c
290 304 331 346 348 365 _c
380 400 402 430 414 455 _c
426 479 433 504 433 528 _c
433 566 419 598 392 622 _c
365 646 330 659 286 659 _c
255 659 222 653 188 643 _c
154 632 117 616 78 594 _c
78 694 _l
118 710 155 722 189 730 _c
223 738 255 742 284 742 _c
}_e{359 742 419 723 464 685 _c
509 647 532 597 532 534 _c
532 504 526 475 515 449 _c
504 422 484 390 454 354 _c
446 344 420 317 376 272 _c
332 227 271 164 192 83 _c
_cl}_e}_d
/three{{636 0 76 -13 556 742 _sc
406 393 _m
453 383 490 362 516 330 _c
542 298 556 258 556 212 _c
556 140 531 84 482 45 _c
432 6 362 -13 271 -13 _c
240 -13 208 -10 176 -4 _c
144 1 110 10 76 22 _c
76 117 _l
103 101 133 89 166 81 _c
198 73 232 69 268 69 _c
330 69 377 81 409 105 _c
441 129 458 165 458 212 _c
458 254 443 288 413 312 _c
383 336 341 349 287 349 _c
}_e{202 349 _l
202 430 _l
291 430 _l
339 430 376 439 402 459 _c
428 478 441 506 441 543 _c
441 580 427 609 401 629 _c
374 649 336 659 287 659 _c
260 659 231 656 200 650 _c
169 644 135 635 98 623 _c
98 711 _l
135 721 170 729 203 734 _c
235 739 266 742 296 742 _c
370 742 429 725 473 691 _c
517 657 539 611 539 553 _c
539 513 527 479 504 451 _c
481 423 448 403 406 393 _c
_cl}_e}_d
/four{636 0 49 0 580 729 _sc
378 643 _m
129 254 _l
378 254 _l
378 643 _l
352 729 _m
476 729 _l
476 254 _l
580 254 _l
580 172 _l
476 172 _l
476 0 _l
378 0 _l
378 172 _l
49 172 _l
49 267 _l
352 729 _l
_cl}_d
/five{{636 0 77 -13 549 729 _sc
108 729 _m
495 729 _l
495 646 _l
198 646 _l
198 467 _l
212 472 227 476 241 478 _c
255 480 270 482 284 482 _c
365 482 429 459 477 415 _c
525 370 549 310 549 234 _c
549 155 524 94 475 51 _c
426 8 357 -13 269 -13 _c
238 -13 207 -10 175 -6 _c
143 -1 111 6 77 17 _c
77 116 _l
106 100 136 88 168 80 _c
199 72 232 69 267 69 _c
}_e{323 69 368 83 401 113 _c
433 143 450 183 450 234 _c
450 284 433 324 401 354 _c
368 384 323 399 267 399 _c
241 399 214 396 188 390 _c
162 384 135 375 108 363 _c
108 729 _l
_cl}_e}_d
/seven{636 0 82 0 551 729 _sc
82 729 _m
551 729 _l
551 687 _l
286 0 _l
183 0 _l
432 646 _l
82 646 _l
82 729 _l
_cl}_d
/D{770 0 98 0 711 729 _sc
197 648 _m
197 81 _l
316 81 _l
416 81 490 103 537 149 _c
583 195 607 267 607 365 _c
607 463 583 534 537 580 _c
490 625 416 648 316 648 _c
197 648 _l
98 729 _m
301 729 _l
442 729 546 699 612 641 _c
678 582 711 490 711 365 _c
711 239 677 147 611 88 _c
545 29 441 0 301 0 _c
98 0 _l
98 729 _l
_cl}_d
/E{632 0 98 0 568 729 _sc
98 729 _m
559 729 _l
559 646 _l
197 646 _l
197 430 _l
544 430 _l
544 347 _l
197 347 _l
197 83 _l
568 83 _l
568 0 _l
98 0 _l
98 729 _l
_cl}_d
/F{575 0 98 0 517 729 _sc
98 729 _m
517 729 _l
517 646 _l
197 646 _l
197 431 _l
486 431 _l
486 348 _l
197 348 _l
197 0 _l
98 0 _l
98 729 _l
_cl}_d
/M{863 0 98 0 765 729 _sc
98 729 _m
245 729 _l
431 233 _l
618 729 _l
765 729 _l
765 0 _l
669 0 _l
669 640 _l
481 140 _l
382 140 _l
194 640 _l
194 0 _l
98 0 _l
98 729 _l
_cl}_d
/P{603 0 98 0 569 729 _sc
197 648 _m
197 374 _l
321 374 _l
367 374 402 385 427 409 _c
452 433 465 467 465 511 _c
465 555 452 588 427 612 _c
402 636 367 648 321 648 _c
197 648 _l
98 729 _m
321 729 _l
402 729 464 710 506 673 _c
548 636 569 582 569 511 _c
569 439 548 384 506 348 _c
464 311 402 293 321 293 _c
197 293 _l
197 0 _l
98 0 _l
98 729 _l
_cl}_d
/S{{635 0 66 -13 579 742 _sc
535 705 _m
535 609 _l
497 627 462 640 429 649 _c
395 657 363 662 333 662 _c
279 662 237 651 208 631 _c
179 610 165 580 165 542 _c
165 510 174 485 194 469 _c
213 452 250 439 304 429 _c
364 417 _l
437 403 491 378 526 343 _c
561 307 579 260 579 201 _c
579 130 555 77 508 41 _c
460 5 391 -13 300 -13 _c
265 -13 228 -9 189 -2 _c
}_e{150 5 110 16 69 32 _c
69 134 _l
109 111 148 94 186 83 _c
224 71 262 66 300 66 _c
356 66 399 77 430 99 _c
460 121 476 152 476 194 _c
476 230 465 258 443 278 _c
421 298 385 313 335 323 _c
275 335 _l
201 349 148 372 115 404 _c
82 435 66 478 66 534 _c
66 598 88 649 134 686 _c
179 723 242 742 322 742 _c
356 742 390 739 426 733 _c
461 727 497 717 535 705 _c
}_e{_cl}_e}_d
/underscore{500 0 -9 -235 510 -165 _sc
510 -165 _m
510 -235 _l
-9 -235 _l
-9 -165 _l
510 -165 _l
_cl}_d
/a{{613 0 60 -13 522 560 _sc
343 275 _m
270 275 220 266 192 250 _c
164 233 150 205 150 165 _c
150 133 160 107 181 89 _c
202 70 231 61 267 61 _c
317 61 357 78 387 114 _c
417 149 432 196 432 255 _c
432 275 _l
343 275 _l
522 312 _m
522 0 _l
432 0 _l
432 83 _l
411 49 385 25 355 10 _c
325 -5 287 -13 243 -13 _c
187 -13 142 2 109 33 _c
76 64 60 106 60 159 _c
}_e{60 220 80 266 122 298 _c
163 329 224 345 306 345 _c
432 345 _l
432 354 _l
432 395 418 427 391 450 _c
364 472 326 484 277 484 _c
245 484 215 480 185 472 _c
155 464 127 453 100 439 _c
100 522 _l
132 534 164 544 195 550 _c
226 556 256 560 286 560 _c
365 560 424 539 463 498 _c
502 457 522 395 522 312 _c
_cl}_e}_d
/b{{635 0 91 -13 580 760 _sc
487 273 _m
487 339 473 390 446 428 _c
418 466 381 485 334 485 _c
286 485 249 466 222 428 _c
194 390 181 339 181 273 _c
181 207 194 155 222 117 _c
249 79 286 61 334 61 _c
381 61 418 79 446 117 _c
473 155 487 207 487 273 _c
181 464 _m
199 496 223 520 252 536 _c
281 552 316 560 356 560 _c
422 560 476 533 518 481 _c
559 428 580 359 580 273 _c
}_e{580 187 559 117 518 65 _c
476 13 422 -13 356 -13 _c
316 -13 281 -5 252 10 _c
223 25 199 49 181 82 _c
181 0 _l
91 0 _l
91 760 _l
181 760 _l
181 464 _l
_cl}_e}_d
/c{{550 0 55 -13 488 560 _sc
488 526 _m
488 442 _l
462 456 437 466 411 473 _c
385 480 360 484 334 484 _c
276 484 230 465 198 428 _c
166 391 150 339 150 273 _c
150 206 166 154 198 117 _c
230 80 276 62 334 62 _c
360 62 385 65 411 72 _c
437 79 462 90 488 104 _c
488 21 _l
462 9 436 0 410 -5 _c
383 -10 354 -13 324 -13 _c
242 -13 176 12 128 64 _c
}_e{79 115 55 185 55 273 _c
55 362 79 432 128 483 _c
177 534 244 560 330 560 _c
358 560 385 557 411 551 _c
437 545 463 537 488 526 _c
_cl}_e}_d
/d{{635 0 55 -13 544 760 _sc
454 464 _m
454 760 _l
544 760 _l
544 0 _l
454 0 _l
454 82 _l
435 49 411 25 382 10 _c
353 -5 319 -13 279 -13 _c
213 -13 159 13 117 65 _c
75 117 55 187 55 273 _c
55 359 75 428 117 481 _c
159 533 213 560 279 560 _c
319 560 353 552 382 536 _c
411 520 435 496 454 464 _c
148 273 _m
148 207 161 155 188 117 _c
215 79 253 61 301 61 _c
}_e{348 61 385 79 413 117 _c
440 155 454 207 454 273 _c
454 339 440 390 413 428 _c
385 466 348 485 301 485 _c
253 485 215 466 188 428 _c
161 390 148 339 148 273 _c
_cl}_e}_d
/e{{615 0 55 -13 562 560 _sc
562 296 _m
562 252 _l
149 252 _l
153 190 171 142 205 110 _c
238 78 284 62 344 62 _c
378 62 412 66 444 74 _c
476 82 509 95 541 113 _c
541 28 _l
509 14 476 3 442 -3 _c
408 -9 373 -13 339 -13 _c
251 -13 182 12 131 62 _c
80 112 55 181 55 268 _c
55 357 79 428 127 481 _c
175 533 241 560 323 560 _c
397 560 455 536 498 489 _c
}_e{540 441 562 377 562 296 _c
472 322 _m
471 371 457 410 431 440 _c
404 469 368 484 324 484 _c
274 484 234 469 204 441 _c
174 413 156 373 152 322 _c
472 322 _l
_cl}_e}_d
/f{352 0 23 0 371 760 _sc
371 760 _m
371 685 _l
285 685 _l
253 685 230 678 218 665 _c
205 652 199 629 199 595 _c
199 547 _l
347 547 _l
347 477 _l
199 477 _l
199 0 _l
109 0 _l
109 477 _l
23 477 _l
23 547 _l
109 547 _l
109 585 _l
109 645 123 690 151 718 _c
179 746 224 760 286 760 _c
371 760 _l
_cl}_d
/g{{635 0 55 -207 544 560 _sc
454 280 _m
454 344 440 395 414 431 _c
387 467 349 485 301 485 _c
253 485 215 467 188 431 _c
161 395 148 344 148 280 _c
148 215 161 165 188 129 _c
215 93 253 75 301 75 _c
349 75 387 93 414 129 _c
440 165 454 215 454 280 _c
544 68 _m
544 -24 523 -93 482 -139 _c
440 -184 377 -207 292 -207 _c
260 -207 231 -204 203 -200 _c
175 -195 147 -188 121 -178 _c
}_e{121 -91 _l
147 -105 173 -115 199 -122 _c
225 -129 251 -133 278 -133 _c
336 -133 380 -117 410 -87 _c
439 -56 454 -10 454 52 _c
454 96 _l
435 64 411 40 382 24 _c
353 8 319 0 279 0 _c
211 0 157 25 116 76 _c
75 127 55 195 55 280 _c
55 364 75 432 116 483 _c
157 534 211 560 279 560 _c
319 560 353 552 382 536 _c
411 520 435 496 454 464 _c
454 547 _l
544 547 _l
}_e{544 68 _l
_cl}_e}_d
/h{634 0 91 0 549 760 _sc
549 330 _m
549 0 _l
459 0 _l
459 327 _l
459 379 448 417 428 443 _c
408 469 378 482 338 482 _c
289 482 251 466 223 435 _c
195 404 181 362 181 309 _c
181 0 _l
91 0 _l
91 760 _l
181 760 _l
181 462 _l
202 494 227 519 257 535 _c
286 551 320 560 358 560 _c
420 560 468 540 500 501 _c
532 462 549 405 549 330 _c
_cl}_d
/i{278 0 94 0 184 760 _sc
94 547 _m
184 547 _l
184 0 _l
94 0 _l
94 547 _l
94 760 _m
184 760 _l
184 646 _l
94 646 _l
94 760 _l
_cl}_d
/k{579 0 91 0 576 760 _sc
91 760 _m
181 760 _l
181 311 _l
449 547 _l
564 547 _l
274 291 _l
576 0 _l
459 0 _l
181 267 _l
181 0 _l
91 0 _l
91 760 _l
_cl}_d
/l{278 0 94 0 184 760 _sc
94 760 _m
184 760 _l
184 0 _l
94 0 _l
94 760 _l
_cl}_d
/m{{974 0 91 0 889 560 _sc
520 442 _m
542 482 569 511 600 531 _c
631 550 668 560 711 560 _c
767 560 811 540 842 500 _c
873 460 889 403 889 330 _c
889 0 _l
799 0 _l
799 327 _l
799 379 789 418 771 444 _c
752 469 724 482 686 482 _c
639 482 602 466 575 435 _c
548 404 535 362 535 309 _c
535 0 _l
445 0 _l
445 327 _l
445 379 435 418 417 444 _c
398 469 369 482 331 482 _c
}_e{285 482 248 466 221 435 _c
194 404 181 362 181 309 _c
181 0 _l
91 0 _l
91 547 _l
181 547 _l
181 462 _l
201 495 226 520 255 536 _c
283 552 317 560 357 560 _c
397 560 430 550 458 530 _c
486 510 506 480 520 442 _c
_cl}_e}_d
/n{634 0 91 0 549 560 _sc
549 330 _m
549 0 _l
459 0 _l
459 327 _l
459 379 448 417 428 443 _c
408 469 378 482 338 482 _c
289 482 251 466 223 435 _c
195 404 181 362 181 309 _c
181 0 _l
91 0 _l
91 547 _l
181 547 _l
181 462 _l
202 494 227 519 257 535 _c
286 551 320 560 358 560 _c
420 560 468 540 500 501 _c
532 462 549 405 549 330 _c
_cl}_d
/o{612 0 55 -13 557 560 _sc
306 484 _m
258 484 220 465 192 427 _c
164 389 150 338 150 273 _c
150 207 163 156 191 118 _c
219 80 257 62 306 62 _c
354 62 392 80 420 118 _c
448 156 462 207 462 273 _c
462 337 448 389 420 427 _c
392 465 354 484 306 484 _c
306 560 _m
384 560 445 534 490 484 _c
534 433 557 363 557 273 _c
557 183 534 113 490 63 _c
445 12 384 -13 306 -13 _c
227 -13 165 12 121 63 _c
77 113 55 183 55 273 _c
55 363 77 433 121 484 _c
165 534 227 560 306 560 _c
_cl}_d
/p{{635 0 91 -207 580 560 _sc
181 82 _m
181 -207 _l
91 -207 _l
91 547 _l
181 547 _l
181 464 _l
199 496 223 520 252 536 _c
281 552 316 560 356 560 _c
422 560 476 533 518 481 _c
559 428 580 359 580 273 _c
580 187 559 117 518 65 _c
476 13 422 -13 356 -13 _c
316 -13 281 -5 252 10 _c
223 25 199 49 181 82 _c
487 273 _m
487 339 473 390 446 428 _c
418 466 381 485 334 485 _c
}_e{286 485 249 466 222 428 _c
194 390 181 339 181 273 _c
181 207 194 155 222 117 _c
249 79 286 61 334 61 _c
381 61 418 79 446 117 _c
473 155 487 207 487 273 _c
_cl}_e}_d
/r{411 0 91 0 411 560 _sc
411 463 _m
401 469 390 473 378 476 _c
366 478 353 480 339 480 _c
288 480 249 463 222 430 _c
194 397 181 350 181 288 _c
181 0 _l
91 0 _l
91 547 _l
181 547 _l
181 462 _l
199 495 224 520 254 536 _c
284 552 321 560 365 560 _c
371 560 378 559 386 559 _c
393 558 401 557 411 555 _c
411 463 _l
_cl}_d
/s{{521 0 54 -13 472 560 _sc
443 531 _m
443 446 _l
417 458 391 468 364 475 _c
336 481 308 485 279 485 _c
234 485 200 478 178 464 _c
156 450 145 430 145 403 _c
145 382 153 366 169 354 _c
185 342 217 330 265 320 _c
296 313 _l
360 299 405 279 432 255 _c
458 230 472 195 472 151 _c
472 100 452 60 412 31 _c
372 1 316 -13 246 -13 _c
216 -13 186 -10 154 -5 _c
}_e{122 0 89 8 54 20 _c
54 113 _l
87 95 120 82 152 74 _c
184 65 216 61 248 61 _c
290 61 323 68 346 82 _c
368 96 380 117 380 144 _c
380 168 371 187 355 200 _c
339 213 303 226 247 238 _c
216 245 _l
160 257 119 275 95 299 _c
70 323 58 356 58 399 _c
58 450 76 490 112 518 _c
148 546 200 560 268 560 _c
301 560 332 557 362 552 _c
391 547 418 540 443 531 _c
}_e{_cl}_e}_d
/t{392 0 27 0 368 702 _sc
183 702 _m
183 547 _l
368 547 _l
368 477 _l
183 477 _l
183 180 _l
183 135 189 106 201 94 _c
213 81 238 75 276 75 _c
368 75 _l
368 0 _l
276 0 _l
206 0 158 13 132 39 _c
106 65 93 112 93 180 _c
93 477 _l
27 477 _l
27 547 _l
93 547 _l
93 702 _l
183 702 _l
_cl}_d
/u{634 0 85 -13 543 560 _sc
85 216 _m
85 547 _l
175 547 _l
175 219 _l
175 167 185 129 205 103 _c
225 77 255 64 296 64 _c
344 64 383 79 411 110 _c
439 141 453 183 453 237 _c
453 547 _l
543 547 _l
543 0 _l
453 0 _l
453 84 _l
431 50 405 26 377 10 _c
348 -5 315 -13 277 -13 _c
214 -13 166 6 134 45 _c
101 83 85 140 85 216 _c
311 560 _m
311 560 _l
_cl}_d
/v{592 0 30 0 562 547 _sc
30 547 _m
125 547 _l
296 88 _l
467 547 _l
562 547 _l
357 0 _l
235 0 _l
30 547 _l
_cl}_d
/x{592 0 29 0 559 547 _sc
549 547 _m
351 281 _l
559 0 _l
453 0 _l
294 215 _l
135 0 _l
29 0 _l
241 286 _l
47 547 _l
153 547 _l
298 352 _l
443 547 _l
549 547 _l
_cl}_d
/y{592 0 30 -207 562 547 _sc
322 -50 _m
296 -114 271 -157 247 -177 _c
223 -197 191 -207 151 -207 _c
79 -207 _l
79 -132 _l
132 -132 _l
156 -132 175 -126 189 -114 _c
203 -102 218 -75 235 -31 _c
251 9 _l
30 547 _l
125 547 _l
296 119 _l
467 547 _l
562 547 _l
322 -50 _l
_cl}_d
end readonly def

/BuildGlyph
 {exch begin
 CharStrings exch
 2 copy known not{pop /.notdef}if
 true 3 1 roll get exec
 end}_d

/BuildChar {
 1 index /Encoding get exch get
 1 index /BuildGlyph get exec
}_d

FontName currentdict end definefont pop
end
%%EndProlog
mpldict begin
180.063 311.565 translate
251.874 168.871 0 0 clipbox
gsave
0 0 m
251.87375 0 l
251.87375 168.870625 l
0 168.870625 l
cl
1.000 setgray
fill
grestore
gsave
40.54375 77.309375 m
244.67375 77.309375 l
244.67375 159.014375 l
40.54375 159.014375 l
cl
1.000 setgray
fill
grestore
gsave
204.1 81.7 40.54 77.31 clipbox
42.545025 124.948492 m
46.412222 124.948492 l
46.412222 118.123431 l
42.545025 118.123431 l
cl
0.533 setgray
fill
grestore
gsave
204.1 81.7 40.54 77.31 clipbox
57.047014 124.948492 m
60.914211 124.948492 l
60.914211 119.165247 l
57.047014 119.165247 l
cl
0.533 setgray
fill
grestore
gsave
204.1 81.7 40.54 77.31 clipbox
71.549003 124.948492 m
75.4162 124.948492 l
75.4162 128.425938 l
71.549003 128.425938 l
cl
0.533 setgray
fill
grestore
gsave
204.1 81.7 40.54 77.31 clipbox
86.050992 124.948492 m
89.918189 124.948492 l
89.918189 118.90551 l
86.050992 118.90551 l
cl
0.533 setgray
fill
grestore
gsave
204.1 81.7 40.54 77.31 clipbox
100.552981 124.948492 m
104.420178 124.948492 l
104.420178 127.774069 l
100.552981 127.774069 l
cl
0.533 setgray
fill
grestore
gsave
204.1 81.7 40.54 77.31 clipbox
115.054971 124.948492 m
118.922168 124.948492 l
118.922168 128.765109 l
115.054971 128.765109 l
cl
0.533 setgray
fill
grestore
gsave
204.1 81.7 40.54 77.31 clipbox
129.55696 124.948492 m
133.424157 124.948492 l
133.424157 109.134589 l
129.55696 109.134589 l
cl
0.533 setgray
fill
grestore
gsave
204.1 81.7 40.54 77.31 clipbox
144.058949 124.948492 m
147.926146 124.948492 l
147.926146 128.310546 l
144.058949 128.310546 l
cl
0.533 setgray
fill
grestore
gsave
204.1 81.7 40.54 77.31 clipbox
158.560938 124.948492 m
162.428135 124.948492 l
162.428135 119.864553 l
158.560938 119.864553 l
cl
0.533 setgray
fill
grestore
gsave
204.1 81.7 40.54 77.31 clipbox
173.062927 124.948492 m
176.930124 124.948492 l
176.930124 128.573738 l
173.062927 128.573738 l
cl
0.533 setgray
fill
grestore
gsave
204.1 81.7 40.54 77.31 clipbox
187.564917 124.948492 m
191.432114 124.948492 l
191.432114 125.976528 l
187.564917 125.976528 l
cl
0.533 setgray
fill
grestore
gsave
204.1 81.7 40.54 77.31 clipbox
202.066906 124.948492 m
205.934103 124.948492 l
205.934103 125.169153 l
202.066906 125.169153 l
cl
0.533 setgray
fill
grestore
gsave
204.1 81.7 40.54 77.31 clipbox
216.568895 124.948492 m
220.436092 124.948492 l
220.436092 124.912686 l
216.568895 124.912686 l
cl
0.533 setgray
fill
grestore
gsave
204.1 81.7 40.54 77.31 clipbox
231.070884 124.948492 m
234.938081 124.948492 l
234.938081 125.56475 l
231.070884 125.56475 l
cl
0.533 setgray
fill
grestore
gsave
204.1 81.7 40.54 77.31 clipbox
46.412222 124.948492 m
50.279419 124.948492 l
50.279419 119.595854 l
46.412222 119.595854 l
cl
0.667 setgray
fill
grestore
gsave
204.1 81.7 40.54 77.31 clipbox
60.914211 124.948492 m
64.781408 124.948492 l
64.781408 120.224219 l
60.914211 120.224219 l
cl
0.667 setgray
fill
grestore
gsave
204.1 81.7 40.54 77.31 clipbox
75.4162 124.948492 m
79.283397 124.948492 l
79.283397 129.402544 l
75.4162 129.402544 l
cl
0.667 setgray
fill
grestore
gsave
204.1 81.7 40.54 77.31 clipbox
89.918189 124.948492 m
93.785386 124.948492 l
93.785386 120.709401 l
89.918189 120.709401 l
cl
0.667 setgray
fill
grestore
gsave
204.1 81.7 40.54 77.31 clipbox
104.420178 124.948492 m
108.287376 124.948492 l
108.287376 128.838442 l
104.420178 128.838442 l
cl
0.667 setgray
fill
grestore
gsave
204.1 81.7 40.54 77.31 clipbox
118.922168 124.948492 m
122.789365 124.948492 l
122.789365 136.304389 l
118.922168 136.304389 l
cl
0.667 setgray
fill
grestore
gsave
204.1 81.7 40.54 77.31 clipbox
133.424157 124.948492 m
137.291354 124.948492 l
137.291354 110.55818 l
133.424157 110.55818 l
cl
0.667 setgray
fill
grestore
gsave
204.1 81.7 40.54 77.31 clipbox
147.926146 124.948492 m
151.793343 124.948492 l
151.793343 129.563091 l
147.926146 129.563091 l
cl
0.667 setgray
fill
grestore
gsave
204.1 81.7 40.54 77.31 clipbox
162.428135 124.948492 m
166.295332 124.948492 l
166.295332 126.760055 l
162.428135 126.760055 l
cl
0.667 setgray
fill
grestore
gsave
204.1 81.7 40.54 77.31 clipbox
176.930124 124.948492 m
180.797322 124.948492 l
180.797322 134.427404 l
176.930124 134.427404 l
cl
0.667 setgray
fill
grestore
gsave
204.1 81.7 40.54 77.31 clipbox
191.432114 124.948492 m
195.299311 124.948492 l
195.299311 127.881543 l
191.432114 127.881543 l
cl
0.667 setgray
fill
grestore
gsave
204.1 81.7 40.54 77.31 clipbox
205.934103 124.948492 m
209.8013 124.948492 l
209.8013 126.150099 l
205.934103 126.150099 l
cl
0.667 setgray
fill
grestore
gsave
204.1 81.7 40.54 77.31 clipbox
220.436092 124.948492 m
224.303289 124.948492 l
224.303289 126.275664 l
220.436092 126.275664 l
cl
0.667 setgray
fill
grestore
gsave
204.1 81.7 40.54 77.31 clipbox
234.938081 124.948492 m
238.805278 124.948492 l
238.805278 123.739575 l
234.938081 123.739575 l
cl
0.667 setgray
fill
grestore
gsave
204.1 81.7 40.54 77.31 clipbox
50.279419 124.948492 m
54.146616 124.948492 l
54.146616 120.059533 l
50.279419 120.059533 l
cl
0.800 setgray
fill
grestore
gsave
204.1 81.7 40.54 77.31 clipbox
64.781408 124.948492 m
68.648605 124.948492 l
68.648605 120.594737 l
64.781408 120.594737 l
cl
0.800 setgray
fill
grestore
gsave
204.1 81.7 40.54 77.31 clipbox
79.283397 124.948492 m
83.150594 124.948492 l
83.150594 -21368.230393 l
79.283397 -21368.230393 l
cl
0.800 setgray
fill
grestore
gsave
204.1 81.7 40.54 77.31 clipbox
93.785386 124.948492 m
97.652583 124.948492 l
97.652583 80.601481 l
93.785386 80.601481 l
cl
0.800 setgray
fill
grestore
gsave
204.1 81.7 40.54 77.31 clipbox
108.287376 124.948492 m
112.154573 124.948492 l
112.154573 -21368.230393 l
108.287376 -21368.230393 l
cl
0.800 setgray
fill
grestore
gsave
204.1 81.7 40.54 77.31 clipbox
122.789365 124.948492 m
126.656562 124.948492 l
126.656562 132.787138 l
122.789365 132.787138 l
cl
0.800 setgray
fill
grestore
gsave
204.1 81.7 40.54 77.31 clipbox
137.291354 124.948492 m
141.158551 124.948492 l
141.158551 -21368.230393 l
137.291354 -21368.230393 l
cl
0.800 setgray
fill
grestore
gsave
204.1 81.7 40.54 77.31 clipbox
151.793343 124.948492 m
155.66054 124.948492 l
155.66054 130.059045 l
151.793343 130.059045 l
cl
0.800 setgray
fill
grestore
gsave
204.1 81.7 40.54 77.31 clipbox
166.295332 124.948492 m
170.162529 124.948492 l
170.162529 120.379461 l
166.295332 120.379461 l
cl
0.800 setgray
fill
grestore
gsave
204.1 81.7 40.54 77.31 clipbox
180.797322 124.948492 m
184.664519 124.948492 l
184.664519 130.879291 l
180.797322 130.879291 l
cl
0.800 setgray
fill
grestore
gsave
204.1 81.7 40.54 77.31 clipbox
195.299311 124.948492 m
199.166508 124.948492 l
199.166508 128.039972 l
195.299311 128.039972 l
cl
0.800 setgray
fill
grestore
gsave
204.1 81.7 40.54 77.31 clipbox
209.8013 124.948492 m
213.668497 124.948492 l
213.668497 -21368.230393 l
209.8013 -21368.230393 l
cl
0.800 setgray
fill
grestore
gsave
204.1 81.7 40.54 77.31 clipbox
224.303289 124.948492 m
228.170486 124.948492 l
228.170486 126.465526 l
224.303289 126.465526 l
cl
0.800 setgray
fill
grestore
gsave
204.1 81.7 40.54 77.31 clipbox
238.805278 124.948492 m
242.672475 124.948492 l
242.672475 125.162951 l
238.805278 125.162951 l
cl
0.800 setgray
fill
grestore
0.800 setlinewidth
1 setlinejoin
0 setlinecap
[] 0 setdash
0.000 setgray
gsave
/o {
gsave
newpath
translate
0.8 setlinewidth
1 setlinejoin
0 setlinecap
0 0 m
0 -3.5 l

gsave
0.000 setgray
fill
grestore
stroke
grestore
} bind def
48.3458 77.3094 o
grestore
/DejaVuSans findfont
7.000 scalefont
setfont
gsave
50.275508 44.512500 translate
90.000000 rotate
0.000000 0 m /c glyphshow
3.848633 0 m /a glyphshow
8.138184 0 m /g glyphshow
12.581543 0 m /e glyphshow
16.888184 0 m /one glyphshow
21.341797 0 m /three glyphshow
grestore
gsave
/o {
gsave
newpath
translate
0.8 setlinewidth
1 setlinejoin
0 setlinecap
0 0 m
0 -3.5 l

gsave
0.000 setgray
fill
grestore
stroke
grestore
} bind def
62.8478 77.3094 o
grestore
gsave
64.777497 44.512500 translate
90.000000 rotate
0.000000 0 m /c glyphshow
3.848633 0 m /a glyphshow
8.138184 0 m /g glyphshow
12.581543 0 m /e glyphshow
16.888184 0 m /one glyphshow
21.341797 0 m /four glyphshow
grestore
gsave
/o {
gsave
newpath
translate
0.8 setlinewidth
1 setlinejoin
0 setlinecap
0 0 m
0 -3.5 l

gsave
0.000 setgray
fill
grestore
stroke
grestore
} bind def
77.3498 77.3094 o
grestore
gsave
79.177924 7.200000 translate
90.000000 rotate
0.000000 0 m /F glyphshow
4.026367 0 m /E glyphshow
8.449219 0 m /M glyphshow
14.488770 0 m /underscore glyphshow
17.988770 0 m /three glyphshow
22.442383 0 m /D glyphshow
27.832520 0 m /underscore glyphshow
31.332520 0 m /t glyphshow
34.077148 0 m /h glyphshow
38.513672 0 m /e glyphshow
42.820312 0 m /r glyphshow
45.573242 0 m /m glyphshow
52.392090 0 m /a glyphshow
56.681641 0 m /l glyphshow
58.626465 0 m /two glyphshow
grestore
gsave
/o {
gsave
newpath
translate
0.8 setlinewidth
1 setlinejoin
0 setlinecap
0 0 m
0 -3.5 l

gsave
0.000 setgray
fill
grestore
stroke
grestore
} bind def
91.8518 77.3094 o
grestore
gsave
93.781475 37.700000 translate
90.000000 rotate
0.000000 0 m /l glyphshow
1.944824 0 m /a glyphshow
6.234375 0 m /n glyphshow
10.670898 0 m /g glyphshow
15.114258 0 m /u glyphshow
19.550781 0 m /a glyphshow
23.840332 0 m /g glyphshow
28.283691 0 m /e glyphshow
grestore
gsave
/o {
gsave
newpath
translate
0.8 setlinewidth
1 setlinejoin
0 setlinecap
0 0 m
0 -3.5 l

gsave
0.000 setgray
fill
grestore
stroke
grestore
} bind def
106.354 77.3094 o
grestore
gsave
108.283464 48.090625 translate
90.000000 rotate
0.000000 0 m /n glyphshow
4.436523 0 m /s glyphshow
8.083496 0 m /three glyphshow
12.537109 0 m /D glyphshow
17.927246 0 m /a glyphshow
grestore
gsave
/o {
gsave
newpath
translate
0.8 setlinewidth
1 setlinejoin
0 setlinecap
0 0 m
0 -3.5 l

gsave
0.000 setgray
fill
grestore
stroke
grestore
} bind def
120.856 77.3094 o
grestore
gsave
122.683891 20.840625 translate
90.000000 rotate
0.000000 0 m /p glyphshow
4.443359 0 m /a glyphshow
8.732910 0 m /r glyphshow
11.610840 0 m /a glyphshow
15.900391 0 m /b glyphshow
20.343750 0 m /o glyphshow
24.626465 0 m /l glyphshow
26.571289 0 m /i glyphshow
28.516113 0 m /c glyphshow
32.364746 0 m /underscore glyphshow
35.864746 0 m /f glyphshow
38.329102 0 m /e glyphshow
42.635742 0 m /m glyphshow
grestore
gsave
/o {
gsave
newpath
translate
0.8 setlinewidth
1 setlinejoin
0 setlinecap
0 0 m
0 -3.5 l

gsave
0.000 setgray
fill
grestore
stroke
grestore
} bind def
135.358 77.3094 o
grestore
gsave
137.287443 29.356250 translate
90.000000 rotate
0.000000 0 m /p glyphshow
4.443359 0 m /o glyphshow
8.726074 0 m /i glyphshow
10.670898 0 m /s glyphshow
14.317871 0 m /s glyphshow
17.964844 0 m /o glyphshow
22.247559 0 m /n glyphshow
26.684082 0 m /three glyphshow
31.137695 0 m /D glyphshow
36.527832 0 m /b glyphshow
grestore
gsave
/o {
gsave
newpath
translate
0.8 setlinewidth
1 setlinejoin
0 setlinecap
0 0 m
0 -3.5 l

gsave
0.000 setgray
fill
grestore
stroke
grestore
} bind def
149.86 77.3094 o
grestore
gsave
151.789432 40.246875 translate
90.000000 rotate
0.000000 0 m /s glyphshow
3.646973 0 m /t glyphshow
6.391602 0 m /o glyphshow
10.674316 0 m /m glyphshow
17.493164 0 m /a glyphshow
21.782715 0 m /c glyphshow
25.631348 0 m /h glyphshow
grestore
gsave
/o {
gsave
newpath
translate
0.8 setlinewidth
1 setlinejoin
0 setlinecap
0 0 m
0 -3.5 l

gsave
0.000 setgray
fill
grestore
stroke
grestore
} bind def
164.362 77.3094 o
grestore
gsave
166.291421 51.981250 translate
90.000000 rotate
0.000000 0 m /t glyphshow
2.744629 0 m /two glyphshow
7.198242 0 m /e glyphshow
11.504883 0 m /m glyphshow
grestore
gsave
/o {
gsave
newpath
translate
0.8 setlinewidth
1 setlinejoin
0 setlinecap
0 0 m
0 -3.5 l

gsave
0.000 setgray
fill
grestore
stroke
grestore
} bind def
178.864 77.3094 o
grestore
gsave
180.793411 38.543750 translate
90.000000 rotate
0.000000 0 m /t glyphshow
2.744629 0 m /h glyphshow
7.181152 0 m /e glyphshow
11.487793 0 m /r glyphshow
14.240723 0 m /m glyphshow
21.059570 0 m /a glyphshow
25.349121 0 m /l glyphshow
27.293945 0 m /two glyphshow
grestore
gsave
/o {
gsave
newpath
translate
0.8 setlinewidth
1 setlinejoin
0 setlinecap
0 0 m
0 -3.5 l

gsave
0.000 setgray
fill
grestore
stroke
grestore
} bind def
193.366 77.3094 o
grestore
gsave
195.092275 31.028125 translate
90.000000 rotate
0.000000 0 m /t glyphshow
2.744629 0 m /m glyphshow
9.563477 0 m /t glyphshow
12.308105 0 m /underscore glyphshow
15.808105 0 m /u glyphshow
20.244629 0 m /n glyphshow
24.681152 0 m /s glyphshow
28.328125 0 m /y glyphshow
32.470703 0 m /m glyphshow
grestore
gsave
/o {
gsave
newpath
translate
0.8 setlinewidth
1 setlinejoin
0 setlinecap
0 0 m
0 -3.5 l

gsave
0.000 setgray
fill
grestore
stroke
grestore
} bind def
207.868 77.3094 o
grestore
gsave
209.797389 48.028125 translate
90.000000 rotate
0.000000 0 m /t glyphshow
2.744629 0 m /o glyphshow
7.027344 0 m /r glyphshow
9.905273 0 m /s glyphshow
13.552246 0 m /o glyphshow
17.834961 0 m /two glyphshow
grestore
gsave
/o {
gsave
newpath
translate
0.8 setlinewidth
1 setlinejoin
0 setlinecap
0 0 m
0 -3.5 l

gsave
0.000 setgray
fill
grestore
stroke
grestore
} bind def
222.37 77.3094 o
grestore
gsave
224.299378 48.028125 translate
90.000000 rotate
0.000000 0 m /t glyphshow
2.744629 0 m /o glyphshow
7.027344 0 m /r glyphshow
9.905273 0 m /s glyphshow
13.552246 0 m /o glyphshow
17.834961 0 m /three glyphshow
grestore
gsave
/o {
gsave
newpath
translate
0.8 setlinewidth
1 setlinejoin
0 setlinecap
0 0 m
0 -3.5 l

gsave
0.000 setgray
fill
grestore
stroke
grestore
} bind def
236.872 77.3094 o
grestore
gsave
238.801367 37.528125 translate
90.000000 rotate
0.000000 0 m /v glyphshow
4.142578 0 m /e glyphshow
8.449219 0 m /n glyphshow
12.885742 0 m /k glyphshow
16.814453 0 m /a glyphshow
21.104004 0 m /t glyphshow
23.848633 0 m /zero glyphshow
28.302246 0 m /one glyphshow
grestore
gsave
/o {
gsave
newpath
translate
0.8 setlinewidth
1 setlinejoin
0 setlinecap
0 0 m
-3.5 0 l

gsave
0.000 setgray
fill
grestore
stroke
grestore
} bind def
40.5438 81.9621 o
grestore
gsave
17.965625 79.305885 translate
0.000000 rotate
0.000000 0 m /zero glyphshow
4.453613 0 m /period glyphshow
6.678711 0 m /two glyphshow
11.132324 0 m /five glyphshow
grestore
gsave
/o {
gsave
newpath
translate
0.8 setlinewidth
1 setlinejoin
0 setlinecap
0 0 m
-3.5 0 l

gsave
0.000 setgray
fill
grestore
stroke
grestore
} bind def
40.5438 103.455 o
grestore
gsave
17.965625 100.799064 translate
0.000000 rotate
0.000000 0 m /zero glyphshow
4.453613 0 m /period glyphshow
6.678711 0 m /five glyphshow
11.132324 0 m /zero glyphshow
grestore
gsave
/o {
gsave
newpath
translate
0.8 setlinewidth
1 setlinejoin
0 setlinecap
0 0 m
-3.5 0 l

gsave
0.000 setgray
fill
grestore
stroke
grestore
} bind def
40.5438 116.028 o
grestore
gsave
17.965625 113.371767 translate
0.000000 rotate
0.000000 0 m /zero glyphshow
4.453613 0 m /period glyphshow
6.678711 0 m /seven glyphshow
11.132324 0 m /five glyphshow
grestore
gsave
/o {
gsave
newpath
translate
0.8 setlinewidth
1 setlinejoin
0 setlinecap
0 0 m
-3.5 0 l

gsave
0.000 setgray
fill
grestore
stroke
grestore
} bind def
40.5438 124.948 o
grestore
gsave
17.965625 122.292242 translate
0.000000 rotate
0.000000 0 m /one glyphshow
4.453613 0 m /period glyphshow
6.678711 0 m /zero glyphshow
11.132324 0 m /zero glyphshow
grestore
gsave
/o {
gsave
newpath
translate
0.8 setlinewidth
1 setlinejoin
0 setlinecap
0 0 m
-3.5 0 l

gsave
0.000 setgray
fill
grestore
stroke
grestore
} bind def
40.5438 137.521 o
grestore
gsave
17.965625 134.864946 translate
0.000000 rotate
0.000000 0 m /one glyphshow
4.453613 0 m /period glyphshow
6.678711 0 m /five glyphshow
11.132324 0 m /zero glyphshow
grestore
gsave
/o {
gsave
newpath
translate
0.8 setlinewidth
1 setlinejoin
0 setlinecap
0 0 m
-3.5 0 l

gsave
0.000 setgray
fill
grestore
stroke
grestore
} bind def
40.5438 146.442 o
grestore
gsave
17.965625 143.785421 translate
0.000000 rotate
0.000000 0 m /two glyphshow
4.453613 0 m /period glyphshow
6.678711 0 m /zero glyphshow
11.132324 0 m /zero glyphshow
grestore
gsave
/o {
gsave
newpath
translate
0.8 setlinewidth
1 setlinejoin
0 setlinecap
0 0 m
-3.5 0 l

gsave
0.000 setgray
fill
grestore
stroke
grestore
} bind def
40.5438 159.014 o
grestore
gsave
17.965625 156.358125 translate
0.000000 rotate
0.000000 0 m /three glyphshow
4.453613 0 m /period glyphshow
6.678711 0 m /zero glyphshow
11.132324 0 m /zero glyphshow
grestore
gsave
12.512500 78.060313 translate
90.000000 rotate
0.000000 0 m /S glyphshow
4.443359 0 m /p glyphshow
8.886719 0 m /e glyphshow
13.193359 0 m /e glyphshow
17.500000 0 m /d glyphshow
21.943359 0 m /u glyphshow
26.379883 0 m /p glyphshow
30.823242 0 m /space glyphshow
33.048340 0 m /o glyphshow
37.331055 0 m /v glyphshow
41.473633 0 m /e glyphshow
45.780273 0 m /r glyphshow
48.658203 0 m /space glyphshow
50.883301 0 m /b glyphshow
55.326660 0 m /a glyphshow
59.616211 0 m /s glyphshow
63.263184 0 m /e glyphshow
67.569824 0 m /l glyphshow
69.514648 0 m /i glyphshow
71.459473 0 m /n glyphshow
75.895996 0 m /e glyphshow
grestore
1.500 setlinewidth
gsave
204.1 81.7 40.54 77.31 clipbox
44.478623 117.87295 m
44.478623 118.181745 l
stroke
grestore
gsave
204.1 81.7 40.54 77.31 clipbox
58.980612 119.044113 m
58.980612 119.184021 l
stroke
grestore
gsave
204.1 81.7 40.54 77.31 clipbox
73.482601 128.303018 m
73.482601 128.609857 l
stroke
grestore
gsave
204.1 81.7 40.54 77.31 clipbox
87.984591 118.854833 m
87.984591 120.916957 l
stroke
grestore
gsave
204.1 81.7 40.54 77.31 clipbox
102.48658 127.509947 m
102.48658 128.197146 l
stroke
grestore
gsave
204.1 81.7 40.54 77.31 clipbox
116.988569 128.591319 m
116.988569 128.810938 l
stroke
grestore
gsave
204.1 81.7 40.54 77.31 clipbox
131.490558 108.966936 m
131.490558 109.58235 l
stroke
grestore
gsave
204.1 81.7 40.54 77.31 clipbox
145.992547 128.198139 m
145.992547 128.50656 l
stroke
grestore
gsave
204.1 81.7 40.54 77.31 clipbox
160.494537 119.654096 m
160.494537 119.962108 l
stroke
grestore
gsave
204.1 81.7 40.54 77.31 clipbox
174.996526 128.540493 m
174.996526 128.589176 l
stroke
grestore
gsave
204.1 81.7 40.54 77.31 clipbox
189.498515 125.849212 m
189.498515 126.116225 l
stroke
grestore
gsave
204.1 81.7 40.54 77.31 clipbox
204.000504 123.954772 m
204.000504 127.158487 l
stroke
grestore
gsave
204.1 81.7 40.54 77.31 clipbox
218.502493 124.772386 m
218.502493 125.099558 l
stroke
grestore
gsave
204.1 81.7 40.54 77.31 clipbox
233.004483 123.787626 m
233.004483 128.827461 l
stroke
grestore
gsave
204.1 81.7 40.54 77.31 clipbox
48.34582 119.475774 m
48.34582 119.65027 l
stroke
grestore
gsave
204.1 81.7 40.54 77.31 clipbox
62.847809 120.144991 m
62.847809 120.259619 l
stroke
grestore
gsave
204.1 81.7 40.54 77.31 clipbox
77.349799 129.358456 m
77.349799 129.759608 l
stroke
grestore
gsave
204.1 81.7 40.54 77.31 clipbox
91.851788 120.576165 m
91.851788 122.572395 l
stroke
grestore
gsave
204.1 81.7 40.54 77.31 clipbox
106.353777 128.494967 m
106.353777 129.393283 l
stroke
grestore
gsave
204.1 81.7 40.54 77.31 clipbox
120.855766 136.159718 m
120.855766 136.349315 l
stroke
grestore
gsave
204.1 81.7 40.54 77.31 clipbox
135.357755 110.444833 m
135.357755 111.102235 l
stroke
grestore
gsave
204.1 81.7 40.54 77.31 clipbox
149.859745 129.387625 m
149.859745 129.737761 l
stroke
grestore
gsave
204.1 81.7 40.54 77.31 clipbox
164.361734 126.602442 m
164.361734 126.808842 l
stroke
grestore
gsave
204.1 81.7 40.54 77.31 clipbox
178.863723 134.39773 m
178.863723 134.47532 l
stroke
grestore
gsave
204.1 81.7 40.54 77.31 clipbox
193.365712 127.83892 m
193.365712 128.168562 l
stroke
grestore
gsave
204.1 81.7 40.54 77.31 clipbox
207.867701 124.898839 m
207.867701 128.056426 l
stroke
grestore
gsave
204.1 81.7 40.54 77.31 clipbox
222.369691 126.268037 m
222.369691 126.343198 l
stroke
grestore
gsave
204.1 81.7 40.54 77.31 clipbox
236.87168 120.439472 m
236.87168 127.288414 l
stroke
grestore
gsave
204.1 81.7 40.54 77.31 clipbox
52.213017 119.998483 m
52.213017 120.124183 l
stroke
grestore
gsave
204.1 81.7 40.54 77.31 clipbox
66.715007 120.537296 m
66.715007 120.694133 l
stroke
grestore
gsave
204.1 81.7 40.54 77.31 clipbox

stroke
grestore
gsave
204.1 81.7 40.54 77.31 clipbox
95.718985 80.576405 m
95.718985 82.494401 l
stroke
grestore
gsave
204.1 81.7 40.54 77.31 clipbox

stroke
grestore
gsave
204.1 81.7 40.54 77.31 clipbox
124.722963 132.613122 m
124.722963 132.857235 l
stroke
grestore
gsave
204.1 81.7 40.54 77.31 clipbox

stroke
grestore
gsave
204.1 81.7 40.54 77.31 clipbox
153.726942 129.832979 m
153.726942 130.249754 l
stroke
grestore
gsave
204.1 81.7 40.54 77.31 clipbox
168.228931 120.1975 m
168.228931 121.154202 l
stroke
grestore
gsave
204.1 81.7 40.54 77.31 clipbox
182.73092 130.844291 m
182.73092 130.906236 l
stroke
grestore
gsave
204.1 81.7 40.54 77.31 clipbox
197.232909 127.976796 m
197.232909 128.13829 l
stroke
grestore
gsave
204.1 81.7 40.54 77.31 clipbox

stroke
grestore
gsave
204.1 81.7 40.54 77.31 clipbox
226.236888 126.46113 m
226.236888 126.534572 l
stroke
grestore
gsave
204.1 81.7 40.54 77.31 clipbox
240.738877 123.28805 m
240.738877 129.681587 l
stroke
grestore
0.800 setlinewidth
0 setlinejoin
2 setlinecap
[] 0 setdash
gsave
40.54375 77.309375 m
40.54375 159.014375 l
stroke
grestore
gsave
244.67375 77.309375 m
244.67375 159.014375 l
stroke
grestore
gsave
40.54375 77.309375 m
244.67375 77.309375 l
stroke
grestore
gsave
40.54375 159.014375 m
244.67375 159.014375 l
stroke
grestore
1.000 setlinewidth
0 setlinecap
0.800 setgray
gsave
50.626875 143.14875 m
239.77375 143.14875 l
240.707083 143.14875 241.17375 143.615417 241.17375 144.54875 c
241.17375 154.114375 l
241.17375 155.047708 240.707083 155.514375 239.77375 155.514375 c
50.626875 155.514375 l
49.693542 155.514375 49.226875 155.047708 49.226875 154.114375 c
49.226875 144.54875 l
49.226875 143.615417 49.693542 143.14875 50.626875 143.14875 c
cl
gsave
1.000 setgray
fill
grestore
stroke
grestore
gsave
52.026875 147.401875 m
66.026875 147.401875 l
66.026875 152.301875 l
52.026875 152.301875 l
cl
0.533 setgray
fill
grestore
0.000 setgray
gsave
71.626875 147.401875 translate
0.000000 rotate
0.000000 0 m /space glyphshow
2.225098 0 m /P glyphshow
6.321289 0 m /r glyphshow
9.074219 0 m /e glyphshow
13.380859 0 m /c glyphshow
17.229492 0 m /o glyphshow
21.512207 0 m /n glyphshow
25.948730 0 m /d glyphshow
30.392090 0 m /i glyphshow
32.336914 0 m /t glyphshow
35.081543 0 m /i glyphshow
37.026367 0 m /o glyphshow
41.309082 0 m /n glyphshow
45.745605 0 m /e glyphshow
50.052246 0 m /r glyphshow
grestore
gsave
138.564375 147.401875 m
152.564375 147.401875 l
152.564375 152.301875 l
138.564375 152.301875 l
cl
0.667 setgray
fill
grestore
gsave
158.164375 147.401875 translate
0.000000 rotate
0.000000 0 m /space glyphshow
2.225098 0 m /M glyphshow
8.264648 0 m /i glyphshow
10.209473 0 m /x glyphshow
14.102051 0 m /e glyphshow
18.408691 0 m /d glyphshow
grestore
gsave
195.02375 147.401875 m
209.02375 147.401875 l
209.02375 152.301875 l
195.02375 152.301875 l
cl
0.800 setgray
fill
grestore
gsave
214.623750 147.401875 translate
0.000000 rotate
0.000000 0 m /space glyphshow
2.225098 0 m /S glyphshow
6.668457 0 m /i glyphshow
8.613281 0 m /n glyphshow
13.049805 0 m /g glyphshow
17.493164 0 m /l glyphshow
19.437988 0 m /e glyphshow
grestore

end
showpage
