%!PS-Adobe-3.0 EPSF-3.0
%%Title: ../../TPDS - Exascale issue/graphics/speedup-rlen=smart-gpu-ilu-mgs.eps
%%Creator: matplotlib version 3.2.1, http://matplotlib.org/
%%CreationDate: Sat Apr 24 22:16:34 2021
%%Orientation: portrait
%%BoundingBox: 54.06312500000003 311.56468750000005 557.936875 480.4353125
%%EndComments
%%BeginProlog
/mpldict 8 dict def
mpldict begin
/m { moveto } bind def
/l { lineto } bind def
/r { rlineto } bind def
/c { curveto } bind def
/cl { closepath } bind def
/box {
m
1 index 0 r
0 exch r
neg 0 r
cl
} bind def
/clipbox {
box
clip
newpath
} bind def
%!PS-Adobe-3.0 Resource-Font
%%Title: DejaVu Sans
%%Copyright: Copyright (c) 2003 by Bitstream, Inc. All Rights Reserved. Copyright (c) 2006 by Tavmjong Bah. All Rights Reserved. DejaVu changes are in public domain 
%%Creator: Converted from TrueType to type 3 by PPR
25 dict begin
/_d{bind def}bind def
/_m{moveto}_d
/_l{lineto}_d
/_cl{closepath eofill}_d
/_c{curveto}_d
/_sc{7 -1 roll{setcachedevice}{pop pop pop pop pop pop}ifelse}_d
/_e{exec}_d
/FontName /DejaVuSans def
/PaintType 0 def
/FontMatrix[.001 0 0 .001 0 0]def
/FontBBox[-1021 -463 1793 1232]def
/FontType 3 def
/Encoding [ /space /period /zero /one /two /three /four /five /seven /nine /B /C /D /E /F /G /M /P /S /underscore /a /b /c /d /e /f /g /h /i /j /k /l /m /n /o /p /r /s /t /u /v /x /y ] def
/FontInfo 10 dict dup begin
/FamilyName (DejaVu Sans) def
/FullName (DejaVu Sans) def
/Notice (Copyright (c) 2003 by Bitstream, Inc. All Rights Reserved. Copyright (c) 2006 by Tavmjong Bah. All Rights Reserved. DejaVu changes are in public domain ) def
/Weight (Book) def
/Version (Version 2.35) def
/ItalicAngle 0.0 def
/isFixedPitch false def
/UnderlinePosition -130 def
/UnderlineThickness 90 def
end readonly def
/CharStrings 44 dict dup begin
/.notdef 0 def
/space{318 0 0 0 0 0 _sc
}_d
/period{318 0 107 0 210 124 _sc
107 124 _m
210 124 _l
210 0 _l
107 0 _l
107 124 _l
_cl}_d
/zero{636 0 66 -13 570 742 _sc
318 664 _m
267 664 229 639 203 589 _c
177 539 165 464 165 364 _c
165 264 177 189 203 139 _c
229 89 267 64 318 64 _c
369 64 407 89 433 139 _c
458 189 471 264 471 364 _c
471 464 458 539 433 589 _c
407 639 369 664 318 664 _c
318 742 _m
399 742 461 709 505 645 _c
548 580 570 486 570 364 _c
570 241 548 147 505 83 _c
461 19 399 -13 318 -13 _c
236 -13 173 19 130 83 _c
87 147 66 241 66 364 _c
66 486 87 580 130 645 _c
173 709 236 742 318 742 _c
_cl}_d
/one{636 0 110 0 544 729 _sc
124 83 _m
285 83 _l
285 639 _l
110 604 _l
110 694 _l
284 729 _l
383 729 _l
383 83 _l
544 83 _l
544 0 _l
124 0 _l
124 83 _l
_cl}_d
/two{{636 0 73 0 536 742 _sc
192 83 _m
536 83 _l
536 0 _l
73 0 _l
73 83 _l
110 121 161 173 226 239 _c
290 304 331 346 348 365 _c
380 400 402 430 414 455 _c
426 479 433 504 433 528 _c
433 566 419 598 392 622 _c
365 646 330 659 286 659 _c
255 659 222 653 188 643 _c
154 632 117 616 78 594 _c
78 694 _l
118 710 155 722 189 730 _c
223 738 255 742 284 742 _c
}_e{359 742 419 723 464 685 _c
509 647 532 597 532 534 _c
532 504 526 475 515 449 _c
504 422 484 390 454 354 _c
446 344 420 317 376 272 _c
332 227 271 164 192 83 _c
_cl}_e}_d
/three{{636 0 76 -13 556 742 _sc
406 393 _m
453 383 490 362 516 330 _c
542 298 556 258 556 212 _c
556 140 531 84 482 45 _c
432 6 362 -13 271 -13 _c
240 -13 208 -10 176 -4 _c
144 1 110 10 76 22 _c
76 117 _l
103 101 133 89 166 81 _c
198 73 232 69 268 69 _c
330 69 377 81 409 105 _c
441 129 458 165 458 212 _c
458 254 443 288 413 312 _c
383 336 341 349 287 349 _c
}_e{202 349 _l
202 430 _l
291 430 _l
339 430 376 439 402 459 _c
428 478 441 506 441 543 _c
441 580 427 609 401 629 _c
374 649 336 659 287 659 _c
260 659 231 656 200 650 _c
169 644 135 635 98 623 _c
98 711 _l
135 721 170 729 203 734 _c
235 739 266 742 296 742 _c
370 742 429 725 473 691 _c
517 657 539 611 539 553 _c
539 513 527 479 504 451 _c
481 423 448 403 406 393 _c
_cl}_e}_d
/four{636 0 49 0 580 729 _sc
378 643 _m
129 254 _l
378 254 _l
378 643 _l
352 729 _m
476 729 _l
476 254 _l
580 254 _l
580 172 _l
476 172 _l
476 0 _l
378 0 _l
378 172 _l
49 172 _l
49 267 _l
352 729 _l
_cl}_d
/five{{636 0 77 -13 549 729 _sc
108 729 _m
495 729 _l
495 646 _l
198 646 _l
198 467 _l
212 472 227 476 241 478 _c
255 480 270 482 284 482 _c
365 482 429 459 477 415 _c
525 370 549 310 549 234 _c
549 155 524 94 475 51 _c
426 8 357 -13 269 -13 _c
238 -13 207 -10 175 -6 _c
143 -1 111 6 77 17 _c
77 116 _l
106 100 136 88 168 80 _c
199 72 232 69 267 69 _c
}_e{323 69 368 83 401 113 _c
433 143 450 183 450 234 _c
450 284 433 324 401 354 _c
368 384 323 399 267 399 _c
241 399 214 396 188 390 _c
162 384 135 375 108 363 _c
108 729 _l
_cl}_e}_d
/seven{636 0 82 0 551 729 _sc
82 729 _m
551 729 _l
551 687 _l
286 0 _l
183 0 _l
432 646 _l
82 646 _l
82 729 _l
_cl}_d
/nine{{636 0 63 -13 566 742 _sc
110 15 _m
110 105 _l
134 93 159 84 185 78 _c
210 72 235 69 260 69 _c
324 69 374 90 408 134 _c
442 178 462 244 468 334 _c
448 306 424 284 396 269 _c
367 254 335 247 300 247 _c
226 247 168 269 126 313 _c
84 357 63 417 63 494 _c
63 568 85 628 129 674 _c
173 719 232 742 306 742 _c
390 742 455 709 499 645 _c
543 580 566 486 566 364 _c
}_e{566 248 538 157 484 89 _c
429 21 356 -13 264 -13 _c
239 -13 214 -10 189 -6 _c
163 -2 137 5 110 15 _c
306 324 _m
350 324 385 339 411 369 _c
437 399 450 441 450 494 _c
450 546 437 588 411 618 _c
385 648 350 664 306 664 _c
262 664 227 648 201 618 _c
175 588 162 546 162 494 _c
162 441 175 399 201 369 _c
227 339 262 324 306 324 _c
_cl}_e}_d
/B{{686 0 98 0 615 729 _sc
197 348 _m
197 81 _l
355 81 _l
408 81 447 92 473 114 _c
498 136 511 169 511 215 _c
511 260 498 293 473 315 _c
447 337 408 348 355 348 _c
197 348 _l
197 648 _m
197 428 _l
343 428 _l
391 428 426 437 450 455 _c
474 473 486 500 486 538 _c
486 574 474 602 450 620 _c
426 638 391 648 343 648 _c
197 648 _l
98 729 _m
350 729 _l
}_e{425 729 483 713 524 682 _c
564 650 585 606 585 549 _c
585 504 574 468 553 442 _c
532 416 502 399 462 393 _c
510 382 548 360 575 327 _c
601 294 615 253 615 204 _c
615 138 592 88 548 53 _c
504 17 441 0 360 0 _c
98 0 _l
98 729 _l
_cl}_e}_d
/C{{698 0 56 -13 644 742 _sc
644 673 _m
644 569 _l
610 599 575 622 537 638 _c
499 653 460 661 418 661 _c
334 661 270 635 226 584 _c
182 533 160 460 160 364 _c
160 268 182 194 226 143 _c
270 92 334 67 418 67 _c
460 67 499 74 537 90 _c
575 105 610 128 644 159 _c
644 56 _l
609 32 572 15 534 4 _c
496 -7 455 -13 412 -13 _c
302 -13 215 20 151 87 _c
}_e{87 154 56 246 56 364 _c
56 481 87 573 151 641 _c
215 708 302 742 412 742 _c
456 742 497 736 535 725 _c
573 713 610 696 644 673 _c
_cl}_e}_d
/D{770 0 98 0 711 729 _sc
197 648 _m
197 81 _l
316 81 _l
416 81 490 103 537 149 _c
583 195 607 267 607 365 _c
607 463 583 534 537 580 _c
490 625 416 648 316 648 _c
197 648 _l
98 729 _m
301 729 _l
442 729 546 699 612 641 _c
678 582 711 490 711 365 _c
711 239 677 147 611 88 _c
545 29 441 0 301 0 _c
98 0 _l
98 729 _l
_cl}_d
/E{632 0 98 0 568 729 _sc
98 729 _m
559 729 _l
559 646 _l
197 646 _l
197 430 _l
544 430 _l
544 347 _l
197 347 _l
197 83 _l
568 83 _l
568 0 _l
98 0 _l
98 729 _l
_cl}_d
/F{575 0 98 0 517 729 _sc
98 729 _m
517 729 _l
517 646 _l
197 646 _l
197 431 _l
486 431 _l
486 348 _l
197 348 _l
197 0 _l
98 0 _l
98 729 _l
_cl}_d
/G{{775 0 56 -13 693 742 _sc
595 104 _m
595 300 _l
434 300 _l
434 381 _l
693 381 _l
693 68 _l
655 40 613 20 567 7 _c
521 -6 472 -13 420 -13 _c
306 -13 216 20 152 86 _c
88 152 56 245 56 364 _c
56 482 88 575 152 642 _c
216 708 306 742 420 742 _c
467 742 512 736 555 724 _c
598 712 638 695 674 673 _c
674 568 _l
637 598 598 621 557 637 _c
516 653 473 661 428 661 _c
}_e{338 661 271 636 227 586 _c
182 536 160 462 160 364 _c
160 265 182 191 227 141 _c
271 91 338 67 428 67 _c
462 67 493 70 521 76 _c
549 82 573 91 595 104 _c
_cl}_e}_d
/M{863 0 98 0 765 729 _sc
98 729 _m
245 729 _l
431 233 _l
618 729 _l
765 729 _l
765 0 _l
669 0 _l
669 640 _l
481 140 _l
382 140 _l
194 640 _l
194 0 _l
98 0 _l
98 729 _l
_cl}_d
/P{603 0 98 0 569 729 _sc
197 648 _m
197 374 _l
321 374 _l
367 374 402 385 427 409 _c
452 433 465 467 465 511 _c
465 555 452 588 427 612 _c
402 636 367 648 321 648 _c
197 648 _l
98 729 _m
321 729 _l
402 729 464 710 506 673 _c
548 636 569 582 569 511 _c
569 439 548 384 506 348 _c
464 311 402 293 321 293 _c
197 293 _l
197 0 _l
98 0 _l
98 729 _l
_cl}_d
/S{{635 0 66 -13 579 742 _sc
535 705 _m
535 609 _l
497 627 462 640 429 649 _c
395 657 363 662 333 662 _c
279 662 237 651 208 631 _c
179 610 165 580 165 542 _c
165 510 174 485 194 469 _c
213 452 250 439 304 429 _c
364 417 _l
437 403 491 378 526 343 _c
561 307 579 260 579 201 _c
579 130 555 77 508 41 _c
460 5 391 -13 300 -13 _c
265 -13 228 -9 189 -2 _c
}_e{150 5 110 16 69 32 _c
69 134 _l
109 111 148 94 186 83 _c
224 71 262 66 300 66 _c
356 66 399 77 430 99 _c
460 121 476 152 476 194 _c
476 230 465 258 443 278 _c
421 298 385 313 335 323 _c
275 335 _l
201 349 148 372 115 404 _c
82 435 66 478 66 534 _c
66 598 88 649 134 686 _c
179 723 242 742 322 742 _c
356 742 390 739 426 733 _c
461 727 497 717 535 705 _c
}_e{_cl}_e}_d
/underscore{500 0 -9 -235 510 -165 _sc
510 -165 _m
510 -235 _l
-9 -235 _l
-9 -165 _l
510 -165 _l
_cl}_d
/a{{613 0 60 -13 522 560 _sc
343 275 _m
270 275 220 266 192 250 _c
164 233 150 205 150 165 _c
150 133 160 107 181 89 _c
202 70 231 61 267 61 _c
317 61 357 78 387 114 _c
417 149 432 196 432 255 _c
432 275 _l
343 275 _l
522 312 _m
522 0 _l
432 0 _l
432 83 _l
411 49 385 25 355 10 _c
325 -5 287 -13 243 -13 _c
187 -13 142 2 109 33 _c
76 64 60 106 60 159 _c
}_e{60 220 80 266 122 298 _c
163 329 224 345 306 345 _c
432 345 _l
432 354 _l
432 395 418 427 391 450 _c
364 472 326 484 277 484 _c
245 484 215 480 185 472 _c
155 464 127 453 100 439 _c
100 522 _l
132 534 164 544 195 550 _c
226 556 256 560 286 560 _c
365 560 424 539 463 498 _c
502 457 522 395 522 312 _c
_cl}_e}_d
/b{{635 0 91 -13 580 760 _sc
487 273 _m
487 339 473 390 446 428 _c
418 466 381 485 334 485 _c
286 485 249 466 222 428 _c
194 390 181 339 181 273 _c
181 207 194 155 222 117 _c
249 79 286 61 334 61 _c
381 61 418 79 446 117 _c
473 155 487 207 487 273 _c
181 464 _m
199 496 223 520 252 536 _c
281 552 316 560 356 560 _c
422 560 476 533 518 481 _c
559 428 580 359 580 273 _c
}_e{580 187 559 117 518 65 _c
476 13 422 -13 356 -13 _c
316 -13 281 -5 252 10 _c
223 25 199 49 181 82 _c
181 0 _l
91 0 _l
91 760 _l
181 760 _l
181 464 _l
_cl}_e}_d
/c{{550 0 55 -13 488 560 _sc
488 526 _m
488 442 _l
462 456 437 466 411 473 _c
385 480 360 484 334 484 _c
276 484 230 465 198 428 _c
166 391 150 339 150 273 _c
150 206 166 154 198 117 _c
230 80 276 62 334 62 _c
360 62 385 65 411 72 _c
437 79 462 90 488 104 _c
488 21 _l
462 9 436 0 410 -5 _c
383 -10 354 -13 324 -13 _c
242 -13 176 12 128 64 _c
}_e{79 115 55 185 55 273 _c
55 362 79 432 128 483 _c
177 534 244 560 330 560 _c
358 560 385 557 411 551 _c
437 545 463 537 488 526 _c
_cl}_e}_d
/d{{635 0 55 -13 544 760 _sc
454 464 _m
454 760 _l
544 760 _l
544 0 _l
454 0 _l
454 82 _l
435 49 411 25 382 10 _c
353 -5 319 -13 279 -13 _c
213 -13 159 13 117 65 _c
75 117 55 187 55 273 _c
55 359 75 428 117 481 _c
159 533 213 560 279 560 _c
319 560 353 552 382 536 _c
411 520 435 496 454 464 _c
148 273 _m
148 207 161 155 188 117 _c
215 79 253 61 301 61 _c
}_e{348 61 385 79 413 117 _c
440 155 454 207 454 273 _c
454 339 440 390 413 428 _c
385 466 348 485 301 485 _c
253 485 215 466 188 428 _c
161 390 148 339 148 273 _c
_cl}_e}_d
/e{{615 0 55 -13 562 560 _sc
562 296 _m
562 252 _l
149 252 _l
153 190 171 142 205 110 _c
238 78 284 62 344 62 _c
378 62 412 66 444 74 _c
476 82 509 95 541 113 _c
541 28 _l
509 14 476 3 442 -3 _c
408 -9 373 -13 339 -13 _c
251 -13 182 12 131 62 _c
80 112 55 181 55 268 _c
55 357 79 428 127 481 _c
175 533 241 560 323 560 _c
397 560 455 536 498 489 _c
}_e{540 441 562 377 562 296 _c
472 322 _m
471 371 457 410 431 440 _c
404 469 368 484 324 484 _c
274 484 234 469 204 441 _c
174 413 156 373 152 322 _c
472 322 _l
_cl}_e}_d
/f{352 0 23 0 371 760 _sc
371 760 _m
371 685 _l
285 685 _l
253 685 230 678 218 665 _c
205 652 199 629 199 595 _c
199 547 _l
347 547 _l
347 477 _l
199 477 _l
199 0 _l
109 0 _l
109 477 _l
23 477 _l
23 547 _l
109 547 _l
109 585 _l
109 645 123 690 151 718 _c
179 746 224 760 286 760 _c
371 760 _l
_cl}_d
/g{{635 0 55 -207 544 560 _sc
454 280 _m
454 344 440 395 414 431 _c
387 467 349 485 301 485 _c
253 485 215 467 188 431 _c
161 395 148 344 148 280 _c
148 215 161 165 188 129 _c
215 93 253 75 301 75 _c
349 75 387 93 414 129 _c
440 165 454 215 454 280 _c
544 68 _m
544 -24 523 -93 482 -139 _c
440 -184 377 -207 292 -207 _c
260 -207 231 -204 203 -200 _c
175 -195 147 -188 121 -178 _c
}_e{121 -91 _l
147 -105 173 -115 199 -122 _c
225 -129 251 -133 278 -133 _c
336 -133 380 -117 410 -87 _c
439 -56 454 -10 454 52 _c
454 96 _l
435 64 411 40 382 24 _c
353 8 319 0 279 0 _c
211 0 157 25 116 76 _c
75 127 55 195 55 280 _c
55 364 75 432 116 483 _c
157 534 211 560 279 560 _c
319 560 353 552 382 536 _c
411 520 435 496 454 464 _c
454 547 _l
544 547 _l
}_e{544 68 _l
_cl}_e}_d
/h{634 0 91 0 549 760 _sc
549 330 _m
549 0 _l
459 0 _l
459 327 _l
459 379 448 417 428 443 _c
408 469 378 482 338 482 _c
289 482 251 466 223 435 _c
195 404 181 362 181 309 _c
181 0 _l
91 0 _l
91 760 _l
181 760 _l
181 462 _l
202 494 227 519 257 535 _c
286 551 320 560 358 560 _c
420 560 468 540 500 501 _c
532 462 549 405 549 330 _c
_cl}_d
/i{278 0 94 0 184 760 _sc
94 547 _m
184 547 _l
184 0 _l
94 0 _l
94 547 _l
94 760 _m
184 760 _l
184 646 _l
94 646 _l
94 760 _l
_cl}_d
/j{278 0 -17 -207 184 760 _sc
94 547 _m
184 547 _l
184 -9 _l
184 -78 170 -128 144 -160 _c
117 -191 74 -207 16 -207 _c
-17 -207 _l
-17 -131 _l
6 -131 _l
40 -131 63 -123 75 -107 _c
87 -91 94 -58 94 -9 _c
94 547 _l
94 760 _m
184 760 _l
184 646 _l
94 646 _l
94 760 _l
_cl}_d
/k{579 0 91 0 576 760 _sc
91 760 _m
181 760 _l
181 311 _l
449 547 _l
564 547 _l
274 291 _l
576 0 _l
459 0 _l
181 267 _l
181 0 _l
91 0 _l
91 760 _l
_cl}_d
/l{278 0 94 0 184 760 _sc
94 760 _m
184 760 _l
184 0 _l
94 0 _l
94 760 _l
_cl}_d
/m{{974 0 91 0 889 560 _sc
520 442 _m
542 482 569 511 600 531 _c
631 550 668 560 711 560 _c
767 560 811 540 842 500 _c
873 460 889 403 889 330 _c
889 0 _l
799 0 _l
799 327 _l
799 379 789 418 771 444 _c
752 469 724 482 686 482 _c
639 482 602 466 575 435 _c
548 404 535 362 535 309 _c
535 0 _l
445 0 _l
445 327 _l
445 379 435 418 417 444 _c
398 469 369 482 331 482 _c
}_e{285 482 248 466 221 435 _c
194 404 181 362 181 309 _c
181 0 _l
91 0 _l
91 547 _l
181 547 _l
181 462 _l
201 495 226 520 255 536 _c
283 552 317 560 357 560 _c
397 560 430 550 458 530 _c
486 510 506 480 520 442 _c
_cl}_e}_d
/n{634 0 91 0 549 560 _sc
549 330 _m
549 0 _l
459 0 _l
459 327 _l
459 379 448 417 428 443 _c
408 469 378 482 338 482 _c
289 482 251 466 223 435 _c
195 404 181 362 181 309 _c
181 0 _l
91 0 _l
91 547 _l
181 547 _l
181 462 _l
202 494 227 519 257 535 _c
286 551 320 560 358 560 _c
420 560 468 540 500 501 _c
532 462 549 405 549 330 _c
_cl}_d
/o{612 0 55 -13 557 560 _sc
306 484 _m
258 484 220 465 192 427 _c
164 389 150 338 150 273 _c
150 207 163 156 191 118 _c
219 80 257 62 306 62 _c
354 62 392 80 420 118 _c
448 156 462 207 462 273 _c
462 337 448 389 420 427 _c
392 465 354 484 306 484 _c
306 560 _m
384 560 445 534 490 484 _c
534 433 557 363 557 273 _c
557 183 534 113 490 63 _c
445 12 384 -13 306 -13 _c
227 -13 165 12 121 63 _c
77 113 55 183 55 273 _c
55 363 77 433 121 484 _c
165 534 227 560 306 560 _c
_cl}_d
/p{{635 0 91 -207 580 560 _sc
181 82 _m
181 -207 _l
91 -207 _l
91 547 _l
181 547 _l
181 464 _l
199 496 223 520 252 536 _c
281 552 316 560 356 560 _c
422 560 476 533 518 481 _c
559 428 580 359 580 273 _c
580 187 559 117 518 65 _c
476 13 422 -13 356 -13 _c
316 -13 281 -5 252 10 _c
223 25 199 49 181 82 _c
487 273 _m
487 339 473 390 446 428 _c
418 466 381 485 334 485 _c
}_e{286 485 249 466 222 428 _c
194 390 181 339 181 273 _c
181 207 194 155 222 117 _c
249 79 286 61 334 61 _c
381 61 418 79 446 117 _c
473 155 487 207 487 273 _c
_cl}_e}_d
/r{411 0 91 0 411 560 _sc
411 463 _m
401 469 390 473 378 476 _c
366 478 353 480 339 480 _c
288 480 249 463 222 430 _c
194 397 181 350 181 288 _c
181 0 _l
91 0 _l
91 547 _l
181 547 _l
181 462 _l
199 495 224 520 254 536 _c
284 552 321 560 365 560 _c
371 560 378 559 386 559 _c
393 558 401 557 411 555 _c
411 463 _l
_cl}_d
/s{{521 0 54 -13 472 560 _sc
443 531 _m
443 446 _l
417 458 391 468 364 475 _c
336 481 308 485 279 485 _c
234 485 200 478 178 464 _c
156 450 145 430 145 403 _c
145 382 153 366 169 354 _c
185 342 217 330 265 320 _c
296 313 _l
360 299 405 279 432 255 _c
458 230 472 195 472 151 _c
472 100 452 60 412 31 _c
372 1 316 -13 246 -13 _c
216 -13 186 -10 154 -5 _c
}_e{122 0 89 8 54 20 _c
54 113 _l
87 95 120 82 152 74 _c
184 65 216 61 248 61 _c
290 61 323 68 346 82 _c
368 96 380 117 380 144 _c
380 168 371 187 355 200 _c
339 213 303 226 247 238 _c
216 245 _l
160 257 119 275 95 299 _c
70 323 58 356 58 399 _c
58 450 76 490 112 518 _c
148 546 200 560 268 560 _c
301 560 332 557 362 552 _c
391 547 418 540 443 531 _c
}_e{_cl}_e}_d
/t{392 0 27 0 368 702 _sc
183 702 _m
183 547 _l
368 547 _l
368 477 _l
183 477 _l
183 180 _l
183 135 189 106 201 94 _c
213 81 238 75 276 75 _c
368 75 _l
368 0 _l
276 0 _l
206 0 158 13 132 39 _c
106 65 93 112 93 180 _c
93 477 _l
27 477 _l
27 547 _l
93 547 _l
93 702 _l
183 702 _l
_cl}_d
/u{634 0 85 -13 543 560 _sc
85 216 _m
85 547 _l
175 547 _l
175 219 _l
175 167 185 129 205 103 _c
225 77 255 64 296 64 _c
344 64 383 79 411 110 _c
439 141 453 183 453 237 _c
453 547 _l
543 547 _l
543 0 _l
453 0 _l
453 84 _l
431 50 405 26 377 10 _c
348 -5 315 -13 277 -13 _c
214 -13 166 6 134 45 _c
101 83 85 140 85 216 _c
311 560 _m
311 560 _l
_cl}_d
/v{592 0 30 0 562 547 _sc
30 547 _m
125 547 _l
296 88 _l
467 547 _l
562 547 _l
357 0 _l
235 0 _l
30 547 _l
_cl}_d
/x{592 0 29 0 559 547 _sc
549 547 _m
351 281 _l
559 0 _l
453 0 _l
294 215 _l
135 0 _l
29 0 _l
241 286 _l
47 547 _l
153 547 _l
298 352 _l
443 547 _l
549 547 _l
_cl}_d
/y{592 0 30 -207 562 547 _sc
322 -50 _m
296 -114 271 -157 247 -177 _c
223 -197 191 -207 151 -207 _c
79 -207 _l
79 -132 _l
132 -132 _l
156 -132 175 -126 189 -114 _c
203 -102 218 -75 235 -31 _c
251 9 _l
30 547 _l
125 547 _l
296 119 _l
467 547 _l
562 547 _l
322 -50 _l
_cl}_d
end readonly def

/BuildGlyph
 {exch begin
 CharStrings exch
 2 copy known not{pop /.notdef}if
 true 3 1 roll get exec
 end}_d

/BuildChar {
 1 index /Encoding get exch get
 1 index /BuildGlyph get exec
}_d

FontName currentdict end definefont pop
end
%%EndProlog
mpldict begin
54.063 311.565 translate
503.874 168.871 0 0 clipbox
gsave
0 0 m
503.87375 0 l
503.87375 168.870625 l
0 168.870625 l
cl
1.000 setgray
fill
grestore
gsave
40.54375 77.309375 m
496.67375 77.309375 l
496.67375 159.014375 l
40.54375 159.014375 l
cl
1.000 setgray
fill
grestore
gsave
456.1 81.7 40.54 77.31 clipbox
45.015613 124.614571 m
49.156226 124.614571 l
49.156226 114.024788 l
45.015613 114.024788 l
cl
0.533 setgray
fill
grestore
gsave
456.1 81.7 40.54 77.31 clipbox
60.542914 124.614571 m
64.683528 124.614571 l
64.683528 123.648291 l
60.542914 123.648291 l
cl
0.533 setgray
fill
grestore
gsave
456.1 81.7 40.54 77.31 clipbox
76.070215 124.614571 m
80.210829 124.614571 l
80.210829 123.59282 l
76.070215 123.59282 l
cl
0.533 setgray
fill
grestore
gsave
456.1 81.7 40.54 77.31 clipbox
91.597516 124.614571 m
95.73813 124.614571 l
95.73813 124.216164 l
91.597516 124.216164 l
cl
0.533 setgray
fill
grestore
gsave
456.1 81.7 40.54 77.31 clipbox
107.124818 124.614571 m
111.265431 124.614571 l
111.265431 115.902915 l
107.124818 115.902915 l
cl
0.533 setgray
fill
grestore
gsave
456.1 81.7 40.54 77.31 clipbox
122.652119 124.614571 m
126.792732 124.614571 l
126.792732 123.985667 l
122.652119 123.985667 l
cl
0.533 setgray
fill
grestore
gsave
456.1 81.7 40.54 77.31 clipbox
138.17942 124.614571 m
142.320034 124.614571 l
142.320034 119.709069 l
138.17942 119.709069 l
cl
0.533 setgray
fill
grestore
gsave
456.1 81.7 40.54 77.31 clipbox
153.706721 124.614571 m
157.847335 124.614571 l
157.847335 124.634647 l
153.706721 124.634647 l
cl
0.533 setgray
fill
grestore
gsave
456.1 81.7 40.54 77.31 clipbox
169.234022 124.614571 m
173.374636 124.614571 l
173.374636 125.127476 l
169.234022 125.127476 l
cl
0.533 setgray
fill
grestore
gsave
456.1 81.7 40.54 77.31 clipbox
184.761324 124.614571 m
188.901937 124.614571 l
188.901937 124.730543 l
184.761324 124.730543 l
cl
0.533 setgray
fill
grestore
gsave
456.1 81.7 40.54 77.31 clipbox
200.288625 124.614571 m
204.429238 124.614571 l
204.429238 124.991615 l
200.288625 124.991615 l
cl
0.533 setgray
fill
grestore
gsave
456.1 81.7 40.54 77.31 clipbox
215.815926 124.614571 m
219.95654 124.614571 l
219.95654 121.671355 l
215.815926 121.671355 l
cl
0.533 setgray
fill
grestore
gsave
456.1 81.7 40.54 77.31 clipbox
231.343227 124.614571 m
235.483841 124.614571 l
235.483841 124.18995 l
231.343227 124.18995 l
cl
0.533 setgray
fill
grestore
gsave
456.1 81.7 40.54 77.31 clipbox
246.870528 124.614571 m
251.011142 124.614571 l
251.011142 113.539323 l
246.870528 113.539323 l
cl
0.533 setgray
fill
grestore
gsave
456.1 81.7 40.54 77.31 clipbox
262.39783 124.614571 m
266.538443 124.614571 l
266.538443 123.696974 l
262.39783 123.696974 l
cl
0.533 setgray
fill
grestore
gsave
456.1 81.7 40.54 77.31 clipbox
277.925131 124.614571 m
282.065744 124.614571 l
282.065744 108.517644 l
277.925131 108.517644 l
cl
0.533 setgray
fill
grestore
gsave
456.1 81.7 40.54 77.31 clipbox
293.452432 124.614571 m
297.593046 124.614571 l
297.593046 119.597079 l
293.452432 119.597079 l
cl
0.533 setgray
fill
grestore
gsave
456.1 81.7 40.54 77.31 clipbox
308.979733 124.614571 m
313.120347 124.614571 l
313.120347 123.578312 l
308.979733 123.578312 l
cl
0.533 setgray
fill
grestore
gsave
456.1 81.7 40.54 77.31 clipbox
324.507034 124.614571 m
328.647648 124.614571 l
328.647648 125.880942 l
324.507034 125.880942 l
cl
0.533 setgray
fill
grestore
gsave
456.1 81.7 40.54 77.31 clipbox
340.034336 124.614571 m
344.174949 124.614571 l
344.174949 125.116294 l
340.034336 125.116294 l
cl
0.533 setgray
fill
grestore
gsave
456.1 81.7 40.54 77.31 clipbox
355.561637 124.614571 m
359.70225 124.614571 l
359.70225 105.076699 l
355.561637 105.076699 l
cl
0.533 setgray
fill
grestore
gsave
456.1 81.7 40.54 77.31 clipbox
371.088938 124.614571 m
375.229552 124.614571 l
375.229552 125.267359 l
371.088938 125.267359 l
cl
0.533 setgray
fill
grestore
gsave
456.1 81.7 40.54 77.31 clipbox
386.616239 124.614571 m
390.756853 124.614571 l
390.756853 119.617062 l
386.616239 119.617062 l
cl
0.533 setgray
fill
grestore
gsave
456.1 81.7 40.54 77.31 clipbox
402.14354 124.614571 m
406.284154 124.614571 l
406.284154 118.88262 l
402.14354 118.88262 l
cl
0.533 setgray
fill
grestore
gsave
456.1 81.7 40.54 77.31 clipbox
417.670842 124.614571 m
421.811455 124.614571 l
421.811455 120.604468 l
417.670842 120.604468 l
cl
0.533 setgray
fill
grestore
gsave
456.1 81.7 40.54 77.31 clipbox
433.198143 124.614571 m
437.338756 124.614571 l
437.338756 118.87058 l
433.198143 118.87058 l
cl
0.533 setgray
fill
grestore
gsave
456.1 81.7 40.54 77.31 clipbox
448.725444 124.614571 m
452.866058 124.614571 l
452.866058 118.659872 l
448.725444 118.659872 l
cl
0.533 setgray
fill
grestore
gsave
456.1 81.7 40.54 77.31 clipbox
464.252745 124.614571 m
468.393359 124.614571 l
468.393359 113.838861 l
464.252745 113.838861 l
cl
0.533 setgray
fill
grestore
gsave
456.1 81.7 40.54 77.31 clipbox
479.780046 124.614571 m
483.92066 124.614571 l
483.92066 122.26184 l
479.780046 122.26184 l
cl
0.533 setgray
fill
grestore
gsave
456.1 81.7 40.54 77.31 clipbox
49.156226 124.614571 m
53.29684 124.614571 l
53.29684 117.517176 l
49.156226 117.517176 l
cl
0.667 setgray
fill
grestore
gsave
456.1 81.7 40.54 77.31 clipbox
64.683528 124.614571 m
68.824141 124.614571 l
68.824141 120.652773 l
64.683528 120.652773 l
cl
0.667 setgray
fill
grestore
gsave
456.1 81.7 40.54 77.31 clipbox
80.210829 124.614571 m
84.351442 124.614571 l
84.351442 114.484603 l
80.210829 114.484603 l
cl
0.667 setgray
fill
grestore
gsave
456.1 81.7 40.54 77.31 clipbox
95.73813 124.614571 m
99.878744 124.614571 l
99.878744 97.250145 l
95.73813 97.250145 l
cl
0.667 setgray
fill
grestore
gsave
456.1 81.7 40.54 77.31 clipbox
111.265431 124.614571 m
115.406045 124.614571 l
115.406045 120.55832 l
111.265431 120.55832 l
cl
0.667 setgray
fill
grestore
gsave
456.1 81.7 40.54 77.31 clipbox
126.792732 124.614571 m
130.933346 124.614571 l
130.933346 127.662848 l
126.792732 127.662848 l
cl
0.667 setgray
fill
grestore
gsave
456.1 81.7 40.54 77.31 clipbox
142.320034 124.614571 m
146.460647 124.614571 l
146.460647 121.678199 l
142.320034 121.678199 l
cl
0.667 setgray
fill
grestore
gsave
456.1 81.7 40.54 77.31 clipbox
157.847335 124.614571 m
161.987948 124.614571 l
161.987948 122.302786 l
157.847335 122.302786 l
cl
0.667 setgray
fill
grestore
gsave
456.1 81.7 40.54 77.31 clipbox
173.374636 124.614571 m
177.51525 124.614571 l
177.51525 125.141768 l
173.374636 125.141768 l
cl
0.667 setgray
fill
grestore
gsave
456.1 81.7 40.54 77.31 clipbox
188.901937 124.614571 m
193.042551 124.614571 l
193.042551 133.691274 l
188.901937 133.691274 l
cl
0.667 setgray
fill
grestore
gsave
456.1 81.7 40.54 77.31 clipbox
204.429238 124.614571 m
208.569852 124.614571 l
208.569852 133.467196 l
204.429238 133.467196 l
cl
0.667 setgray
fill
grestore
gsave
456.1 81.7 40.54 77.31 clipbox
219.95654 124.614571 m
224.097153 124.614571 l
224.097153 122.618556 l
219.95654 122.618556 l
cl
0.667 setgray
fill
grestore
gsave
456.1 81.7 40.54 77.31 clipbox
235.483841 124.614571 m
239.624454 124.614571 l
239.624454 125.752204 l
235.483841 125.752204 l
cl
0.667 setgray
fill
grestore
gsave
456.1 81.7 40.54 77.31 clipbox
251.011142 124.614571 m
255.151756 124.614571 l
255.151756 114.005643 l
251.011142 114.005643 l
cl
0.667 setgray
fill
grestore
gsave
456.1 81.7 40.54 77.31 clipbox
266.538443 124.614571 m
270.679057 124.614571 l
270.679057 107.565155 l
266.538443 107.565155 l
cl
0.667 setgray
fill
grestore
gsave
456.1 81.7 40.54 77.31 clipbox
282.065744 124.614571 m
286.206358 124.614571 l
286.206358 112.081442 l
282.065744 112.081442 l
cl
0.667 setgray
fill
grestore
gsave
456.1 81.7 40.54 77.31 clipbox
297.593046 124.614571 m
301.733659 124.614571 l
301.733659 119.786083 l
297.593046 119.786083 l
cl
0.667 setgray
fill
grestore
gsave
456.1 81.7 40.54 77.31 clipbox
313.120347 124.614571 m
317.26096 124.614571 l
317.26096 121.155629 l
313.120347 121.155629 l
cl
0.667 setgray
fill
grestore
gsave
456.1 81.7 40.54 77.31 clipbox
328.647648 124.614571 m
332.788262 124.614571 l
332.788262 127.757244 l
328.647648 127.757244 l
cl
0.667 setgray
fill
grestore
gsave
456.1 81.7 40.54 77.31 clipbox
344.174949 124.614571 m
348.315563 124.614571 l
348.315563 134.805333 l
344.174949 134.805333 l
cl
0.667 setgray
fill
grestore
gsave
456.1 81.7 40.54 77.31 clipbox
359.70225 124.614571 m
363.842864 124.614571 l
363.842864 102.251277 l
359.70225 102.251277 l
cl
0.667 setgray
fill
grestore
gsave
456.1 81.7 40.54 77.31 clipbox
375.229552 124.614571 m
379.370165 124.614571 l
379.370165 119.95178 l
375.229552 119.95178 l
cl
0.667 setgray
fill
grestore
gsave
456.1 81.7 40.54 77.31 clipbox
390.756853 124.614571 m
394.897466 124.614571 l
394.897466 115.886887 l
390.756853 115.886887 l
cl
0.667 setgray
fill
grestore
gsave
456.1 81.7 40.54 77.31 clipbox
406.284154 124.614571 m
410.424768 124.614571 l
410.424768 118.820018 l
406.284154 118.820018 l
cl
0.667 setgray
fill
grestore
gsave
456.1 81.7 40.54 77.31 clipbox
421.811455 124.614571 m
425.952069 124.614571 l
425.952069 124.245118 l
421.811455 124.245118 l
cl
0.667 setgray
fill
grestore
gsave
456.1 81.7 40.54 77.31 clipbox
437.338756 124.614571 m
441.47937 124.614571 l
441.47937 118.90913 l
437.338756 118.90913 l
cl
0.667 setgray
fill
grestore
gsave
456.1 81.7 40.54 77.31 clipbox
452.866058 124.614571 m
457.006671 124.614571 l
457.006671 120.252212 l
452.866058 120.252212 l
cl
0.667 setgray
fill
grestore
gsave
456.1 81.7 40.54 77.31 clipbox
468.393359 124.614571 m
472.533972 124.614571 l
472.533972 114.489584 l
468.393359 114.489584 l
cl
0.667 setgray
fill
grestore
gsave
456.1 81.7 40.54 77.31 clipbox
483.92066 124.614571 m
488.061274 124.614571 l
488.061274 125.25422 l
483.92066 125.25422 l
cl
0.667 setgray
fill
grestore
gsave
456.1 81.7 40.54 77.31 clipbox
53.29684 124.614571 m
57.437454 124.614571 l
57.437454 98.055919 l
53.29684 98.055919 l
cl
0.800 setgray
fill
grestore
gsave
456.1 81.7 40.54 77.31 clipbox
68.824141 124.614571 m
72.964755 124.614571 l
72.964755 -34275.189028 l
68.824141 -34275.189028 l
cl
0.800 setgray
fill
grestore
gsave
456.1 81.7 40.54 77.31 clipbox
84.351442 124.614571 m
88.492056 124.614571 l
88.492056 120.893408 l
84.351442 120.893408 l
cl
0.800 setgray
fill
grestore
gsave
456.1 81.7 40.54 77.31 clipbox
99.878744 124.614571 m
104.019357 124.614571 l
104.019357 97.020784 l
99.878744 97.020784 l
cl
0.800 setgray
fill
grestore
gsave
456.1 81.7 40.54 77.31 clipbox
115.406045 124.614571 m
119.546658 124.614571 l
119.546658 -34275.189028 l
115.406045 -34275.189028 l
cl
0.800 setgray
fill
grestore
gsave
456.1 81.7 40.54 77.31 clipbox
130.933346 124.614571 m
135.07396 124.614571 l
135.07396 98.236008 l
130.933346 98.236008 l
cl
0.800 setgray
fill
grestore
gsave
456.1 81.7 40.54 77.31 clipbox
146.460647 124.614571 m
150.601261 124.614571 l
150.601261 113.625021 l
146.460647 113.625021 l
cl
0.800 setgray
fill
grestore
gsave
456.1 81.7 40.54 77.31 clipbox
161.987948 124.614571 m
166.128562 124.614571 l
166.128562 123.209253 l
161.987948 123.209253 l
cl
0.800 setgray
fill
grestore
gsave
456.1 81.7 40.54 77.31 clipbox
177.51525 124.614571 m
181.655863 124.614571 l
181.655863 91.308543 l
177.51525 91.308543 l
cl
0.800 setgray
fill
grestore
gsave
456.1 81.7 40.54 77.31 clipbox
193.042551 124.614571 m
197.183164 124.614571 l
197.183164 126.173977 l
193.042551 126.173977 l
cl
0.800 setgray
fill
grestore
gsave
456.1 81.7 40.54 77.31 clipbox
208.569852 124.614571 m
212.710466 124.614571 l
212.710466 124.120451 l
208.569852 124.120451 l
cl
0.800 setgray
fill
grestore
gsave
456.1 81.7 40.54 77.31 clipbox
224.097153 124.614571 m
228.237767 124.614571 l
228.237767 103.975108 l
224.097153 103.975108 l
cl
0.800 setgray
fill
grestore
gsave
456.1 81.7 40.54 77.31 clipbox
239.624454 124.614571 m
243.765068 124.614571 l
243.765068 -34275.189028 l
239.624454 -34275.189028 l
cl
0.800 setgray
fill
grestore
gsave
456.1 81.7 40.54 77.31 clipbox
255.151756 124.614571 m
259.292369 124.614571 l
259.292369 -34275.189028 l
255.151756 -34275.189028 l
cl
0.800 setgray
fill
grestore
gsave
456.1 81.7 40.54 77.31 clipbox
270.679057 124.614571 m
274.81967 124.614571 l
274.81967 107.632926 l
270.679057 107.632926 l
cl
0.800 setgray
fill
grestore
gsave
456.1 81.7 40.54 77.31 clipbox
286.206358 124.614571 m
290.346972 124.614571 l
290.346972 85.062597 l
286.206358 85.062597 l
cl
0.800 setgray
fill
grestore
gsave
456.1 81.7 40.54 77.31 clipbox
301.733659 124.614571 m
305.874273 124.614571 l
305.874273 120.110193 l
301.733659 120.110193 l
cl
0.800 setgray
fill
grestore
gsave
456.1 81.7 40.54 77.31 clipbox
317.26096 124.614571 m
321.401574 124.614571 l
321.401574 118.344341 l
317.26096 118.344341 l
cl
0.800 setgray
fill
grestore
gsave
456.1 81.7 40.54 77.31 clipbox
332.788262 124.614571 m
336.928875 124.614571 l
336.928875 -34275.189028 l
332.788262 -34275.189028 l
cl
0.800 setgray
fill
grestore
gsave
456.1 81.7 40.54 77.31 clipbox
348.315563 124.614571 m
352.456176 124.614571 l
352.456176 129.197186 l
348.315563 129.197186 l
cl
0.800 setgray
fill
grestore
gsave
456.1 81.7 40.54 77.31 clipbox
363.842864 124.614571 m
367.983478 124.614571 l
367.983478 -34275.189028 l
363.842864 -34275.189028 l
cl
0.800 setgray
fill
grestore
gsave
456.1 81.7 40.54 77.31 clipbox
379.370165 124.614571 m
383.510779 124.614571 l
383.510779 119.847353 l
379.370165 119.847353 l
cl
0.800 setgray
fill
grestore
gsave
456.1 81.7 40.54 77.31 clipbox
394.897466 124.614571 m
399.03808 124.614571 l
399.03808 115.986997 l
394.897466 115.986997 l
cl
0.800 setgray
fill
grestore
gsave
456.1 81.7 40.54 77.31 clipbox
410.424768 124.614571 m
414.565381 124.614571 l
414.565381 118.805194 l
410.424768 118.805194 l
cl
0.800 setgray
fill
grestore
gsave
456.1 81.7 40.54 77.31 clipbox
425.952069 124.614571 m
430.092682 124.614571 l
430.092682 119.851318 l
425.952069 119.851318 l
cl
0.800 setgray
fill
grestore
gsave
456.1 81.7 40.54 77.31 clipbox
441.47937 124.614571 m
445.619984 124.614571 l
445.619984 118.90252 l
441.47937 118.90252 l
cl
0.800 setgray
fill
grestore
gsave
456.1 81.7 40.54 77.31 clipbox
457.006671 124.614571 m
461.147285 124.614571 l
461.147285 -34275.189028 l
457.006671 -34275.189028 l
cl
0.800 setgray
fill
grestore
gsave
456.1 81.7 40.54 77.31 clipbox
472.533972 124.614571 m
476.674586 124.614571 l
476.674586 114.775947 l
472.533972 114.775947 l
cl
0.800 setgray
fill
grestore
gsave
456.1 81.7 40.54 77.31 clipbox
488.061274 124.614571 m
492.201887 124.614571 l
492.201887 124.500599 l
488.061274 124.500599 l
cl
0.800 setgray
fill
grestore
0.800 setlinewidth
1 setlinejoin
0 setlinecap
[] 0 setdash
0.000 setgray
gsave
/o {
gsave
newpath
translate
0.8 setlinewidth
1 setlinejoin
0 setlinecap
0 0 m
0 -3.5 l

gsave
0.000 setgray
fill
grestore
stroke
grestore
} bind def
51.2265 77.3094 o
grestore
/DejaVuSans findfont
7.000 scalefont
setfont
gsave
53.054658 34.668750 translate
90.000000 rotate
0.000000 0 m /a glyphshow
4.289551 0 m /f glyphshow
6.753906 0 m /underscore glyphshow
10.253906 0 m /zero glyphshow
14.707520 0 m /underscore glyphshow
18.207520 0 m /k glyphshow
22.261230 0 m /one glyphshow
26.714844 0 m /zero glyphshow
31.168457 0 m /one glyphshow
grestore
gsave
/o {
gsave
newpath
translate
0.8 setlinewidth
1 setlinejoin
0 setlinecap
0 0 m
0 -3.5 l

gsave
0.000 setgray
fill
grestore
stroke
grestore
} bind def
66.7538 77.3094 o
grestore
gsave
68.581959 39.293750 translate
90.000000 rotate
0.000000 0 m /a glyphshow
4.289551 0 m /f glyphshow
6.753906 0 m /underscore glyphshow
10.253906 0 m /s glyphshow
13.900879 0 m /h glyphshow
18.337402 0 m /e glyphshow
22.644043 0 m /l glyphshow
24.588867 0 m /l glyphshow
26.533691 0 m /nine glyphshow
grestore
gsave
/o {
gsave
newpath
translate
0.8 setlinewidth
1 setlinejoin
0 setlinecap
0 0 m
0 -3.5 l

gsave
0.000 setgray
fill
grestore
stroke
grestore
} bind def
82.2811 77.3094 o
grestore
gsave
84.210823 40.231250 translate
90.000000 rotate
0.000000 0 m /a glyphshow
4.289551 0 m /p glyphshow
8.732910 0 m /a glyphshow
13.022461 0 m /c glyphshow
16.871094 0 m /h glyphshow
21.307617 0 m /e glyphshow
25.614258 0 m /two glyphshow
grestore
gsave
/o {
gsave
newpath
translate
0.8 setlinewidth
1 setlinejoin
0 setlinecap
0 0 m
0 -3.5 l

gsave
0.000 setgray
fill
grestore
stroke
grestore
} bind def
97.8084 77.3094 o
grestore
gsave
99.738124 31.043750 translate
90.000000 rotate
0.000000 0 m /a glyphshow
4.289551 0 m /t glyphshow
7.034180 0 m /m glyphshow
13.853027 0 m /o glyphshow
18.135742 0 m /s glyphshow
21.782715 0 m /m glyphshow
28.601562 0 m /o glyphshow
32.884277 0 m /d glyphshow
37.327637 0 m /j glyphshow
grestore
gsave
/o {
gsave
newpath
translate
0.8 setlinewidth
1 setlinejoin
0 setlinecap
0 0 m
0 -3.5 l

gsave
0.000 setgray
fill
grestore
stroke
grestore
} bind def
113.336 77.3094 o
grestore
gsave
115.265426 31.387500 translate
90.000000 rotate
0.000000 0 m /B glyphshow
4.802246 0 m /e glyphshow
9.108887 0 m /n glyphshow
13.545410 0 m /E glyphshow
17.968262 0 m /l glyphshow
19.913086 0 m /e glyphshow
24.219727 0 m /c glyphshow
28.068359 0 m /h glyphshow
32.504883 0 m /i glyphshow
34.449707 0 m /one glyphshow
grestore
gsave
/o {
gsave
newpath
translate
0.8 setlinewidth
1 setlinejoin
0 setlinecap
0 0 m
0 -3.5 l

gsave
0.000 setgray
fill
grestore
stroke
grestore
} bind def
128.863 77.3094 o
grestore
gsave
130.792727 39.481250 translate
90.000000 rotate
0.000000 0 m /b glyphshow
4.443359 0 m /o glyphshow
8.726074 0 m /n glyphshow
13.162598 0 m /e glyphshow
17.469238 0 m /zero glyphshow
21.922852 0 m /one glyphshow
26.376465 0 m /zero glyphshow
grestore
gsave
/o {
gsave
newpath
translate
0.8 setlinewidth
1 setlinejoin
0 setlinecap
0 0 m
0 -3.5 l

gsave
0.000 setgray
fill
grestore
stroke
grestore
} bind def
144.39 77.3094 o
grestore
gsave
146.320028 44.512500 translate
90.000000 rotate
0.000000 0 m /c glyphshow
3.848633 0 m /a glyphshow
8.138184 0 m /g glyphshow
12.581543 0 m /e glyphshow
16.888184 0 m /one glyphshow
21.341797 0 m /three glyphshow
grestore
gsave
/o {
gsave
newpath
translate
0.8 setlinewidth
1 setlinejoin
0 setlinecap
0 0 m
0 -3.5 l

gsave
0.000 setgray
fill
grestore
stroke
grestore
} bind def
159.918 77.3094 o
grestore
gsave
161.847329 44.512500 translate
90.000000 rotate
0.000000 0 m /c glyphshow
3.848633 0 m /a glyphshow
8.138184 0 m /g glyphshow
12.581543 0 m /e glyphshow
16.888184 0 m /one glyphshow
21.341797 0 m /four glyphshow
grestore
gsave
/o {
gsave
newpath
translate
0.8 setlinewidth
1 setlinejoin
0 setlinecap
0 0 m
0 -3.5 l

gsave
0.000 setgray
fill
grestore
stroke
grestore
} bind def
175.445 77.3094 o
grestore
gsave
177.273068 30.450000 translate
90.000000 rotate
0.000000 0 m /c glyphshow
3.848633 0 m /r glyphshow
6.726562 0 m /a glyphshow
11.016113 0 m /n glyphshow
15.452637 0 m /k glyphshow
19.506348 0 m /s glyphshow
23.153320 0 m /e glyphshow
27.459961 0 m /g glyphshow
31.903320 0 m /underscore glyphshow
35.403320 0 m /one glyphshow
grestore
gsave
/o {
gsave
newpath
translate
0.8 setlinewidth
1 setlinejoin
0 setlinecap
0 0 m
0 -3.5 l

gsave
0.000 setgray
fill
grestore
stroke
grestore
} bind def
190.972 77.3094 o
grestore
gsave
192.800369 34.043750 translate
90.000000 rotate
0.000000 0 m /C glyphshow
4.887695 0 m /u glyphshow
9.324219 0 m /r glyphshow
12.202148 0 m /l glyphshow
14.146973 0 m /C glyphshow
19.034668 0 m /u glyphshow
23.471191 0 m /r glyphshow
26.349121 0 m /l glyphshow
28.293945 0 m /underscore glyphshow
31.793945 0 m /two glyphshow
grestore
gsave
/o {
gsave
newpath
translate
0.8 setlinewidth
1 setlinejoin
0 setlinecap
0 0 m
0 -3.5 l

gsave
0.000 setgray
fill
grestore
stroke
grestore
} bind def
206.5 77.3094 o
grestore
gsave
208.327670 34.043750 translate
90.000000 rotate
0.000000 0 m /C glyphshow
4.887695 0 m /u glyphshow
9.324219 0 m /r glyphshow
12.202148 0 m /l glyphshow
14.146973 0 m /C glyphshow
19.034668 0 m /u glyphshow
23.471191 0 m /r glyphshow
26.349121 0 m /l glyphshow
28.293945 0 m /underscore glyphshow
31.793945 0 m /four glyphshow
grestore
gsave
/o {
gsave
newpath
translate
0.8 setlinewidth
1 setlinejoin
0 setlinecap
0 0 m
0 -3.5 l

gsave
0.000 setgray
fill
grestore
stroke
grestore
} bind def
222.027 77.3094 o
grestore
gsave
223.956534 38.606250 translate
90.000000 rotate
0.000000 0 m /e glyphshow
4.306641 0 m /c glyphshow
8.155273 0 m /o glyphshow
12.437988 0 m /l glyphshow
14.382812 0 m /o glyphshow
18.665527 0 m /g glyphshow
23.108887 0 m /y glyphshow
27.251465 0 m /two glyphshow
grestore
gsave
/o {
gsave
newpath
translate
0.8 setlinewidth
1 setlinejoin
0 setlinecap
0 0 m
0 -3.5 l

gsave
0.000 setgray
fill
grestore
stroke
grestore
} bind def
237.554 77.3094 o
grestore
gsave
239.483835 61.825000 translate
90.000000 rotate
0.000000 0 m /F glyphshow
4.026367 0 m /one glyphshow
grestore
gsave
/o {
gsave
newpath
translate
0.8 setlinewidth
1 setlinejoin
0 setlinecap
0 0 m
0 -3.5 l

gsave
0.000 setgray
fill
grestore
stroke
grestore
} bind def
253.081 77.3094 o
grestore
gsave
254.909574 7.200000 translate
90.000000 rotate
0.000000 0 m /F glyphshow
4.026367 0 m /E glyphshow
8.449219 0 m /M glyphshow
14.488770 0 m /underscore glyphshow
17.988770 0 m /three glyphshow
22.442383 0 m /D glyphshow
27.832520 0 m /underscore glyphshow
31.332520 0 m /t glyphshow
34.077148 0 m /h glyphshow
38.513672 0 m /e glyphshow
42.820312 0 m /r glyphshow
45.573242 0 m /m glyphshow
52.392090 0 m /a glyphshow
56.681641 0 m /l glyphshow
58.626465 0 m /two glyphshow
grestore
gsave
/o {
gsave
newpath
translate
0.8 setlinewidth
1 setlinejoin
0 setlinecap
0 0 m
0 -3.5 l

gsave
0.000 setgray
fill
grestore
stroke
grestore
} bind def
268.609 77.3094 o
grestore
gsave
270.436875 35.403125 translate
90.000000 rotate
0.000000 0 m /G glyphshow
5.424316 0 m /three glyphshow
9.877930 0 m /underscore glyphshow
13.377930 0 m /c glyphshow
17.226562 0 m /i glyphshow
19.171387 0 m /r glyphshow
21.924316 0 m /c glyphshow
25.772949 0 m /u glyphshow
30.209473 0 m /i glyphshow
32.154297 0 m /t glyphshow
grestore
gsave
/o {
gsave
newpath
translate
0.8 setlinewidth
1 setlinejoin
0 setlinecap
0 0 m
0 -3.5 l

gsave
0.000 setgray
fill
grestore
stroke
grestore
} bind def
284.136 77.3094 o
grestore
gsave
286.065739 37.700000 translate
90.000000 rotate
0.000000 0 m /l glyphshow
1.944824 0 m /a glyphshow
6.234375 0 m /n glyphshow
10.670898 0 m /g glyphshow
15.114258 0 m /u glyphshow
19.550781 0 m /a glyphshow
23.840332 0 m /g glyphshow
28.283691 0 m /e glyphshow
grestore
gsave
/o {
gsave
newpath
translate
0.8 setlinewidth
1 setlinejoin
0 setlinecap
0 0 m
0 -3.5 l

gsave
0.000 setgray
fill
grestore
stroke
grestore
} bind def
299.663 77.3094 o
grestore
gsave
301.593040 41.168750 translate
90.000000 rotate
0.000000 0 m /m glyphshow
6.818848 0 m /a glyphshow
11.108398 0 m /r glyphshow
13.986328 0 m /i glyphshow
15.931152 0 m /n glyphshow
20.367676 0 m /e glyphshow
24.674316 0 m /one glyphshow
grestore
gsave
/o {
gsave
newpath
translate
0.8 setlinewidth
1 setlinejoin
0 setlinecap
0 0 m
0 -3.5 l

gsave
0.000 setgray
fill
grestore
stroke
grestore
} bind def
315.191 77.3094 o
grestore
gsave
317.120341 40.059375 translate
90.000000 rotate
0.000000 0 m /m glyphshow
6.818848 0 m /c glyphshow
10.667480 0 m /two glyphshow
15.121094 0 m /d glyphshow
19.564453 0 m /e glyphshow
23.871094 0 m /p glyphshow
28.314453 0 m /i glyphshow
grestore
gsave
/o {
gsave
newpath
translate
0.8 setlinewidth
1 setlinejoin
0 setlinecap
0 0 m
0 -3.5 l

gsave
0.000 setgray
fill
grestore
stroke
grestore
} bind def
330.718 77.3094 o
grestore
gsave
332.647642 48.090625 translate
90.000000 rotate
0.000000 0 m /n glyphshow
4.436523 0 m /s glyphshow
8.083496 0 m /three glyphshow
12.537109 0 m /D glyphshow
17.927246 0 m /a glyphshow
grestore
gsave
/o {
gsave
newpath
translate
0.8 setlinewidth
1 setlinejoin
0 setlinecap
0 0 m
0 -3.5 l

gsave
0.000 setgray
fill
grestore
stroke
grestore
} bind def
346.245 77.3094 o
grestore
gsave
348.073381 20.840625 translate
90.000000 rotate
0.000000 0 m /p glyphshow
4.443359 0 m /a glyphshow
8.732910 0 m /r glyphshow
11.610840 0 m /a glyphshow
15.900391 0 m /b glyphshow
20.343750 0 m /o glyphshow
24.626465 0 m /l glyphshow
26.571289 0 m /i glyphshow
28.516113 0 m /c glyphshow
32.364746 0 m /underscore glyphshow
35.864746 0 m /f glyphshow
38.329102 0 m /e glyphshow
42.635742 0 m /m glyphshow
grestore
gsave
/o {
gsave
newpath
translate
0.8 setlinewidth
1 setlinejoin
0 setlinecap
0 0 m
0 -3.5 l

gsave
0.000 setgray
fill
grestore
stroke
grestore
} bind def
361.773 77.3094 o
grestore
gsave
363.702245 29.356250 translate
90.000000 rotate
0.000000 0 m /p glyphshow
4.443359 0 m /o glyphshow
8.726074 0 m /i glyphshow
10.670898 0 m /s glyphshow
14.317871 0 m /s glyphshow
17.964844 0 m /o glyphshow
22.247559 0 m /n glyphshow
26.684082 0 m /three glyphshow
31.137695 0 m /D glyphshow
36.527832 0 m /b glyphshow
grestore
gsave
/o {
gsave
newpath
translate
0.8 setlinewidth
1 setlinejoin
0 setlinecap
0 0 m
0 -3.5 l

gsave
0.000 setgray
fill
grestore
stroke
grestore
} bind def
377.3 77.3094 o
grestore
gsave
379.229546 45.231250 translate
90.000000 rotate
0.000000 0 m /r glyphshow
2.877930 0 m /a glyphshow
7.167480 0 m /j glyphshow
9.112305 0 m /a glyphshow
13.401855 0 m /t glyphshow
16.146484 0 m /three glyphshow
20.600098 0 m /one glyphshow
grestore
gsave
/o {
gsave
newpath
translate
0.8 setlinewidth
1 setlinejoin
0 setlinecap
0 0 m
0 -3.5 l

gsave
0.000 setgray
fill
grestore
stroke
grestore
} bind def
392.827 77.3094 o
grestore
gsave
394.756847 40.246875 translate
90.000000 rotate
0.000000 0 m /s glyphshow
3.646973 0 m /t glyphshow
6.391602 0 m /o glyphshow
10.674316 0 m /m glyphshow
17.493164 0 m /a glyphshow
21.782715 0 m /c glyphshow
25.631348 0 m /h glyphshow
grestore
gsave
/o {
gsave
newpath
translate
0.8 setlinewidth
1 setlinejoin
0 setlinecap
0 0 m
0 -3.5 l

gsave
0.000 setgray
fill
grestore
stroke
grestore
} bind def
408.354 77.3094 o
grestore
gsave
410.284148 51.981250 translate
90.000000 rotate
0.000000 0 m /t glyphshow
2.744629 0 m /two glyphshow
7.198242 0 m /e glyphshow
11.504883 0 m /m glyphshow
grestore
gsave
/o {
gsave
newpath
translate
0.8 setlinewidth
1 setlinejoin
0 setlinecap
0 0 m
0 -3.5 l

gsave
0.000 setgray
fill
grestore
stroke
grestore
} bind def
423.882 77.3094 o
grestore
gsave
425.811449 38.543750 translate
90.000000 rotate
0.000000 0 m /t glyphshow
2.744629 0 m /h glyphshow
7.181152 0 m /e glyphshow
11.487793 0 m /r glyphshow
14.240723 0 m /m glyphshow
21.059570 0 m /a glyphshow
25.349121 0 m /l glyphshow
27.293945 0 m /two glyphshow
grestore
gsave
/o {
gsave
newpath
translate
0.8 setlinewidth
1 setlinejoin
0 setlinecap
0 0 m
0 -3.5 l

gsave
0.000 setgray
fill
grestore
stroke
grestore
} bind def
439.409 77.3094 o
grestore
gsave
441.135626 31.028125 translate
90.000000 rotate
0.000000 0 m /t glyphshow
2.744629 0 m /m glyphshow
9.563477 0 m /t glyphshow
12.308105 0 m /underscore glyphshow
15.808105 0 m /u glyphshow
20.244629 0 m /n glyphshow
24.681152 0 m /s glyphshow
28.328125 0 m /y glyphshow
32.470703 0 m /m glyphshow
grestore
gsave
/o {
gsave
newpath
translate
0.8 setlinewidth
1 setlinejoin
0 setlinecap
0 0 m
0 -3.5 l

gsave
0.000 setgray
fill
grestore
stroke
grestore
} bind def
454.936 77.3094 o
grestore
gsave
456.866052 48.028125 translate
90.000000 rotate
0.000000 0 m /t glyphshow
2.744629 0 m /o glyphshow
7.027344 0 m /r glyphshow
9.905273 0 m /s glyphshow
13.552246 0 m /o glyphshow
17.834961 0 m /two glyphshow
grestore
gsave
/o {
gsave
newpath
translate
0.8 setlinewidth
1 setlinejoin
0 setlinecap
0 0 m
0 -3.5 l

gsave
0.000 setgray
fill
grestore
stroke
grestore
} bind def
470.464 77.3094 o
grestore
gsave
472.393353 48.028125 translate
90.000000 rotate
0.000000 0 m /t glyphshow
2.744629 0 m /o glyphshow
7.027344 0 m /r glyphshow
9.905273 0 m /s glyphshow
13.552246 0 m /o glyphshow
17.834961 0 m /three glyphshow
grestore
gsave
/o {
gsave
newpath
translate
0.8 setlinewidth
1 setlinejoin
0 setlinecap
0 0 m
0 -3.5 l

gsave
0.000 setgray
fill
grestore
stroke
grestore
} bind def
485.991 77.3094 o
grestore
gsave
487.920654 37.528125 translate
90.000000 rotate
0.000000 0 m /v glyphshow
4.142578 0 m /e glyphshow
8.449219 0 m /n glyphshow
12.885742 0 m /k glyphshow
16.814453 0 m /a glyphshow
21.104004 0 m /t glyphshow
23.848633 0 m /zero glyphshow
28.302246 0 m /one glyphshow
grestore
gsave
/o {
gsave
newpath
translate
0.8 setlinewidth
1 setlinejoin
0 setlinecap
0 0 m
-3.5 0 l

gsave
0.000 setgray
fill
grestore
stroke
grestore
} bind def
40.5438 90.2148 o
grestore
gsave
17.965625 87.558518 translate
0.000000 rotate
0.000000 0 m /zero glyphshow
4.453613 0 m /period glyphshow
6.678711 0 m /five glyphshow
11.132324 0 m /zero glyphshow
grestore
gsave
/o {
gsave
newpath
translate
0.8 setlinewidth
1 setlinejoin
0 setlinecap
0 0 m
-3.5 0 l

gsave
0.000 setgray
fill
grestore
stroke
grestore
} bind def
40.5438 110.337 o
grestore
gsave
17.965625 107.681113 translate
0.000000 rotate
0.000000 0 m /zero glyphshow
4.453613 0 m /period glyphshow
6.678711 0 m /seven glyphshow
11.132324 0 m /five glyphshow
grestore
gsave
/o {
gsave
newpath
translate
0.8 setlinewidth
1 setlinejoin
0 setlinecap
0 0 m
-3.5 0 l

gsave
0.000 setgray
fill
grestore
stroke
grestore
} bind def
40.5438 124.615 o
grestore
gsave
17.965625 121.958321 translate
0.000000 rotate
0.000000 0 m /one glyphshow
4.453613 0 m /period glyphshow
6.678711 0 m /zero glyphshow
11.132324 0 m /zero glyphshow
grestore
gsave
/o {
gsave
newpath
translate
0.8 setlinewidth
1 setlinejoin
0 setlinecap
0 0 m
-3.5 0 l

gsave
0.000 setgray
fill
grestore
stroke
grestore
} bind def
40.5438 144.737 o
grestore
gsave
17.965625 142.080917 translate
0.000000 rotate
0.000000 0 m /one glyphshow
4.453613 0 m /period glyphshow
6.678711 0 m /five glyphshow
11.132324 0 m /zero glyphshow
grestore
gsave
/o {
gsave
newpath
translate
0.8 setlinewidth
1 setlinejoin
0 setlinecap
0 0 m
-3.5 0 l

gsave
0.000 setgray
fill
grestore
stroke
grestore
} bind def
40.5438 159.014 o
grestore
gsave
17.965625 156.358125 translate
0.000000 rotate
0.000000 0 m /two glyphshow
4.453613 0 m /period glyphshow
6.678711 0 m /zero glyphshow
11.132324 0 m /zero glyphshow
grestore
gsave
12.512500 78.060313 translate
90.000000 rotate
0.000000 0 m /S glyphshow
4.443359 0 m /p glyphshow
8.886719 0 m /e glyphshow
13.193359 0 m /e glyphshow
17.500000 0 m /d glyphshow
21.943359 0 m /u glyphshow
26.379883 0 m /p glyphshow
30.823242 0 m /space glyphshow
33.048340 0 m /o glyphshow
37.331055 0 m /v glyphshow
41.473633 0 m /e glyphshow
45.780273 0 m /r glyphshow
48.658203 0 m /space glyphshow
50.883301 0 m /b glyphshow
55.326660 0 m /a glyphshow
59.616211 0 m /s glyphshow
63.263184 0 m /e glyphshow
67.569824 0 m /l glyphshow
69.514648 0 m /i glyphshow
71.459473 0 m /n glyphshow
75.895996 0 m /e glyphshow
grestore
1.500 setlinewidth
gsave
456.1 81.7 40.54 77.31 clipbox
47.08592 114.016411 m
47.08592 114.039696 l
stroke
grestore
gsave
456.1 81.7 40.54 77.31 clipbox
62.613221 123.580324 m
62.613221 123.681811 l
stroke
grestore
gsave
456.1 81.7 40.54 77.31 clipbox
78.140522 123.539424 m
78.140522 123.859065 l
stroke
grestore
gsave
456.1 81.7 40.54 77.31 clipbox
93.667823 123.742021 m
93.667823 124.437007 l
stroke
grestore
gsave
456.1 81.7 40.54 77.31 clipbox
109.195124 115.896071 m
109.195124 115.907604 l
stroke
grestore
gsave
456.1 81.7 40.54 77.31 clipbox
124.722426 123.976796 m
124.722426 124.003129 l
stroke
grestore
gsave
456.1 81.7 40.54 77.31 clipbox
140.249727 119.515625 m
140.249727 119.960836 l
stroke
grestore
gsave
456.1 81.7 40.54 77.31 clipbox
155.777028 124.424318 m
155.777028 124.730944 l
stroke
grestore
gsave
456.1 81.7 40.54 77.31 clipbox
171.304329 124.946213 m
171.304329 125.2041 l
stroke
grestore
gsave
456.1 81.7 40.54 77.31 clipbox
186.83163 124.554331 m
186.83163 125.005763 l
stroke
grestore
gsave
456.1 81.7 40.54 77.31 clipbox
202.358932 124.964501 m
202.358932 125.014253 l
stroke
grestore
gsave
456.1 81.7 40.54 77.31 clipbox
217.886233 121.458787 m
217.886233 121.911957 l
stroke
grestore
gsave
456.1 81.7 40.54 77.31 clipbox
233.413534 124.166565 m
233.413534 124.24585 l
stroke
grestore
gsave
456.1 81.7 40.54 77.31 clipbox
248.940835 112.527802 m
248.940835 114.35071 l
stroke
grestore
gsave
456.1 81.7 40.54 77.31 clipbox
264.468136 123.309435 m
264.468136 123.894514 l
stroke
grestore
gsave
456.1 81.7 40.54 77.31 clipbox
279.995438 108.418728 m
279.995438 108.784338 l
stroke
grestore
gsave
456.1 81.7 40.54 77.31 clipbox
295.522739 118.610921 m
295.522739 119.744812 l
stroke
grestore
gsave
456.1 81.7 40.54 77.31 clipbox
311.05004 123.507134 m
311.05004 123.598109 l
stroke
grestore
gsave
456.1 81.7 40.54 77.31 clipbox
326.577341 125.643859 m
326.577341 126.704696 l
stroke
grestore
gsave
456.1 81.7 40.54 77.31 clipbox
342.104642 124.810482 m
342.104642 125.522789 l
stroke
grestore
gsave
456.1 81.7 40.54 77.31 clipbox
357.631944 104.538846 m
357.631944 105.546616 l
stroke
grestore
gsave
456.1 81.7 40.54 77.31 clipbox
373.159245 125.103613 m
373.159245 125.824882 l
stroke
grestore
gsave
456.1 81.7 40.54 77.31 clipbox
388.686546 118.759149 m
388.686546 119.977552 l
stroke
grestore
gsave
456.1 81.7 40.54 77.31 clipbox
404.213847 118.842737 m
404.213847 118.941879 l
stroke
grestore
gsave
456.1 81.7 40.54 77.31 clipbox
419.741148 120.577503 m
419.741148 120.642727 l
stroke
grestore
gsave
456.1 81.7 40.54 77.31 clipbox
435.26845 118.75244 m
435.26845 119.668104 l
stroke
grestore
gsave
456.1 81.7 40.54 77.31 clipbox
450.795751 117.105132 m
450.795751 119.372481 l
stroke
grestore
gsave
456.1 81.7 40.54 77.31 clipbox
466.323052 113.375466 m
466.323052 114.176459 l
stroke
grestore
gsave
456.1 81.7 40.54 77.31 clipbox
481.850353 121.086764 m
481.850353 123.678097 l
stroke
grestore
gsave
456.1 81.7 40.54 77.31 clipbox
51.226533 117.514616 m
51.226533 117.542401 l
stroke
grestore
gsave
456.1 81.7 40.54 77.31 clipbox
66.753834 120.616545 m
66.753834 120.701224 l
stroke
grestore
gsave
456.1 81.7 40.54 77.31 clipbox
82.281136 114.355498 m
82.281136 114.764757 l
stroke
grestore
gsave
456.1 81.7 40.54 77.31 clipbox
97.808437 96.603371 m
97.808437 97.345026 l
stroke
grestore
gsave
456.1 81.7 40.54 77.31 clipbox
113.335738 120.548513 m
113.335738 120.566291 l
stroke
grestore
gsave
456.1 81.7 40.54 77.31 clipbox
128.863039 127.646338 m
128.863039 127.707111 l
stroke
grestore
gsave
456.1 81.7 40.54 77.31 clipbox
144.39034 121.490424 m
144.39034 121.880317 l
stroke
grestore
gsave
456.1 81.7 40.54 77.31 clipbox
159.917642 115.629169 m
159.917642 122.431976 l
stroke
grestore
gsave
456.1 81.7 40.54 77.31 clipbox
175.444943 124.940254 m
175.444943 125.280736 l
stroke
grestore
gsave
456.1 81.7 40.54 77.31 clipbox
190.972244 133.172555 m
190.972244 134.060909 l
stroke
grestore
gsave
456.1 81.7 40.54 77.31 clipbox
206.499545 133.462294 m
206.499545 133.499871 l
stroke
grestore
gsave
456.1 81.7 40.54 77.31 clipbox
222.026846 122.152647 m
222.026846 122.896534 l
stroke
grestore
gsave
456.1 81.7 40.54 77.31 clipbox
237.554148 125.700703 m
237.554148 125.868936 l
stroke
grestore
gsave
456.1 81.7 40.54 77.31 clipbox
253.081449 112.888518 m
253.081449 114.857314 l
stroke
grestore
gsave
456.1 81.7 40.54 77.31 clipbox
268.60875 107.230076 m
268.60875 107.96152 l
stroke
grestore
gsave
456.1 81.7 40.54 77.31 clipbox
284.136051 111.993288 m
284.136051 112.230603 l
stroke
grestore
gsave
456.1 81.7 40.54 77.31 clipbox
299.663352 118.998298 m
299.663352 120.354536 l
stroke
grestore
gsave
456.1 81.7 40.54 77.31 clipbox
315.190654 120.986255 m
315.190654 121.162357 l
stroke
grestore
gsave
456.1 81.7 40.54 77.31 clipbox
330.717955 127.510292 m
330.717955 128.095017 l
stroke
grestore
gsave
456.1 81.7 40.54 77.31 clipbox
346.245256 134.477058 m
346.245256 135.170345 l
stroke
grestore
gsave
456.1 81.7 40.54 77.31 clipbox
361.772557 101.841625 m
361.772557 102.498163 l
stroke
grestore
gsave
456.1 81.7 40.54 77.31 clipbox
377.299858 119.595892 m
377.299858 120.763746 l
stroke
grestore
gsave
456.1 81.7 40.54 77.31 clipbox
392.82716 114.924154 m
392.82716 116.156674 l
stroke
grestore
gsave
456.1 81.7 40.54 77.31 clipbox
408.354461 118.814753 m
408.354461 118.87466 l
stroke
grestore
gsave
456.1 81.7 40.54 77.31 clipbox
423.881762 124.198245 m
423.881762 124.256088 l
stroke
grestore
gsave
456.1 81.7 40.54 77.31 clipbox
439.409063 118.799232 m
439.409063 119.703664 l
stroke
grestore
gsave
456.1 81.7 40.54 77.31 clipbox
454.936364 116.518736 m
454.936364 120.51543 l
stroke
grestore
gsave
456.1 81.7 40.54 77.31 clipbox
470.463666 114.23682 m
470.463666 115.111956 l
stroke
grestore
gsave
456.1 81.7 40.54 77.31 clipbox
485.990967 121.849991 m
485.990967 126.551897 l
stroke
grestore
gsave
456.1 81.7 40.54 77.31 clipbox
55.367147 98.041837 m
55.367147 98.073 l
stroke
grestore
gsave
456.1 81.7 40.54 77.31 clipbox

stroke
grestore
gsave
456.1 81.7 40.54 77.31 clipbox
86.421749 120.823367 m
86.421749 121.278027 l
stroke
grestore
gsave
456.1 81.7 40.54 77.31 clipbox
101.94905 96.427352 m
101.94905 97.037357 l
stroke
grestore
gsave
456.1 81.7 40.54 77.31 clipbox

stroke
grestore
gsave
456.1 81.7 40.54 77.31 clipbox
133.003653 98.225733 m
133.003653 98.257939 l
stroke
grestore
gsave
456.1 81.7 40.54 77.31 clipbox
148.530954 113.428573 m
148.530954 113.914289 l
stroke
grestore
gsave
456.1 81.7 40.54 77.31 clipbox
164.058255 117.583794 m
164.058255 123.273118 l
stroke
grestore
gsave
456.1 81.7 40.54 77.31 clipbox
179.585556 91.173119 m
179.585556 91.360256 l
stroke
grestore
gsave
456.1 81.7 40.54 77.31 clipbox
195.112858 125.82501 m
195.112858 126.380969 l
stroke
grestore
gsave
456.1 81.7 40.54 77.31 clipbox
210.640159 124.082134 m
210.640159 124.18675 l
stroke
grestore
gsave
456.1 81.7 40.54 77.31 clipbox
226.16746 103.551818 m
226.16746 104.20355 l
stroke
grestore
gsave
456.1 81.7 40.54 77.31 clipbox

stroke
grestore
gsave
456.1 81.7 40.54 77.31 clipbox

stroke
grestore
gsave
456.1 81.7 40.54 77.31 clipbox
272.749364 107.416073 m
272.749364 107.853243 l
stroke
grestore
gsave
456.1 81.7 40.54 77.31 clipbox
288.276665 82.538252 m
288.276665 85.257261 l
stroke
grestore
gsave
456.1 81.7 40.54 77.31 clipbox
303.803966 119.497024 m
303.803966 120.315331 l
stroke
grestore
gsave
456.1 81.7 40.54 77.31 clipbox
319.331267 118.185532 m
319.331267 118.405422 l
stroke
grestore
gsave
456.1 81.7 40.54 77.31 clipbox

stroke
grestore
gsave
456.1 81.7 40.54 77.31 clipbox
350.38587 128.78856 m
350.38587 129.585147 l
stroke
grestore
gsave
456.1 81.7 40.54 77.31 clipbox

stroke
grestore
gsave
456.1 81.7 40.54 77.31 clipbox
381.440472 119.655642 m
381.440472 120.422011 l
stroke
grestore
gsave
456.1 81.7 40.54 77.31 clipbox
396.967773 115.344256 m
396.967773 116.42627 l
stroke
grestore
gsave
456.1 81.7 40.54 77.31 clipbox
412.495074 118.739609 m
412.495074 118.856743 l
stroke
grestore
gsave
456.1 81.7 40.54 77.31 clipbox
428.022376 119.810637 m
428.022376 119.910218 l
stroke
grestore
gsave
456.1 81.7 40.54 77.31 clipbox
443.549677 118.792076 m
443.549677 119.695497 l
stroke
grestore
gsave
456.1 81.7 40.54 77.31 clipbox

stroke
grestore
gsave
456.1 81.7 40.54 77.31 clipbox
474.604279 114.403489 m
474.604279 115.658494 l
stroke
grestore
gsave
456.1 81.7 40.54 77.31 clipbox
490.13158 123.174186 m
490.13158 126.180735 l
stroke
grestore
0.800 setlinewidth
0 setlinejoin
2 setlinecap
[] 0 setdash
gsave
40.54375 77.309375 m
40.54375 159.014375 l
stroke
grestore
gsave
496.67375 77.309375 m
496.67375 159.014375 l
stroke
grestore
gsave
40.54375 77.309375 m
496.67375 77.309375 l
stroke
grestore
gsave
40.54375 159.014375 m
496.67375 159.014375 l
stroke
grestore
1.000 setlinewidth
0 setlinecap
0.800 setgray
gsave
302.626875 143.14875 m
491.77375 143.14875 l
492.707083 143.14875 493.17375 143.615417 493.17375 144.54875 c
493.17375 154.114375 l
493.17375 155.047708 492.707083 155.514375 491.77375 155.514375 c
302.626875 155.514375 l
301.693542 155.514375 301.226875 155.047708 301.226875 154.114375 c
301.226875 144.54875 l
301.226875 143.615417 301.693542 143.14875 302.626875 143.14875 c
cl
gsave
1.000 setgray
fill
grestore
stroke
grestore
gsave
304.026875 147.401875 m
318.026875 147.401875 l
318.026875 152.301875 l
304.026875 152.301875 l
cl
0.533 setgray
fill
grestore
0.000 setgray
gsave
323.626875 147.401875 translate
0.000000 rotate
0.000000 0 m /space glyphshow
2.225098 0 m /P glyphshow
6.321289 0 m /r glyphshow
9.074219 0 m /e glyphshow
13.380859 0 m /c glyphshow
17.229492 0 m /o glyphshow
21.512207 0 m /n glyphshow
25.948730 0 m /d glyphshow
30.392090 0 m /i glyphshow
32.336914 0 m /t glyphshow
35.081543 0 m /i glyphshow
37.026367 0 m /o glyphshow
41.309082 0 m /n glyphshow
45.745605 0 m /e glyphshow
50.052246 0 m /r glyphshow
grestore
gsave
390.564375 147.401875 m
404.564375 147.401875 l
404.564375 152.301875 l
390.564375 152.301875 l
cl
0.667 setgray
fill
grestore
gsave
410.164375 147.401875 translate
0.000000 rotate
0.000000 0 m /space glyphshow
2.225098 0 m /M glyphshow
8.264648 0 m /i glyphshow
10.209473 0 m /x glyphshow
14.102051 0 m /e glyphshow
18.408691 0 m /d glyphshow
grestore
gsave
447.02375 147.401875 m
461.02375 147.401875 l
461.02375 152.301875 l
447.02375 152.301875 l
cl
0.800 setgray
fill
grestore
gsave
466.623750 147.401875 translate
0.000000 rotate
0.000000 0 m /space glyphshow
2.225098 0 m /S glyphshow
6.668457 0 m /i glyphshow
8.613281 0 m /n glyphshow
13.049805 0 m /g glyphshow
17.493164 0 m /l glyphshow
19.437988 0 m /e glyphshow
grestore

end
showpage
