%!PS-Adobe-3.0 EPSF-3.0
%%Title: ../../TPDS - Exascale issue/graphics/speedup-rlen=smart-gpu-ilujacobi5-mgs.eps
%%Creator: matplotlib version 3.2.1, http://matplotlib.org/
%%CreationDate: Sat Apr 24 22:17:05 2021
%%Orientation: portrait
%%BoundingBox: 180.063125 311.5725 431.936875 480.4275
%%EndComments
%%BeginProlog
/mpldict 8 dict def
mpldict begin
/m { moveto } bind def
/l { lineto } bind def
/r { rlineto } bind def
/c { curveto } bind def
/cl { closepath } bind def
/box {
m
1 index 0 r
0 exch r
neg 0 r
cl
} bind def
/clipbox {
box
clip
newpath
} bind def
%!PS-Adobe-3.0 Resource-Font
%%Title: DejaVu Sans
%%Copyright: Copyright (c) 2003 by Bitstream, Inc. All Rights Reserved. Copyright (c) 2006 by Tavmjong Bah. All Rights Reserved. DejaVu changes are in public domain 
%%Creator: Converted from TrueType to type 3 by PPR
25 dict begin
/_d{bind def}bind def
/_m{moveto}_d
/_l{lineto}_d
/_cl{closepath eofill}_d
/_c{curveto}_d
/_sc{7 -1 roll{setcachedevice}{pop pop pop pop pop pop}ifelse}_d
/_e{exec}_d
/FontName /DejaVuSans def
/PaintType 0 def
/FontMatrix[.001 0 0 .001 0 0]def
/FontBBox[-1021 -463 1793 1232]def
/FontType 3 def
/Encoding [ /space /period /zero /one /two /three /four /five /seven /D /M /P /S /underscore /a /b /c /d /e /f /g /h /i /k /l /m /n /o /p /r /s /t /u /v /x /y ] def
/FontInfo 10 dict dup begin
/FamilyName (DejaVu Sans) def
/FullName (DejaVu Sans) def
/Notice (Copyright (c) 2003 by Bitstream, Inc. All Rights Reserved. Copyright (c) 2006 by Tavmjong Bah. All Rights Reserved. DejaVu changes are in public domain ) def
/Weight (Book) def
/Version (Version 2.35) def
/ItalicAngle 0.0 def
/isFixedPitch false def
/UnderlinePosition -130 def
/UnderlineThickness 90 def
end readonly def
/CharStrings 37 dict dup begin
/.notdef 0 def
/space{318 0 0 0 0 0 _sc
}_d
/period{318 0 107 0 210 124 _sc
107 124 _m
210 124 _l
210 0 _l
107 0 _l
107 124 _l
_cl}_d
/zero{636 0 66 -13 570 742 _sc
318 664 _m
267 664 229 639 203 589 _c
177 539 165 464 165 364 _c
165 264 177 189 203 139 _c
229 89 267 64 318 64 _c
369 64 407 89 433 139 _c
458 189 471 264 471 364 _c
471 464 458 539 433 589 _c
407 639 369 664 318 664 _c
318 742 _m
399 742 461 709 505 645 _c
548 580 570 486 570 364 _c
570 241 548 147 505 83 _c
461 19 399 -13 318 -13 _c
236 -13 173 19 130 83 _c
87 147 66 241 66 364 _c
66 486 87 580 130 645 _c
173 709 236 742 318 742 _c
_cl}_d
/one{636 0 110 0 544 729 _sc
124 83 _m
285 83 _l
285 639 _l
110 604 _l
110 694 _l
284 729 _l
383 729 _l
383 83 _l
544 83 _l
544 0 _l
124 0 _l
124 83 _l
_cl}_d
/two{{636 0 73 0 536 742 _sc
192 83 _m
536 83 _l
536 0 _l
73 0 _l
73 83 _l
110 121 161 173 226 239 _c
290 304 331 346 348 365 _c
380 400 402 430 414 455 _c
426 479 433 504 433 528 _c
433 566 419 598 392 622 _c
365 646 330 659 286 659 _c
255 659 222 653 188 643 _c
154 632 117 616 78 594 _c
78 694 _l
118 710 155 722 189 730 _c
223 738 255 742 284 742 _c
}_e{359 742 419 723 464 685 _c
509 647 532 597 532 534 _c
532 504 526 475 515 449 _c
504 422 484 390 454 354 _c
446 344 420 317 376 272 _c
332 227 271 164 192 83 _c
_cl}_e}_d
/three{{636 0 76 -13 556 742 _sc
406 393 _m
453 383 490 362 516 330 _c
542 298 556 258 556 212 _c
556 140 531 84 482 45 _c
432 6 362 -13 271 -13 _c
240 -13 208 -10 176 -4 _c
144 1 110 10 76 22 _c
76 117 _l
103 101 133 89 166 81 _c
198 73 232 69 268 69 _c
330 69 377 81 409 105 _c
441 129 458 165 458 212 _c
458 254 443 288 413 312 _c
383 336 341 349 287 349 _c
}_e{202 349 _l
202 430 _l
291 430 _l
339 430 376 439 402 459 _c
428 478 441 506 441 543 _c
441 580 427 609 401 629 _c
374 649 336 659 287 659 _c
260 659 231 656 200 650 _c
169 644 135 635 98 623 _c
98 711 _l
135 721 170 729 203 734 _c
235 739 266 742 296 742 _c
370 742 429 725 473 691 _c
517 657 539 611 539 553 _c
539 513 527 479 504 451 _c
481 423 448 403 406 393 _c
_cl}_e}_d
/four{636 0 49 0 580 729 _sc
378 643 _m
129 254 _l
378 254 _l
378 643 _l
352 729 _m
476 729 _l
476 254 _l
580 254 _l
580 172 _l
476 172 _l
476 0 _l
378 0 _l
378 172 _l
49 172 _l
49 267 _l
352 729 _l
_cl}_d
/five{{636 0 77 -13 549 729 _sc
108 729 _m
495 729 _l
495 646 _l
198 646 _l
198 467 _l
212 472 227 476 241 478 _c
255 480 270 482 284 482 _c
365 482 429 459 477 415 _c
525 370 549 310 549 234 _c
549 155 524 94 475 51 _c
426 8 357 -13 269 -13 _c
238 -13 207 -10 175 -6 _c
143 -1 111 6 77 17 _c
77 116 _l
106 100 136 88 168 80 _c
199 72 232 69 267 69 _c
}_e{323 69 368 83 401 113 _c
433 143 450 183 450 234 _c
450 284 433 324 401 354 _c
368 384 323 399 267 399 _c
241 399 214 396 188 390 _c
162 384 135 375 108 363 _c
108 729 _l
_cl}_e}_d
/seven{636 0 82 0 551 729 _sc
82 729 _m
551 729 _l
551 687 _l
286 0 _l
183 0 _l
432 646 _l
82 646 _l
82 729 _l
_cl}_d
/D{770 0 98 0 711 729 _sc
197 648 _m
197 81 _l
316 81 _l
416 81 490 103 537 149 _c
583 195 607 267 607 365 _c
607 463 583 534 537 580 _c
490 625 416 648 316 648 _c
197 648 _l
98 729 _m
301 729 _l
442 729 546 699 612 641 _c
678 582 711 490 711 365 _c
711 239 677 147 611 88 _c
545 29 441 0 301 0 _c
98 0 _l
98 729 _l
_cl}_d
/M{863 0 98 0 765 729 _sc
98 729 _m
245 729 _l
431 233 _l
618 729 _l
765 729 _l
765 0 _l
669 0 _l
669 640 _l
481 140 _l
382 140 _l
194 640 _l
194 0 _l
98 0 _l
98 729 _l
_cl}_d
/P{603 0 98 0 569 729 _sc
197 648 _m
197 374 _l
321 374 _l
367 374 402 385 427 409 _c
452 433 465 467 465 511 _c
465 555 452 588 427 612 _c
402 636 367 648 321 648 _c
197 648 _l
98 729 _m
321 729 _l
402 729 464 710 506 673 _c
548 636 569 582 569 511 _c
569 439 548 384 506 348 _c
464 311 402 293 321 293 _c
197 293 _l
197 0 _l
98 0 _l
98 729 _l
_cl}_d
/S{{635 0 66 -13 579 742 _sc
535 705 _m
535 609 _l
497 627 462 640 429 649 _c
395 657 363 662 333 662 _c
279 662 237 651 208 631 _c
179 610 165 580 165 542 _c
165 510 174 485 194 469 _c
213 452 250 439 304 429 _c
364 417 _l
437 403 491 378 526 343 _c
561 307 579 260 579 201 _c
579 130 555 77 508 41 _c
460 5 391 -13 300 -13 _c
265 -13 228 -9 189 -2 _c
}_e{150 5 110 16 69 32 _c
69 134 _l
109 111 148 94 186 83 _c
224 71 262 66 300 66 _c
356 66 399 77 430 99 _c
460 121 476 152 476 194 _c
476 230 465 258 443 278 _c
421 298 385 313 335 323 _c
275 335 _l
201 349 148 372 115 404 _c
82 435 66 478 66 534 _c
66 598 88 649 134 686 _c
179 723 242 742 322 742 _c
356 742 390 739 426 733 _c
461 727 497 717 535 705 _c
}_e{_cl}_e}_d
/underscore{500 0 -9 -235 510 -165 _sc
510 -165 _m
510 -235 _l
-9 -235 _l
-9 -165 _l
510 -165 _l
_cl}_d
/a{{613 0 60 -13 522 560 _sc
343 275 _m
270 275 220 266 192 250 _c
164 233 150 205 150 165 _c
150 133 160 107 181 89 _c
202 70 231 61 267 61 _c
317 61 357 78 387 114 _c
417 149 432 196 432 255 _c
432 275 _l
343 275 _l
522 312 _m
522 0 _l
432 0 _l
432 83 _l
411 49 385 25 355 10 _c
325 -5 287 -13 243 -13 _c
187 -13 142 2 109 33 _c
76 64 60 106 60 159 _c
}_e{60 220 80 266 122 298 _c
163 329 224 345 306 345 _c
432 345 _l
432 354 _l
432 395 418 427 391 450 _c
364 472 326 484 277 484 _c
245 484 215 480 185 472 _c
155 464 127 453 100 439 _c
100 522 _l
132 534 164 544 195 550 _c
226 556 256 560 286 560 _c
365 560 424 539 463 498 _c
502 457 522 395 522 312 _c
_cl}_e}_d
/b{{635 0 91 -13 580 760 _sc
487 273 _m
487 339 473 390 446 428 _c
418 466 381 485 334 485 _c
286 485 249 466 222 428 _c
194 390 181 339 181 273 _c
181 207 194 155 222 117 _c
249 79 286 61 334 61 _c
381 61 418 79 446 117 _c
473 155 487 207 487 273 _c
181 464 _m
199 496 223 520 252 536 _c
281 552 316 560 356 560 _c
422 560 476 533 518 481 _c
559 428 580 359 580 273 _c
}_e{580 187 559 117 518 65 _c
476 13 422 -13 356 -13 _c
316 -13 281 -5 252 10 _c
223 25 199 49 181 82 _c
181 0 _l
91 0 _l
91 760 _l
181 760 _l
181 464 _l
_cl}_e}_d
/c{{550 0 55 -13 488 560 _sc
488 526 _m
488 442 _l
462 456 437 466 411 473 _c
385 480 360 484 334 484 _c
276 484 230 465 198 428 _c
166 391 150 339 150 273 _c
150 206 166 154 198 117 _c
230 80 276 62 334 62 _c
360 62 385 65 411 72 _c
437 79 462 90 488 104 _c
488 21 _l
462 9 436 0 410 -5 _c
383 -10 354 -13 324 -13 _c
242 -13 176 12 128 64 _c
}_e{79 115 55 185 55 273 _c
55 362 79 432 128 483 _c
177 534 244 560 330 560 _c
358 560 385 557 411 551 _c
437 545 463 537 488 526 _c
_cl}_e}_d
/d{{635 0 55 -13 544 760 _sc
454 464 _m
454 760 _l
544 760 _l
544 0 _l
454 0 _l
454 82 _l
435 49 411 25 382 10 _c
353 -5 319 -13 279 -13 _c
213 -13 159 13 117 65 _c
75 117 55 187 55 273 _c
55 359 75 428 117 481 _c
159 533 213 560 279 560 _c
319 560 353 552 382 536 _c
411 520 435 496 454 464 _c
148 273 _m
148 207 161 155 188 117 _c
215 79 253 61 301 61 _c
}_e{348 61 385 79 413 117 _c
440 155 454 207 454 273 _c
454 339 440 390 413 428 _c
385 466 348 485 301 485 _c
253 485 215 466 188 428 _c
161 390 148 339 148 273 _c
_cl}_e}_d
/e{{615 0 55 -13 562 560 _sc
562 296 _m
562 252 _l
149 252 _l
153 190 171 142 205 110 _c
238 78 284 62 344 62 _c
378 62 412 66 444 74 _c
476 82 509 95 541 113 _c
541 28 _l
509 14 476 3 442 -3 _c
408 -9 373 -13 339 -13 _c
251 -13 182 12 131 62 _c
80 112 55 181 55 268 _c
55 357 79 428 127 481 _c
175 533 241 560 323 560 _c
397 560 455 536 498 489 _c
}_e{540 441 562 377 562 296 _c
472 322 _m
471 371 457 410 431 440 _c
404 469 368 484 324 484 _c
274 484 234 469 204 441 _c
174 413 156 373 152 322 _c
472 322 _l
_cl}_e}_d
/f{352 0 23 0 371 760 _sc
371 760 _m
371 685 _l
285 685 _l
253 685 230 678 218 665 _c
205 652 199 629 199 595 _c
199 547 _l
347 547 _l
347 477 _l
199 477 _l
199 0 _l
109 0 _l
109 477 _l
23 477 _l
23 547 _l
109 547 _l
109 585 _l
109 645 123 690 151 718 _c
179 746 224 760 286 760 _c
371 760 _l
_cl}_d
/g{{635 0 55 -207 544 560 _sc
454 280 _m
454 344 440 395 414 431 _c
387 467 349 485 301 485 _c
253 485 215 467 188 431 _c
161 395 148 344 148 280 _c
148 215 161 165 188 129 _c
215 93 253 75 301 75 _c
349 75 387 93 414 129 _c
440 165 454 215 454 280 _c
544 68 _m
544 -24 523 -93 482 -139 _c
440 -184 377 -207 292 -207 _c
260 -207 231 -204 203 -200 _c
175 -195 147 -188 121 -178 _c
}_e{121 -91 _l
147 -105 173 -115 199 -122 _c
225 -129 251 -133 278 -133 _c
336 -133 380 -117 410 -87 _c
439 -56 454 -10 454 52 _c
454 96 _l
435 64 411 40 382 24 _c
353 8 319 0 279 0 _c
211 0 157 25 116 76 _c
75 127 55 195 55 280 _c
55 364 75 432 116 483 _c
157 534 211 560 279 560 _c
319 560 353 552 382 536 _c
411 520 435 496 454 464 _c
454 547 _l
544 547 _l
}_e{544 68 _l
_cl}_e}_d
/h{634 0 91 0 549 760 _sc
549 330 _m
549 0 _l
459 0 _l
459 327 _l
459 379 448 417 428 443 _c
408 469 378 482 338 482 _c
289 482 251 466 223 435 _c
195 404 181 362 181 309 _c
181 0 _l
91 0 _l
91 760 _l
181 760 _l
181 462 _l
202 494 227 519 257 535 _c
286 551 320 560 358 560 _c
420 560 468 540 500 501 _c
532 462 549 405 549 330 _c
_cl}_d
/i{278 0 94 0 184 760 _sc
94 547 _m
184 547 _l
184 0 _l
94 0 _l
94 547 _l
94 760 _m
184 760 _l
184 646 _l
94 646 _l
94 760 _l
_cl}_d
/k{579 0 91 0 576 760 _sc
91 760 _m
181 760 _l
181 311 _l
449 547 _l
564 547 _l
274 291 _l
576 0 _l
459 0 _l
181 267 _l
181 0 _l
91 0 _l
91 760 _l
_cl}_d
/l{278 0 94 0 184 760 _sc
94 760 _m
184 760 _l
184 0 _l
94 0 _l
94 760 _l
_cl}_d
/m{{974 0 91 0 889 560 _sc
520 442 _m
542 482 569 511 600 531 _c
631 550 668 560 711 560 _c
767 560 811 540 842 500 _c
873 460 889 403 889 330 _c
889 0 _l
799 0 _l
799 327 _l
799 379 789 418 771 444 _c
752 469 724 482 686 482 _c
639 482 602 466 575 435 _c
548 404 535 362 535 309 _c
535 0 _l
445 0 _l
445 327 _l
445 379 435 418 417 444 _c
398 469 369 482 331 482 _c
}_e{285 482 248 466 221 435 _c
194 404 181 362 181 309 _c
181 0 _l
91 0 _l
91 547 _l
181 547 _l
181 462 _l
201 495 226 520 255 536 _c
283 552 317 560 357 560 _c
397 560 430 550 458 530 _c
486 510 506 480 520 442 _c
_cl}_e}_d
/n{634 0 91 0 549 560 _sc
549 330 _m
549 0 _l
459 0 _l
459 327 _l
459 379 448 417 428 443 _c
408 469 378 482 338 482 _c
289 482 251 466 223 435 _c
195 404 181 362 181 309 _c
181 0 _l
91 0 _l
91 547 _l
181 547 _l
181 462 _l
202 494 227 519 257 535 _c
286 551 320 560 358 560 _c
420 560 468 540 500 501 _c
532 462 549 405 549 330 _c
_cl}_d
/o{612 0 55 -13 557 560 _sc
306 484 _m
258 484 220 465 192 427 _c
164 389 150 338 150 273 _c
150 207 163 156 191 118 _c
219 80 257 62 306 62 _c
354 62 392 80 420 118 _c
448 156 462 207 462 273 _c
462 337 448 389 420 427 _c
392 465 354 484 306 484 _c
306 560 _m
384 560 445 534 490 484 _c
534 433 557 363 557 273 _c
557 183 534 113 490 63 _c
445 12 384 -13 306 -13 _c
227 -13 165 12 121 63 _c
77 113 55 183 55 273 _c
55 363 77 433 121 484 _c
165 534 227 560 306 560 _c
_cl}_d
/p{{635 0 91 -207 580 560 _sc
181 82 _m
181 -207 _l
91 -207 _l
91 547 _l
181 547 _l
181 464 _l
199 496 223 520 252 536 _c
281 552 316 560 356 560 _c
422 560 476 533 518 481 _c
559 428 580 359 580 273 _c
580 187 559 117 518 65 _c
476 13 422 -13 356 -13 _c
316 -13 281 -5 252 10 _c
223 25 199 49 181 82 _c
487 273 _m
487 339 473 390 446 428 _c
418 466 381 485 334 485 _c
}_e{286 485 249 466 222 428 _c
194 390 181 339 181 273 _c
181 207 194 155 222 117 _c
249 79 286 61 334 61 _c
381 61 418 79 446 117 _c
473 155 487 207 487 273 _c
_cl}_e}_d
/r{411 0 91 0 411 560 _sc
411 463 _m
401 469 390 473 378 476 _c
366 478 353 480 339 480 _c
288 480 249 463 222 430 _c
194 397 181 350 181 288 _c
181 0 _l
91 0 _l
91 547 _l
181 547 _l
181 462 _l
199 495 224 520 254 536 _c
284 552 321 560 365 560 _c
371 560 378 559 386 559 _c
393 558 401 557 411 555 _c
411 463 _l
_cl}_d
/s{{521 0 54 -13 472 560 _sc
443 531 _m
443 446 _l
417 458 391 468 364 475 _c
336 481 308 485 279 485 _c
234 485 200 478 178 464 _c
156 450 145 430 145 403 _c
145 382 153 366 169 354 _c
185 342 217 330 265 320 _c
296 313 _l
360 299 405 279 432 255 _c
458 230 472 195 472 151 _c
472 100 452 60 412 31 _c
372 1 316 -13 246 -13 _c
216 -13 186 -10 154 -5 _c
}_e{122 0 89 8 54 20 _c
54 113 _l
87 95 120 82 152 74 _c
184 65 216 61 248 61 _c
290 61 323 68 346 82 _c
368 96 380 117 380 144 _c
380 168 371 187 355 200 _c
339 213 303 226 247 238 _c
216 245 _l
160 257 119 275 95 299 _c
70 323 58 356 58 399 _c
58 450 76 490 112 518 _c
148 546 200 560 268 560 _c
301 560 332 557 362 552 _c
391 547 418 540 443 531 _c
}_e{_cl}_e}_d
/t{392 0 27 0 368 702 _sc
183 702 _m
183 547 _l
368 547 _l
368 477 _l
183 477 _l
183 180 _l
183 135 189 106 201 94 _c
213 81 238 75 276 75 _c
368 75 _l
368 0 _l
276 0 _l
206 0 158 13 132 39 _c
106 65 93 112 93 180 _c
93 477 _l
27 477 _l
27 547 _l
93 547 _l
93 702 _l
183 702 _l
_cl}_d
/u{634 0 85 -13 543 560 _sc
85 216 _m
85 547 _l
175 547 _l
175 219 _l
175 167 185 129 205 103 _c
225 77 255 64 296 64 _c
344 64 383 79 411 110 _c
439 141 453 183 453 237 _c
453 547 _l
543 547 _l
543 0 _l
453 0 _l
453 84 _l
431 50 405 26 377 10 _c
348 -5 315 -13 277 -13 _c
214 -13 166 6 134 45 _c
101 83 85 140 85 216 _c
311 560 _m
311 560 _l
_cl}_d
/v{592 0 30 0 562 547 _sc
30 547 _m
125 547 _l
296 88 _l
467 547 _l
562 547 _l
357 0 _l
235 0 _l
30 547 _l
_cl}_d
/x{592 0 29 0 559 547 _sc
549 547 _m
351 281 _l
559 0 _l
453 0 _l
294 215 _l
135 0 _l
29 0 _l
241 286 _l
47 547 _l
153 547 _l
298 352 _l
443 547 _l
549 547 _l
_cl}_d
/y{592 0 30 -207 562 547 _sc
322 -50 _m
296 -114 271 -157 247 -177 _c
223 -197 191 -207 151 -207 _c
79 -207 _l
79 -132 _l
132 -132 _l
156 -132 175 -126 189 -114 _c
203 -102 218 -75 235 -31 _c
251 9 _l
30 547 _l
125 547 _l
296 119 _l
467 547 _l
562 547 _l
322 -50 _l
_cl}_d
end readonly def

/BuildGlyph
 {exch begin
 CharStrings exch
 2 copy known not{pop /.notdef}if
 true 3 1 roll get exec
 end}_d

/BuildChar {
 1 index /Encoding get exch get
 1 index /BuildGlyph get exec
}_d

FontName currentdict end definefont pop
end
%%EndProlog
mpldict begin
180.063 311.572 translate
251.874 168.855 0 0 clipbox
gsave
0 0 m
251.87375 0 l
251.87375 168.855 l
0 168.855 l
cl
1.000 setgray
fill
grestore
gsave
40.54375 63.66875 m
244.67375 63.66875 l
244.67375 158.99875 l
40.54375 158.99875 l
cl
1.000 setgray
fill
grestore
gsave
204.1 95.33 40.54 63.67 clipbox
42.545025 102.068974 m
46.714346 102.068974 l
46.714346 103.941708 l
42.545025 103.941708 l
cl
0.533 setgray
fill
grestore
gsave
204.1 95.33 40.54 63.67 clipbox
58.179982 102.068974 m
62.349304 102.068974 l
62.349304 107.527566 l
58.179982 107.527566 l
cl
0.533 setgray
fill
grestore
gsave
204.1 95.33 40.54 63.67 clipbox
73.814939 102.068974 m
77.984261 102.068974 l
77.984261 97.143198 l
73.814939 97.143198 l
cl
0.533 setgray
fill
grestore
gsave
204.1 95.33 40.54 63.67 clipbox
89.449896 102.068974 m
93.619218 102.068974 l
93.619218 113.139137 l
89.449896 113.139137 l
cl
0.533 setgray
fill
grestore
gsave
204.1 95.33 40.54 63.67 clipbox
105.084853 102.068974 m
109.254175 102.068974 l
109.254175 116.633826 l
105.084853 116.633826 l
cl
0.533 setgray
fill
grestore
gsave
204.1 95.33 40.54 63.67 clipbox
120.71981 102.068974 m
124.889132 102.068974 l
124.889132 72.615813 l
120.71981 72.615813 l
cl
0.533 setgray
fill
grestore
gsave
204.1 95.33 40.54 63.67 clipbox
136.354767 102.068974 m
140.524089 102.068974 l
140.524089 110.334335 l
136.354767 110.334335 l
cl
0.533 setgray
fill
grestore
gsave
204.1 95.33 40.54 63.67 clipbox
151.989724 102.068974 m
156.159046 102.068974 l
156.159046 106.478608 l
151.989724 106.478608 l
cl
0.533 setgray
fill
grestore
gsave
204.1 95.33 40.54 63.67 clipbox
167.624681 102.068974 m
171.794003 102.068974 l
171.794003 119.415476 l
167.624681 119.415476 l
cl
0.533 setgray
fill
grestore
gsave
204.1 95.33 40.54 63.67 clipbox
183.259638 102.068974 m
187.42896 102.068974 l
187.42896 103.622828 l
183.259638 103.622828 l
cl
0.533 setgray
fill
grestore
gsave
204.1 95.33 40.54 63.67 clipbox
198.894596 102.068974 m
203.063917 102.068974 l
203.063917 101.587002 l
198.894596 101.587002 l
cl
0.533 setgray
fill
grestore
gsave
204.1 95.33 40.54 63.67 clipbox
214.529553 102.068974 m
218.698875 102.068974 l
218.698875 102.602346 l
214.529553 102.602346 l
cl
0.533 setgray
fill
grestore
gsave
204.1 95.33 40.54 63.67 clipbox
230.16451 102.068974 m
234.333832 102.068974 l
234.333832 101.826964 l
230.16451 101.826964 l
cl
0.533 setgray
fill
grestore
gsave
204.1 95.33 40.54 63.67 clipbox
46.714346 102.068974 m
50.883668 102.068974 l
50.883668 106.888422 l
46.714346 106.888422 l
cl
0.667 setgray
fill
grestore
gsave
204.1 95.33 40.54 63.67 clipbox
62.349304 102.068974 m
66.518625 102.068974 l
66.518625 109.674821 l
62.349304 109.674821 l
cl
0.667 setgray
fill
grestore
gsave
204.1 95.33 40.54 63.67 clipbox
77.984261 102.068974 m
82.153583 102.068974 l
82.153583 100.54101 l
77.984261 100.54101 l
cl
0.667 setgray
fill
grestore
gsave
204.1 95.33 40.54 63.67 clipbox
93.619218 102.068974 m
97.78854 102.068974 l
97.78854 114.610994 l
93.619218 114.610994 l
cl
0.667 setgray
fill
grestore
gsave
204.1 95.33 40.54 63.67 clipbox
109.254175 102.068974 m
113.423497 102.068974 l
113.423497 133.386063 l
109.254175 133.386063 l
cl
0.667 setgray
fill
grestore
gsave
204.1 95.33 40.54 63.67 clipbox
124.889132 102.068974 m
129.058454 102.068974 l
129.058454 75.466562 l
124.889132 75.466562 l
cl
0.667 setgray
fill
grestore
gsave
204.1 95.33 40.54 63.67 clipbox
140.524089 102.068974 m
144.693411 102.068974 l
144.693411 112.072093 l
140.524089 112.072093 l
cl
0.667 setgray
fill
grestore
gsave
204.1 95.33 40.54 63.67 clipbox
156.159046 102.068974 m
160.328368 102.068974 l
160.328368 111.575434 l
156.159046 111.575434 l
cl
0.667 setgray
fill
grestore
gsave
204.1 95.33 40.54 63.67 clipbox
171.794003 102.068974 m
175.963325 102.068974 l
175.963325 130.933419 l
171.794003 130.933419 l
cl
0.667 setgray
fill
grestore
gsave
204.1 95.33 40.54 63.67 clipbox
187.42896 102.068974 m
191.598282 102.068974 l
191.598282 104.889089 l
187.42896 104.889089 l
cl
0.667 setgray
fill
grestore
gsave
204.1 95.33 40.54 63.67 clipbox
203.063917 102.068974 m
207.233239 102.068974 l
207.233239 103.326492 l
203.063917 103.326492 l
cl
0.667 setgray
fill
grestore
gsave
204.1 95.33 40.54 63.67 clipbox
218.698875 102.068974 m
222.868196 102.068974 l
222.868196 105.682285 l
218.698875 105.682285 l
cl
0.667 setgray
fill
grestore
gsave
204.1 95.33 40.54 63.67 clipbox
234.333832 102.068974 m
238.503154 102.068974 l
238.503154 97.353657 l
234.333832 97.353657 l
cl
0.667 setgray
fill
grestore
gsave
204.1 95.33 40.54 63.67 clipbox
50.883668 102.068974 m
55.05299 102.068974 l
55.05299 89.778847 l
50.883668 89.778847 l
cl
0.800 setgray
fill
grestore
gsave
204.1 95.33 40.54 63.67 clipbox
66.518625 102.068974 m
70.687947 102.068974 l
70.687947 110.65579 l
66.518625 110.65579 l
cl
0.800 setgray
fill
grestore
gsave
204.1 95.33 40.54 63.67 clipbox
82.153583 102.068974 m
86.322904 102.068974 l
86.322904 73.302475 l
82.153583 73.302475 l
cl
0.800 setgray
fill
grestore
gsave
204.1 95.33 40.54 63.67 clipbox
97.78854 102.068974 m
101.957862 102.068974 l
101.957862 -56827.706661 l
97.78854 -56827.706661 l
cl
0.800 setgray
fill
grestore
gsave
204.1 95.33 40.54 63.67 clipbox
113.423497 102.068974 m
117.592819 102.068974 l
117.592819 124.297745 l
113.423497 124.297745 l
cl
0.800 setgray
fill
grestore
gsave
204.1 95.33 40.54 63.67 clipbox
129.058454 102.068974 m
133.227776 102.068974 l
133.227776 -56827.706661 l
129.058454 -56827.706661 l
cl
0.800 setgray
fill
grestore
gsave
204.1 95.33 40.54 63.67 clipbox
144.693411 102.068974 m
148.862733 102.068974 l
148.862733 113.265007 l
144.693411 113.265007 l
cl
0.800 setgray
fill
grestore
gsave
204.1 95.33 40.54 63.67 clipbox
160.328368 102.068974 m
164.49769 102.068974 l
164.49769 111.890534 l
160.328368 111.890534 l
cl
0.800 setgray
fill
grestore
gsave
204.1 95.33 40.54 63.67 clipbox
175.963325 102.068974 m
180.132647 102.068974 l
180.132647 121.913704 l
175.963325 121.913704 l
cl
0.800 setgray
fill
grestore
gsave
204.1 95.33 40.54 63.67 clipbox
191.598282 102.068974 m
195.767604 102.068974 l
195.767604 104.656146 l
191.598282 104.656146 l
cl
0.800 setgray
fill
grestore
gsave
204.1 95.33 40.54 63.67 clipbox
207.233239 102.068974 m
211.402561 102.068974 l
211.402561 -56827.706661 l
207.233239 -56827.706661 l
cl
0.800 setgray
fill
grestore
gsave
204.1 95.33 40.54 63.67 clipbox
222.868196 102.068974 m
227.037518 102.068974 l
227.037518 106.000742 l
222.868196 106.000742 l
cl
0.800 setgray
fill
grestore
gsave
204.1 95.33 40.54 63.67 clipbox
238.503154 102.068974 m
242.672475 102.068974 l
242.672475 97.205835 l
238.503154 97.205835 l
cl
0.800 setgray
fill
grestore
0.800 setlinewidth
1 setlinejoin
0 setlinecap
[] 0 setdash
0.000 setgray
gsave
/o {
gsave
newpath
translate
0.8 setlinewidth
1 setlinejoin
0 setlinecap
0 0 m
0 -3.5 l

gsave
0.000 setgray
fill
grestore
stroke
grestore
} bind def
48.799 63.6688 o
grestore
/DejaVuSans findfont
7.000 scalefont
setfont
gsave
50.728695 30.871875 translate
90.000000 rotate
0.000000 0 m /c glyphshow
3.848633 0 m /a glyphshow
8.138184 0 m /g glyphshow
12.581543 0 m /e glyphshow
16.888184 0 m /one glyphshow
21.341797 0 m /three glyphshow
grestore
gsave
/o {
gsave
newpath
translate
0.8 setlinewidth
1 setlinejoin
0 setlinecap
0 0 m
0 -3.5 l

gsave
0.000 setgray
fill
grestore
stroke
grestore
} bind def
64.434 63.6688 o
grestore
gsave
66.363652 30.871875 translate
90.000000 rotate
0.000000 0 m /c glyphshow
3.848633 0 m /a glyphshow
8.138184 0 m /g glyphshow
12.581543 0 m /e glyphshow
16.888184 0 m /one glyphshow
21.341797 0 m /four glyphshow
grestore
gsave
/o {
gsave
newpath
translate
0.8 setlinewidth
1 setlinejoin
0 setlinecap
0 0 m
0 -3.5 l

gsave
0.000 setgray
fill
grestore
stroke
grestore
} bind def
80.0689 63.6688 o
grestore
gsave
81.998609 24.059375 translate
90.000000 rotate
0.000000 0 m /l glyphshow
1.944824 0 m /a glyphshow
6.234375 0 m /n glyphshow
10.670898 0 m /g glyphshow
15.114258 0 m /u glyphshow
19.550781 0 m /a glyphshow
23.840332 0 m /g glyphshow
28.283691 0 m /e glyphshow
grestore
gsave
/o {
gsave
newpath
translate
0.8 setlinewidth
1 setlinejoin
0 setlinecap
0 0 m
0 -3.5 l

gsave
0.000 setgray
fill
grestore
stroke
grestore
} bind def
95.7039 63.6688 o
grestore
gsave
97.633566 34.450000 translate
90.000000 rotate
0.000000 0 m /n glyphshow
4.436523 0 m /s glyphshow
8.083496 0 m /three glyphshow
12.537109 0 m /D glyphshow
17.927246 0 m /a glyphshow
grestore
gsave
/o {
gsave
newpath
translate
0.8 setlinewidth
1 setlinejoin
0 setlinecap
0 0 m
0 -3.5 l

gsave
0.000 setgray
fill
grestore
stroke
grestore
} bind def
111.339 63.6688 o
grestore
gsave
113.166961 7.200000 translate
90.000000 rotate
0.000000 0 m /p glyphshow
4.443359 0 m /a glyphshow
8.732910 0 m /r glyphshow
11.610840 0 m /a glyphshow
15.900391 0 m /b glyphshow
20.343750 0 m /o glyphshow
24.626465 0 m /l glyphshow
26.571289 0 m /i glyphshow
28.516113 0 m /c glyphshow
32.364746 0 m /underscore glyphshow
35.864746 0 m /f glyphshow
38.329102 0 m /e glyphshow
42.635742 0 m /m glyphshow
grestore
gsave
/o {
gsave
newpath
translate
0.8 setlinewidth
1 setlinejoin
0 setlinecap
0 0 m
0 -3.5 l

gsave
0.000 setgray
fill
grestore
stroke
grestore
} bind def
126.974 63.6688 o
grestore
gsave
128.903480 15.715625 translate
90.000000 rotate
0.000000 0 m /p glyphshow
4.443359 0 m /o glyphshow
8.726074 0 m /i glyphshow
10.670898 0 m /s glyphshow
14.317871 0 m /s glyphshow
17.964844 0 m /o glyphshow
22.247559 0 m /n glyphshow
26.684082 0 m /three glyphshow
31.137695 0 m /D glyphshow
36.527832 0 m /b glyphshow
grestore
gsave
/o {
gsave
newpath
translate
0.8 setlinewidth
1 setlinejoin
0 setlinecap
0 0 m
0 -3.5 l

gsave
0.000 setgray
fill
grestore
stroke
grestore
} bind def
142.609 63.6688 o
grestore
gsave
144.538438 26.606250 translate
90.000000 rotate
0.000000 0 m /s glyphshow
3.646973 0 m /t glyphshow
6.391602 0 m /o glyphshow
10.674316 0 m /m glyphshow
17.493164 0 m /a glyphshow
21.782715 0 m /c glyphshow
25.631348 0 m /h glyphshow
grestore
gsave
/o {
gsave
newpath
translate
0.8 setlinewidth
1 setlinejoin
0 setlinecap
0 0 m
0 -3.5 l

gsave
0.000 setgray
fill
grestore
stroke
grestore
} bind def
158.244 63.6688 o
grestore
gsave
160.173395 38.340625 translate
90.000000 rotate
0.000000 0 m /t glyphshow
2.744629 0 m /two glyphshow
7.198242 0 m /e glyphshow
11.504883 0 m /m glyphshow
grestore
gsave
/o {
gsave
newpath
translate
0.8 setlinewidth
1 setlinejoin
0 setlinecap
0 0 m
0 -3.5 l

gsave
0.000 setgray
fill
grestore
stroke
grestore
} bind def
173.879 63.6688 o
grestore
gsave
175.808352 24.903125 translate
90.000000 rotate
0.000000 0 m /t glyphshow
2.744629 0 m /h glyphshow
7.181152 0 m /e glyphshow
11.487793 0 m /r glyphshow
14.240723 0 m /m glyphshow
21.059570 0 m /a glyphshow
25.349121 0 m /l glyphshow
27.293945 0 m /two glyphshow
grestore
gsave
/o {
gsave
newpath
translate
0.8 setlinewidth
1 setlinejoin
0 setlinecap
0 0 m
0 -3.5 l

gsave
0.000 setgray
fill
grestore
stroke
grestore
} bind def
189.514 63.6688 o
grestore
gsave
191.240184 17.387500 translate
90.000000 rotate
0.000000 0 m /t glyphshow
2.744629 0 m /m glyphshow
9.563477 0 m /t glyphshow
12.308105 0 m /underscore glyphshow
15.808105 0 m /u glyphshow
20.244629 0 m /n glyphshow
24.681152 0 m /s glyphshow
28.328125 0 m /y glyphshow
32.470703 0 m /m glyphshow
grestore
gsave
/o {
gsave
newpath
translate
0.8 setlinewidth
1 setlinejoin
0 setlinecap
0 0 m
0 -3.5 l

gsave
0.000 setgray
fill
grestore
stroke
grestore
} bind def
205.149 63.6688 o
grestore
gsave
207.078266 34.387500 translate
90.000000 rotate
0.000000 0 m /t glyphshow
2.744629 0 m /o glyphshow
7.027344 0 m /r glyphshow
9.905273 0 m /s glyphshow
13.552246 0 m /o glyphshow
17.834961 0 m /two glyphshow
grestore
gsave
/o {
gsave
newpath
translate
0.8 setlinewidth
1 setlinejoin
0 setlinecap
0 0 m
0 -3.5 l

gsave
0.000 setgray
fill
grestore
stroke
grestore
} bind def
220.784 63.6688 o
grestore
gsave
222.713223 34.387500 translate
90.000000 rotate
0.000000 0 m /t glyphshow
2.744629 0 m /o glyphshow
7.027344 0 m /r glyphshow
9.905273 0 m /s glyphshow
13.552246 0 m /o glyphshow
17.834961 0 m /three glyphshow
grestore
gsave
/o {
gsave
newpath
translate
0.8 setlinewidth
1 setlinejoin
0 setlinecap
0 0 m
0 -3.5 l

gsave
0.000 setgray
fill
grestore
stroke
grestore
} bind def
236.418 63.6688 o
grestore
gsave
238.348180 23.887500 translate
90.000000 rotate
0.000000 0 m /v glyphshow
4.142578 0 m /e glyphshow
8.449219 0 m /n glyphshow
12.885742 0 m /k glyphshow
16.814453 0 m /a glyphshow
21.104004 0 m /t glyphshow
23.848633 0 m /zero glyphshow
28.302246 0 m /one glyphshow
grestore
gsave
/o {
gsave
newpath
translate
0.8 setlinewidth
1 setlinejoin
0 setlinecap
0 0 m
-3.5 0 l

gsave
0.000 setgray
fill
grestore
stroke
grestore
} bind def
40.5438 78.441 o
grestore
gsave
17.965625 75.784733 translate
0.000000 rotate
0.000000 0 m /zero glyphshow
4.453613 0 m /period glyphshow
6.678711 0 m /seven glyphshow
11.132324 0 m /five glyphshow
grestore
gsave
/o {
gsave
newpath
translate
0.8 setlinewidth
1 setlinejoin
0 setlinecap
0 0 m
-3.5 0 l

gsave
0.000 setgray
fill
grestore
stroke
grestore
} bind def
40.5438 102.069 o
grestore
gsave
17.965625 99.412724 translate
0.000000 rotate
0.000000 0 m /one glyphshow
4.453613 0 m /period glyphshow
6.678711 0 m /zero glyphshow
11.132324 0 m /zero glyphshow
grestore
gsave
/o {
gsave
newpath
translate
0.8 setlinewidth
1 setlinejoin
0 setlinecap
0 0 m
-3.5 0 l

gsave
0.000 setgray
fill
grestore
stroke
grestore
} bind def
40.5438 135.371 o
grestore
gsave
17.965625 132.714508 translate
0.000000 rotate
0.000000 0 m /one glyphshow
4.453613 0 m /period glyphshow
6.678711 0 m /five glyphshow
11.132324 0 m /zero glyphshow
grestore
gsave
/o {
gsave
newpath
translate
0.8 setlinewidth
1 setlinejoin
0 setlinecap
0 0 m
-3.5 0 l

gsave
0.000 setgray
fill
grestore
stroke
grestore
} bind def
40.5438 158.999 o
grestore
gsave
17.965625 156.342500 translate
0.000000 rotate
0.000000 0 m /two glyphshow
4.453613 0 m /period glyphshow
6.678711 0 m /zero glyphshow
11.132324 0 m /zero glyphshow
grestore
gsave
12.512500 71.232188 translate
90.000000 rotate
0.000000 0 m /S glyphshow
4.443359 0 m /p glyphshow
8.886719 0 m /e glyphshow
13.193359 0 m /e glyphshow
17.500000 0 m /d glyphshow
21.943359 0 m /u glyphshow
26.379883 0 m /p glyphshow
30.823242 0 m /space glyphshow
33.048340 0 m /o glyphshow
37.331055 0 m /v glyphshow
41.473633 0 m /e glyphshow
45.780273 0 m /r glyphshow
48.658203 0 m /space glyphshow
50.883301 0 m /b glyphshow
55.326660 0 m /a glyphshow
59.616211 0 m /s glyphshow
63.263184 0 m /e glyphshow
67.569824 0 m /l glyphshow
69.514648 0 m /i glyphshow
71.459473 0 m /n glyphshow
75.895996 0 m /e glyphshow
grestore
1.500 setlinewidth
gsave
204.1 95.33 40.54 63.67 clipbox
44.629685 103.622435 m
44.629685 104.436922 l
stroke
grestore
gsave
204.1 95.33 40.54 63.67 clipbox
60.264643 103.816641 m
60.264643 114.034457 l
stroke
grestore
gsave
204.1 95.33 40.54 63.67 clipbox
75.8996 97.105213 m
75.8996 97.729926 l
stroke
grestore
gsave
204.1 95.33 40.54 63.67 clipbox
91.534557 112.818085 m
91.534557 113.824847 l
stroke
grestore
gsave
204.1 95.33 40.54 63.67 clipbox
107.169514 116.535603 m
107.169514 116.715723 l
stroke
grestore
gsave
204.1 95.33 40.54 63.67 clipbox
122.804471 72.322252 m
122.804471 72.780773 l
stroke
grestore
gsave
204.1 95.33 40.54 63.67 clipbox
138.439428 109.842333 m
138.439428 111.437501 l
stroke
grestore
gsave
204.1 95.33 40.54 63.67 clipbox
154.074385 106.263442 m
154.074385 106.685244 l
stroke
grestore
gsave
204.1 95.33 40.54 63.67 clipbox
169.709342 119.271093 m
169.709342 119.511233 l
stroke
grestore
gsave
204.1 95.33 40.54 63.67 clipbox
185.344299 102.896964 m
185.344299 104.056701 l
stroke
grestore
gsave
204.1 95.33 40.54 63.67 clipbox
200.979257 99.641447 m
200.979257 103.653554 l
stroke
grestore
gsave
204.1 95.33 40.54 63.67 clipbox
216.614214 101.647362 m
216.614214 103.066711 l
stroke
grestore
gsave
204.1 95.33 40.54 63.67 clipbox
232.249171 94.692702 m
232.249171 113.113105 l
stroke
grestore
gsave
204.1 95.33 40.54 63.67 clipbox
48.799007 106.602147 m
48.799007 107.423717 l
stroke
grestore
gsave
204.1 95.33 40.54 63.67 clipbox
64.433964 109.582037 m
64.433964 115.712212 l
stroke
grestore
gsave
204.1 95.33 40.54 63.67 clipbox
80.068922 100.414361 m
80.068922 100.687237 l
stroke
grestore
gsave
204.1 95.33 40.54 63.67 clipbox
95.703879 114.389183 m
95.703879 115.137454 l
stroke
grestore
gsave
204.1 95.33 40.54 63.67 clipbox
111.338836 133.360628 m
111.338836 133.565247 l
stroke
grestore
gsave
204.1 95.33 40.54 63.67 clipbox
126.973793 74.79003 m
126.973793 75.5642 l
stroke
grestore
gsave
204.1 95.33 40.54 63.67 clipbox
142.60875 111.531286 m
142.60875 112.880578 l
stroke
grestore
gsave
204.1 95.33 40.54 63.67 clipbox
158.243707 110.373809 m
158.243707 111.846916 l
stroke
grestore
gsave
204.1 95.33 40.54 63.67 clipbox
173.878664 130.682099 m
173.878664 131.075754 l
stroke
grestore
gsave
204.1 95.33 40.54 63.67 clipbox
189.513621 104.329812 m
189.513621 105.607529 l
stroke
grestore
gsave
204.1 95.33 40.54 63.67 clipbox
205.148578 101.397675 m
205.148578 105.4811 l
stroke
grestore
gsave
204.1 95.33 40.54 63.67 clipbox
220.783536 104.757885 m
220.783536 105.807034 l
stroke
grestore
gsave
204.1 95.33 40.54 63.67 clipbox
236.418493 87.109931 m
236.418493 106.13882 l
stroke
grestore
gsave
204.1 95.33 40.54 63.67 clipbox
52.968329 89.352565 m
52.968329 90.295776 l
stroke
grestore
gsave
204.1 95.33 40.54 63.67 clipbox
68.603286 110.51858 m
68.603286 116.811437 l
stroke
grestore
gsave
204.1 95.33 40.54 63.67 clipbox
84.238243 73.256387 m
84.238243 73.472326 l
stroke
grestore
gsave
204.1 95.33 40.54 63.67 clipbox

stroke
grestore
gsave
204.1 95.33 40.54 63.67 clipbox
115.508158 123.978511 m
115.508158 124.371402 l
stroke
grestore
gsave
204.1 95.33 40.54 63.67 clipbox

stroke
grestore
gsave
204.1 95.33 40.54 63.67 clipbox
146.778072 112.884107 m
146.778072 114.093822 l
stroke
grestore
gsave
204.1 95.33 40.54 63.67 clipbox
162.413029 111.079065 m
162.413029 112.043775 l
stroke
grestore
gsave
204.1 95.33 40.54 63.67 clipbox
178.047986 121.769342 m
178.047986 122.069917 l
stroke
grestore
gsave
204.1 95.33 40.54 63.67 clipbox
193.682943 104.304963 m
193.682943 105.292517 l
stroke
grestore
gsave
204.1 95.33 40.54 63.67 clipbox

stroke
grestore
gsave
204.1 95.33 40.54 63.67 clipbox
224.952857 104.754273 m
224.952857 106.176672 l
stroke
grestore
gsave
204.1 95.33 40.54 63.67 clipbox
240.587815 90.871892 m
240.587815 110.492555 l
stroke
grestore
0.800 setlinewidth
0 setlinejoin
2 setlinecap
[] 0 setdash
gsave
40.54375 63.66875 m
40.54375 158.99875 l
stroke
grestore
gsave
244.67375 63.66875 m
244.67375 158.99875 l
stroke
grestore
gsave
40.54375 63.66875 m
244.67375 63.66875 l
stroke
grestore
gsave
40.54375 158.99875 m
244.67375 158.99875 l
stroke
grestore
1.000 setlinewidth
0 setlinecap
0.800 setgray
gsave
50.626875 143.133125 m
239.77375 143.133125 l
240.707083 143.133125 241.17375 143.599792 241.17375 144.533125 c
241.17375 154.09875 l
241.17375 155.032083 240.707083 155.49875 239.77375 155.49875 c
50.626875 155.49875 l
49.693542 155.49875 49.226875 155.032083 49.226875 154.09875 c
49.226875 144.533125 l
49.226875 143.599792 49.693542 143.133125 50.626875 143.133125 c
cl
gsave
1.000 setgray
fill
grestore
stroke
grestore
gsave
52.026875 147.38625 m
66.026875 147.38625 l
66.026875 152.28625 l
52.026875 152.28625 l
cl
0.533 setgray
fill
grestore
0.000 setgray
gsave
71.626875 147.386250 translate
0.000000 rotate
0.000000 0 m /space glyphshow
2.225098 0 m /P glyphshow
6.321289 0 m /r glyphshow
9.074219 0 m /e glyphshow
13.380859 0 m /c glyphshow
17.229492 0 m /o glyphshow
21.512207 0 m /n glyphshow
25.948730 0 m /d glyphshow
30.392090 0 m /i glyphshow
32.336914 0 m /t glyphshow
35.081543 0 m /i glyphshow
37.026367 0 m /o glyphshow
41.309082 0 m /n glyphshow
45.745605 0 m /e glyphshow
50.052246 0 m /r glyphshow
grestore
gsave
138.564375 147.38625 m
152.564375 147.38625 l
152.564375 152.28625 l
138.564375 152.28625 l
cl
0.667 setgray
fill
grestore
gsave
158.164375 147.386250 translate
0.000000 rotate
0.000000 0 m /space glyphshow
2.225098 0 m /M glyphshow
8.264648 0 m /i glyphshow
10.209473 0 m /x glyphshow
14.102051 0 m /e glyphshow
18.408691 0 m /d glyphshow
grestore
gsave
195.02375 147.38625 m
209.02375 147.38625 l
209.02375 152.28625 l
195.02375 152.28625 l
cl
0.800 setgray
fill
grestore
gsave
214.623750 147.386250 translate
0.000000 rotate
0.000000 0 m /space glyphshow
2.225098 0 m /S glyphshow
6.668457 0 m /i glyphshow
8.613281 0 m /n glyphshow
13.049805 0 m /g glyphshow
17.493164 0 m /l glyphshow
19.437988 0 m /e glyphshow
grestore

end
showpage
